# 3ds Max Wavefront OBJ Exporter v0.97b - (c)2007 guruware
# File Created: 07.05.2016 13:31:27

mtllib energia.mtl

#
# object Cylinder002
#

v  -7.0335 0.0000 -0.1134
v  -7.0805 0.0000 0.0000
v  -7.0805 0.8862 0.0000
v  -7.0335 0.8862 -0.1134
v  -7.0335 0.0000 0.1134
v  -7.0335 0.8862 0.1134
v  -6.9201 0.0000 0.1593
v  -6.9201 0.8862 0.1593
v  -6.9201 0.0000 -0.1593
v  -6.9201 -0.0498 -0.0886
v  -6.9731 -0.0498 -0.0636
v  -6.9995 -0.0498 0.0000
v  -6.9731 -0.0498 0.0636
v  -6.9201 -0.0498 0.0000
v  -7.0016 0.9154 0.0000
v  -6.9754 0.9154 -0.0632
v  -6.9754 0.9154 0.0632
v  -6.9201 0.9154 0.0882
v  -7.0016 0.9274 0.0000
v  -6.9754 0.9274 -0.0632
v  -6.9754 0.9274 0.0632
v  -6.9201 0.9274 0.0882
v  -7.0277 0.9450 0.0000
v  -6.9931 0.9450 -0.0834
v  -6.9931 0.9450 0.0834
v  -6.9201 0.9469 0.1164
v  -6.9931 1.0595 0.0834
v  -7.0277 1.0595 0.0000
v  -6.9931 1.0595 -0.0834
v  -6.9910 1.0595 0.0000
v  -6.9682 1.0595 -0.0550
v  -6.9682 1.0595 0.0550
v  -6.9201 1.0585 0.1164
v  -6.9201 1.0588 0.0768
v  -6.9682 0.9453 0.0550
v  -6.9910 0.9453 0.0000
v  -6.9682 0.9063 -0.0550
v  -6.9201 0.9063 -0.0768
v  -6.9201 0.9453 -0.0768
v  -6.9682 0.9453 -0.0550
v  -6.9910 0.9063 0.0000
v  -6.9682 0.9063 0.0550
v  -6.9201 0.9063 0.0768
v  -6.9201 0.9063 0.0000
v  -6.9267 0.9561 0.1134
v  -6.9830 0.9561 0.0880
v  -6.9830 1.0484 0.0880
v  -6.9278 1.0484 0.0733
v  -6.9581 1.0484 0.0596
v  -6.9581 0.9564 0.0596
v  -6.9267 1.0484 0.1134
v  -6.9278 0.9564 0.0733
v  -7.0234 0.9561 -0.0102
v  -6.9974 0.9561 -0.0732
v  -7.0234 1.0484 -0.0102
v  -6.9974 1.0484 -0.0732
v  -6.9867 1.0484 -0.0102
v  -6.9724 1.0484 -0.0448
v  -6.9867 0.9564 -0.0102
v  -6.9724 0.9564 -0.0448
v  -6.9201 0.8862 -0.1593
v  -6.9201 -0.0498 0.0886
v  -6.9201 0.9154 -0.0882
v  -6.9201 0.9274 -0.0882
v  -6.9201 0.9450 -0.1164
v  -6.9201 1.0595 -0.1164
v  -6.9201 1.0595 -0.0768
v  -6.9201 0.9466 0.0768
v  -6.8067 0.0000 -0.1134
v  -6.8067 0.8862 -0.1134
v  -6.7598 0.8862 0.0000
v  -6.7598 0.0000 0.0000
v  -6.8067 0.8862 0.1134
v  -6.8067 0.0000 0.1134
v  -6.8671 -0.0498 -0.0636
v  -6.8407 -0.0498 0.0000
v  -6.8671 -0.0498 0.0636
v  -6.8648 0.9154 -0.0632
v  -6.8386 0.9154 0.0000
v  -6.8648 0.9154 0.0632
v  -6.8648 0.9274 -0.0632
v  -6.8386 0.9274 0.0000
v  -6.8648 0.9274 0.0632
v  -6.8471 0.9450 -0.0834
v  -6.8125 0.9450 0.0000
v  -6.8471 0.9450 0.0834
v  -6.8471 1.0595 -0.0834
v  -6.8720 1.0595 -0.0550
v  -6.8492 1.0595 0.0000
v  -6.8125 1.0595 0.0000
v  -6.8720 1.0595 0.0550
v  -6.8471 1.0595 0.0834
v  -6.8720 0.9063 -0.0550
v  -6.8720 0.9453 -0.0550
v  -6.8492 0.9063 0.0000
v  -6.8492 0.9453 0.0000
v  -6.8720 0.9063 0.0550
v  -6.8720 0.9453 0.0550
v  -6.8153 0.9522 0.0067
v  -6.8443 0.9522 0.0768
v  -6.8153 1.0523 0.0067
v  -6.8443 1.0523 0.0768
v  -6.8520 1.0523 0.0067
v  -6.8693 1.0523 0.0484
v  -6.8520 0.9525 0.0067
v  -6.8693 0.9525 0.0484
v  -6.8537 0.9522 -0.0864
v  -6.8537 1.0523 -0.0864
v  -6.9135 0.9522 -0.1134
v  -6.9135 1.0523 -0.1134
v  -6.8786 0.9525 -0.0580
v  -6.9135 0.9525 -0.0738
v  -6.8786 1.0523 -0.0580
v  -6.9135 1.0523 -0.0738
# 114 vertices

vn -0.7042 0.0000 -0.7100
vn -1.0000 0.0000 0.0000
vn -0.7042 0.0000 0.7100
vn 0.0000 0.0000 1.0000
vn -0.2334 -0.8037 -0.5473
vn -0.5118 -0.8326 -0.2120
vn -0.5118 -0.8326 0.2120
vn 0.0000 -1.0000 0.0000
vn 0.0000 -1.0000 -0.0000
vn -0.3435 0.9283 -0.1423
vn -0.3435 0.9283 0.1423
vn -0.1544 0.9171 0.3675
vn -0.9239 0.0000 -0.3827
vn -0.9239 -0.0000 0.3827
vn -0.4119 0.0000 0.9112
vn -0.5451 -0.8074 -0.2258
vn -0.5451 -0.8074 0.2258
vn -0.2310 -0.8110 0.5375
vn 0.0000 1.0000 -0.0000
vn 0.0095 0.9999 0.0079
vn 0.9239 0.0000 -0.3827
vn 0.4119 0.0000 0.9112
vn 0.9239 0.0000 0.3827
vn -0.0000 1.0000 -0.0000
vn -0.4118 0.0007 0.9113
vn -0.4117 -0.0000 0.9113
vn 0.4118 0.0008 -0.9113
vn 0.4117 0.0000 -0.9113
vn 0.7513 0.0000 0.6599
vn -0.0034 1.0000 0.0076
vn -0.9996 0.0000 0.0274
vn 0.9239 -0.0000 0.3827
vn -0.7513 0.0000 0.6599
vn -0.0082 1.0000 -0.0034
vn -0.0000 0.0000 -1.0000
vn 0.0000 0.0000 -1.0000
vn -0.2334 -0.8037 0.5473
vn -0.1544 0.9171 -0.3675
vn -0.4119 0.0000 -0.9112
vn -0.2329 -0.8248 -0.5152
vn -0.4118 0.0000 -0.9113
vn 0.4119 -0.0000 -0.9112
vn -0.4135 -0.0000 0.9105
vn -0.4118 -0.0008 0.9113
vn 0.4133 0.0000 -0.9106
vn 0.4118 -0.0007 -0.9113
vn 0.7042 0.0000 -0.7100
vn 1.0000 0.0000 0.0000
vn 0.7042 0.0000 0.7100
vn 0.2334 -0.8037 -0.5473
vn 0.5118 -0.8326 -0.2120
vn 0.5118 -0.8326 0.2120
vn -0.0000 -1.0000 0.0000
vn -0.0000 -1.0000 -0.0000
vn 0.3435 0.9283 -0.1423
vn 0.3435 0.9283 0.1423
vn 0.1544 0.9171 0.3675
vn 0.5451 -0.8074 -0.2258
vn 0.5451 -0.8074 0.2258
vn 0.2310 -0.8110 0.5375
vn -0.0095 0.9999 0.0079
vn -0.9239 0.0000 0.3827
vn 0.2334 -0.8037 0.5473
vn 0.1544 0.9171 -0.3675
vn 0.4119 0.0000 -0.9112
vn 0.2329 -0.8248 -0.5152
vn -0.4119 -0.0000 -0.9112
vn 0.4118 -0.0000 0.9113
vn -0.9239 -0.0000 -0.3827
vn 0.7513 0.0000 -0.6599
vn 0.0082 1.0000 0.0034
vn -0.0000 -0.0000 1.0000
vn -0.0000 0.0000 1.0000
vn 0.4118 0.0000 -0.9113
vn 0.4118 -0.0000 -0.9113
vn -0.4119 -0.0000 0.9112
vn -0.7513 0.0000 -0.6599
vn 0.0034 1.0000 -0.0076
vn 1.0000 -0.0000 0.0000
# 79 vertex normals

vt 0.5658 0.5156 0.0000
vt 0.5454 0.5740 0.0000
vt 0.0652 0.4101 0.0000
vt 0.0838 0.3511 0.0000
vt 0.5324 0.6389 0.0000
vt 0.0366 0.4699 0.0000
vt 0.6629 0.2317 0.0000
vt 0.1820 0.0666 0.0000
vt 0.1974 0.0020 0.0000
vt 0.6928 0.1726 0.0000
vt 0.5865 0.4593 0.0000
vt 0.6315 0.4745 0.0000
vt 0.6146 0.5267 0.0000
vt 0.5968 0.5811 0.0000
vt 0.5917 0.6273 0.0000
vt 0.7966 0.2449 0.0000
vt 0.8035 0.2780 0.0000
vt 0.7536 0.2660 0.0000
vt 0.7647 0.2215 0.0000
vt 0.0254 0.3884 0.0000
vt 0.0437 0.3338 0.0000
vt 0.0020 0.4288 0.0000
vt 0.1408 0.0595 0.0000
vt 0.1468 0.0182 0.0000
vt 0.1353 0.8787 -0.9231
vt 0.1640 0.9030 -0.9231
vt 0.1607 0.9080 -0.9231
vt 0.1311 0.8835 -0.9231
vt 0.1963 0.9228 -0.9231
vt 0.1944 0.9259 -0.9231
vt 0.0970 0.7159 -0.9231
vt 0.0887 0.7140 -0.9231
vt 0.1001 0.6812 -0.9231
vt 0.1070 0.6837 -0.9231
vt 0.1519 0.9234 -0.9231
vt 0.1182 0.8963 -0.9231
vt 0.1951 0.9409 -0.9231
vt 0.0699 0.7094 -0.9231
vt 0.0836 0.6700 -0.9231
vt 0.1692 0.9980 -0.9231
vt 0.1209 0.9757 -0.9231
vt 0.2314 0.7646 -0.4623
vt 0.2125 0.7189 -0.4623
vt 0.2326 0.7189 -0.4623
vt 0.2451 0.7490 -0.4623
vt 0.2314 0.6732 -0.4623
vt 0.2451 0.6887 -0.4623
vt 0.2714 0.6551 0.4617
vt 0.2714 0.6768 -0.4623
vt 0.9036 0.2481 -0.6122
vt 0.8410 0.2481 -0.6122
vt 0.8410 0.2155 -0.6122
vt 0.9036 0.2155 -0.6122
vt 0.8197 0.1828 -0.6122
vt 0.8197 0.1539 0.6122
vt 0.8410 0.1539 -0.6122
vt 0.8410 0.1828 -0.6122
vt 0.8197 0.2155 -0.6122
vt 0.8197 0.2481 -0.6122
vt 0.8322 0.3885 -0.4184
vt 0.8585 0.3766 0.4184
vt 0.8585 0.4186 -0.4184
vt 0.8197 0.4186 -0.4184
vt 0.0665 0.7056 -0.9231
vt 0.0748 0.6738 -0.9231
vt 0.0191 0.6551 -0.9231
vt 0.0239 0.6619 -0.9231
vt 0.9036 0.0020 -0.6122
vt 0.9032 0.0309 -0.6122
vt 0.8975 0.0263 -0.6122
vt 0.8975 0.0081 -0.6122
vt 0.8410 0.0020 -0.6122
vt 0.8471 0.0081 -0.6122
vt 0.8662 0.3430 -1.1984
vt 0.8427 0.3186 1.1984
vt 0.8611 0.3092 -1.1984
vt 0.8737 0.3223 -1.1984
vt 0.8197 0.2736 -1.1984
vt 0.8382 0.2643 -1.1984
vt 0.9473 0.3567 -1.1984
vt 0.9137 0.3604 -1.1984
vt 0.9211 0.3396 1.0607
vt 0.9392 0.3377 -1.1984
vt 0.1452 0.9248 -0.9231
vt 0.1174 0.9042 -0.9231
vt 0.1172 0.9674 -0.9231
vt 0.0759 0.9419 -0.9231
vt 0.0852 0.9430 -0.9231
vt 0.9036 0.1828 -0.6122
vt 0.8975 0.2094 -0.6122
vt 0.8975 0.1889 -0.6122
vt 0.8471 0.2094 -0.6122
vt 0.8471 0.1889 -0.6122
vt 0.3979 0.7341 0.0000
vt 0.3923 0.7710 0.0000
vt 0.3754 0.7592 0.0000
vt 0.3784 0.7389 0.0000
vt 0.3634 0.8125 0.0000
vt 0.3465 0.8006 0.0000
vt 0.3634 0.6551 0.0000
vt 0.3858 0.6850 0.0000
vt 0.3663 0.6900 0.0000
vt 0.3541 0.6736 0.0000
vt 0.1016 0.2937 0.0000
vt 0.7255 0.2252 0.0000
vt 0.7038 0.2548 0.0000
vt 0.0622 0.2804 0.0000
vt 0.1093 0.8565 -0.9231
vt 0.1145 0.8527 -0.9231
vt 0.0945 0.8668 -0.9231
vt 0.0440 0.9035 -0.9231
vt 0.2714 0.7609 -0.4623
vt 0.2714 0.7826 0.4623
vt 0.9036 0.1539 -0.6122
vt 0.8197 0.0020 -0.6122
vt 0.8417 0.0309 -0.6122
vt 0.8197 0.0309 0.6122
vt 0.8322 0.4487 -0.4184
vt 0.8585 0.4607 0.4184
vt 0.0164 0.6967 -0.9231
vt 0.0096 0.7005 0.9231
vt 0.8471 0.0263 -0.6122
vt 0.6049 0.4028 0.0000
vt 0.1213 0.2374 0.0000
vt 0.1410 0.1812 0.0000
vt 0.6236 0.3466 0.0000
vt 0.1610 0.1247 0.0000
vt 0.6427 0.2901 0.0000
vt 0.6515 0.4222 0.0000
vt 0.6721 0.3631 0.0000
vt 0.6905 0.3041 0.0000
vt 0.7824 0.3043 0.0000
vt 0.7433 0.3107 0.0000
vt 0.0789 0.2257 0.0000
vt 0.0988 0.1665 0.0000
vt 0.1206 0.1086 0.0000
vt 0.1001 0.8229 -0.9231
vt 0.0942 0.8255 -0.9231
vt 0.0850 0.7878 -0.9231
vt 0.0920 0.7865 -0.9231
vt 0.0838 0.7491 -0.9231
vt 0.0916 0.7490 -0.9231
vt 0.0780 0.8337 -0.9231
vt 0.0669 0.7913 -0.9231
vt 0.0651 0.7483 -0.9231
vt 0.3114 0.7646 -0.4623
vt 0.2978 0.7490 -0.4623
vt 0.3102 0.7189 -0.4623
vt 0.3303 0.7189 -0.4623
vt 0.2978 0.6887 -0.4623
vt 0.3114 0.6732 -0.4623
vt 0.8197 0.1250 -0.6122
vt 0.8410 0.1250 -0.6122
vt 0.8197 0.0924 -0.6122
vt 0.8410 0.0924 -0.6122
vt 0.8197 0.0598 -0.6122
vt 0.8410 0.0598 -0.6122
vt 0.8848 0.3885 -0.4184
vt 0.8973 0.4186 -0.4184
vt 0.7110 0.2878 0.0000
vt 0.8848 0.4487 -0.4184
vt 0.9036 0.0598 -0.6122
vt 0.0020 0.7479 -0.9231
vt 0.0206 0.8582 -0.9231
vt 0.0060 0.8043 -0.9231
vt 0.9036 0.0924 -0.6122
vt 0.9036 0.1250 -0.6122
vt 0.0638 0.7894 -0.9231
vt 0.0603 0.7510 -0.9231
vt 0.0087 0.7980 -0.9231
vt 0.0055 0.7533 -0.9231
vt 0.8996 0.0885 -0.6122
vt 0.8996 0.0638 -0.6122
vt 0.8450 0.0885 -0.6122
vt 0.8450 0.0638 -0.6122
vt 0.9614 0.1408 0.0000
vt 0.9366 0.1742 0.0000
vt 0.9272 0.1558 0.0000
vt 0.9419 0.1359 0.0000
vt 0.9366 0.0020 0.0000
vt 0.9684 0.0466 0.0000
vt 0.9515 0.0585 0.0000
vt 0.9198 0.0140 0.0000
vt 0.9748 0.0877 0.0000
vt 0.9553 0.0829 0.0000
vt 0.0750 0.8381 -0.9231
vt 0.0258 0.8618 -0.9231
vt 0.0908 0.8667 -0.9231
vt 0.0439 0.8967 -0.9231
vt 0.8450 0.1290 -0.6122
vt 0.8450 0.1500 -0.6122
vt 0.8996 0.1290 -0.6122
vt 0.8996 0.1500 -0.6122
vt 0.2580 0.8468 0.0000
vt 0.2609 0.8827 0.0000
vt 0.2407 0.8783 0.0000
vt 0.2390 0.8573 0.0000
vt 0.2493 0.9362 0.0000
vt 0.2291 0.9316 0.0000
vt 0.2314 0.9675 0.0000
vt 0.2187 0.9499 0.0000
vt 0.2314 0.7989 0.0000
vt 0.2125 0.8095 0.0000
# 203 texture coords

g Cylinder002
usemtl wire_086086086
s 8
f 1/1/1 2/2/2 3/3/2 4/4/1 
f 2/2/2 5/5/3 6/6/3 3/3/2 
f 7/7/4 8/8/4 6/9/3 5/10/3 
s off
f 9/11/5 10/12/5 11/13/5 1/1/5 
f 2/2/6 1/1/6 11/13/6 12/14/6 
f 5/5/7 2/2/7 12/14/7 13/15/7 
s 1
f 11/16/8 10/17/9 14/18/9 12/19/9 
s off
f 4/4/10 3/3/10 15/20/10 16/21/10 
f 3/3/11 6/6/11 17/22/11 15/20/11 
f 8/8/12 18/23/12 17/24/12 6/9/12 
f 16/25/13 15/26/13 19/27/13 20/28/13 
f 15/26/14 17/29/14 21/30/14 19/27/14 
f 18/31/15 22/32/15 21/33/15 17/34/15 
f 20/28/16 19/27/16 23/35/16 24/36/16 
f 19/27/17 21/30/17 25/37/17 23/35/17 
f 22/32/18 26/38/18 25/39/18 21/33/18 
f 23/35/14 25/37/14 27/40/14 28/41/14 
f 29/42/19 28/43/19 30/44/19 31/45/19 
f 28/43/19 27/46/19 32/47/19 30/44/19 
f 27/46/20 33/48/20 34/49/20 32/47/20 
f 32/50/21 35/51/21 36/52/21 30/53/21 
f 37/54/22 38/55/22 39/56/22 40/57/22 
f 41/58/23 37/54/23 40/57/23 36/52/23 
f 42/59/21 41/58/21 36/52/21 35/51/21 
s 1
f 42/60/24 43/61/19 44/62/24 41/63/19 
s off
f 25/39/25 26/38/25 45/64/25 46/65/25 
f 27/66/26 25/39/26 46/65/26 47/67/26 
f 32/68/27 34/69/27 48/70/27 49/71/27 
f 35/72/28 32/68/28 49/71/28 50/73/28 
s 1
f 51/74/9 47/75/9 49/76/9 48/77/9 
s 2
f 47/75/29 46/78/29 50/79/29 49/76/29 
s 1
f 46/80/30 45/81/30 52/82/30 50/83/30 
s 2
f 45/81/31 51/74/31 48/77/31 52/82/31 
s off
f 24/36/13 23/35/13 53/84/13 54/85/13 
f 23/35/13 28/41/13 55/86/13 53/84/13 
f 28/41/13 29/87/13 56/88/13 55/86/13 
f 29/87/13 24/36/13 54/85/13 56/88/13 
f 31/89/23 30/53/23 57/90/23 58/91/23 
f 30/53/23 36/52/23 59/92/23 57/90/23 
f 36/52/32 40/57/32 60/93/32 59/92/32 
f 40/57/23 31/89/23 58/91/23 60/93/23 
s 1
f 55/94/9 56/95/9 58/96/9 57/97/9 
s 2
f 56/95/33 54/98/33 60/99/33 58/96/33 
s 1
f 54/100/34 53/101/34 59/102/34 60/103/34 
s 2
f 53/101/35 55/94/35 57/97/35 59/102/35 
s 8
f 1/1/1 4/4/1 61/104/36 9/11/36 
s off
f 7/7/37 5/10/37 13/105/37 62/106/37 
s 1
f 13/105/9 12/19/9 14/18/9 62/106/9 
s off
f 61/104/38 4/4/38 16/21/38 63/107/38 
f 16/25/39 20/28/39 64/108/39 63/109/39 
f 64/108/40 20/28/40 24/36/40 65/110/40 
f 24/36/41 29/87/41 66/111/41 65/110/41 
f 29/42/19 31/45/19 67/112/19 66/113/19 
f 31/89/22 40/57/22 39/56/22 67/114/22 
f 42/115/42 35/72/42 68/116/42 43/117/42 
s 1
f 37/118/19 41/63/19 44/62/24 38/119/19 
s off
f 51/120/43 45/64/43 26/38/43 33/121/43 
f 27/66/44 47/67/44 51/120/44 33/121/44 
f 52/122/45 48/70/45 34/69/45 68/116/45 
f 35/72/46 50/73/46 52/122/46 68/116/46 
s 8
f 69/123/47 70/124/47 71/125/48 72/126/48 
f 72/126/48 71/125/48 73/127/49 74/128/49 
f 7/7/4 74/128/49 73/127/49 8/8/4 
s off
f 9/11/50 69/123/50 75/129/50 10/12/50 
f 72/126/51 76/130/51 75/129/51 69/123/51 
f 74/128/52 77/131/52 76/130/52 72/126/52 
s 1
f 75/132/53 76/133/54 14/18/9 10/17/9 
s off
f 70/124/55 78/134/55 79/135/55 71/125/55 
f 71/125/56 79/135/56 80/136/56 73/127/56 
f 8/8/57 73/127/57 80/136/57 18/23/57 
f 78/137/21 81/138/21 82/139/21 79/140/21 
f 79/140/32 82/139/32 83/141/32 80/142/32 
f 18/31/22 80/142/22 83/141/22 22/32/22 
f 81/138/58 84/143/58 85/144/58 82/139/58 
f 82/139/59 85/144/59 86/145/59 83/141/59 
f 22/32/60 83/141/60 86/145/60 26/38/60 
f 87/146/19 88/147/19 89/148/19 90/149/19 
f 90/149/19 89/148/19 91/150/19 92/151/19 
f 92/151/61 91/150/61 34/49/61 33/48/61 
f 93/152/15 94/153/15 39/56/15 38/55/15 
f 95/154/62 96/155/62 94/153/62 93/152/62 
f 97/156/13 98/157/13 96/155/13 95/154/13 
s 1
f 97/158/19 95/159/19 44/62/24 43/61/19 
s 8
f 69/123/47 9/11/36 61/104/36 70/124/47 
s off
f 7/7/63 62/106/63 77/131/63 74/128/63 
s 1
f 77/160/54 62/106/9 14/18/9 76/133/54 
s off
f 61/104/64 63/107/64 78/134/64 70/124/64 
f 78/137/65 63/109/65 64/108/65 81/138/65 
f 64/108/66 65/110/66 84/143/66 81/138/66 
f 87/146/19 66/113/19 67/112/19 88/147/19 
f 97/156/67 43/117/67 68/116/67 98/157/67 
s 1
f 93/161/19 38/119/19 44/62/24 95/159/19 
f 68/116/39 34/69/39 91/162/39 98/157/39 
f 33/121/68 26/38/68 86/145/68 92/163/68 
s off
f 87/164/21 90/165/21 85/144/21 84/143/21 
f 94/153/62 96/155/62 89/166/62 88/167/62 
f 86/145/32 85/144/32 99/168/32 100/169/32 
f 85/144/32 90/165/32 101/170/32 99/168/32 
f 90/165/32 92/163/32 102/171/32 101/170/32 
f 92/163/32 86/145/32 100/169/32 102/171/32 
f 91/162/69 89/166/69 103/172/69 104/173/69 
f 89/166/13 96/155/13 105/174/13 103/172/13 
f 96/155/13 98/157/13 106/175/13 105/174/13 
f 98/157/13 91/162/13 104/173/13 106/175/13 
s 1
f 101/176/9 102/177/9 104/178/9 103/179/9 
s 2
f 102/180/70 100/181/70 106/182/70 104/183/70 
s 1
f 100/181/71 99/184/71 105/185/71 106/182/71 
s 2
f 99/184/72 101/176/72 103/179/72 105/185/73 
s off
f 87/164/74 84/143/74 107/186/74 108/187/74 
f 84/143/74 65/110/74 109/188/74 107/186/74 
f 65/110/74 66/111/74 110/189/74 109/188/74 
f 66/111/75 87/164/75 108/187/75 110/189/75 
f 39/56/76 94/153/76 111/190/76 112/191/76 
f 94/153/15 88/167/15 113/192/15 111/190/15 
f 88/167/15 67/114/15 114/193/15 113/192/15 
f 67/114/15 39/56/15 112/191/15 114/193/15 
s 1
f 110/194/9 108/195/9 113/196/9 114/197/9 
s 2
f 108/195/77 107/198/77 111/199/77 113/196/77 
s 1
f 107/198/78 109/200/78 112/201/78 111/199/78 
s 2
f 109/202/79 110/194/79 114/197/79 112/203/48 
# 120 polygons

