# 3ds Max Wavefront OBJ Exporter v0.97b - (c)2007 guruware
# File Created: 07.05.2016 16:45:03

mtllib esfera.mtl

#
# object Sphere001
#

v  0.1940 -0.0001 1972.5563
v  -74.8901 377.4731 1934.6500
v  0.1940 384.8682 1934.6500
v  -147.0887 355.5719 1934.6500
v  -213.6274 320.0062 1934.6500
v  -271.9490 272.1429 1934.6500
v  -319.8123 213.8213 1934.6500
v  -355.3780 147.2826 1934.6500
v  -377.2792 75.0839 1934.6500
v  -384.6743 -0.0002 1934.6500
v  -377.2791 -75.0843 1934.6500
v  -355.3779 -147.2830 1934.6500
v  -319.8122 -213.8217 1934.6500
v  -271.9489 -272.1432 1934.6500
v  -213.6272 -320.0065 1934.6500
v  -147.0885 -355.5722 1934.6500
v  -74.8898 -377.4733 1934.6500
v  0.1943 -384.8684 1934.6500
v  75.2784 -377.4732 1934.6500
v  147.4771 -355.5719 1934.6500
v  214.0157 -320.0061 1934.6500
v  272.3373 -272.1427 1934.6500
v  320.2005 -213.8210 1934.6500
v  355.7661 -147.2823 1934.6500
v  377.6672 -75.0836 1934.6500
v  385.0623 0.0005 1934.6500
v  377.6670 75.0846 1934.6500
v  355.7656 147.2833 1934.6500
v  320.1999 213.8219 1934.6500
v  272.3364 272.1434 1934.6500
v  214.0147 320.0067 1934.6500
v  147.4760 355.5722 1934.6500
v  75.2772 377.4733 1934.6500
v  -147.0888 740.4402 1822.3879
v  0.1939 754.9463 1822.3879
v  -288.7115 697.4795 1822.3879
v  -419.2317 627.7149 1822.3879
v  -533.6337 533.8276 1822.3879
v  -627.5210 419.4256 1822.3879
v  -697.2856 288.9053 1822.3879
v  -740.2463 147.2825 1822.3879
v  -754.7524 -0.0003 1822.3879
v  -740.2463 -147.2831 1822.3879
v  -697.2853 -288.9059 1822.3879
v  -627.5208 -419.4262 1822.3879
v  -533.6334 -533.8281 1822.3879
v  -419.2313 -627.7153 1822.3879
v  -288.7109 -697.4798 1822.3879
v  -147.0881 -740.4404 1822.3879
v  0.1947 -754.9464 1822.3879
v  147.4775 -740.4402 1822.3879
v  289.1002 -697.4792 1822.3879
v  419.6205 -627.7145 1822.3879
v  534.0223 -533.8271 1822.3879
v  627.9095 -419.4250 1822.3879
v  697.6739 -288.9045 1822.3879
v  740.6345 -147.2817 1822.3879
v  755.1403 0.0011 1822.3879
v  740.6340 147.2839 1822.3879
v  697.6730 288.9066 1822.3879
v  627.9081 419.4268 1822.3879
v  534.0206 533.8287 1822.3879
v  419.6184 627.7158 1822.3879
v  289.0980 697.4800 1822.3879
v  147.4751 740.4406 1822.3879
v  -213.6274 1074.9525 1640.0846
v  0.1939 1096.0121 1640.0846
v  -419.2317 1012.5833 1640.0846
v  -608.7178 911.3009 1640.0846
v  -774.8037 774.9976 1640.0846
v  -911.1070 608.9117 1640.0846
v  -1012.3893 419.4255 1640.0846
v  -1074.7588 213.8210 1640.0846
v  -1095.8182 -0.0004 1640.0846
v  -1074.7587 -213.8219 1640.0846
v  -1012.3890 -419.4263 1640.0846
v  -911.1066 -608.9124 1640.0846
v  -774.8032 -774.9982 1640.0846
v  -608.7172 -911.3015 1640.0846
v  -419.2309 -1012.5837 1640.0846
v  -213.6265 -1074.9529 1640.0846
v  0.1950 -1096.0123 1640.0846
v  214.0165 -1074.9526 1640.0846
v  419.6208 -1012.5829 1640.0846
v  609.1069 -911.3002 1640.0846
v  775.1926 -774.9968 1640.0846
v  911.4957 -608.9106 1640.0846
v  1012.7779 -419.4243 1640.0846
v  1075.1470 -213.8198 1640.0846
v  1096.2062 0.0017 1640.0846
v  1075.1462 213.8231 1640.0846
v  1012.7765 419.4275 1640.0846
v  911.4937 608.9134 1640.0846
v  775.1902 774.9991 1640.0846
v  609.1039 911.3020 1640.0846
v  419.6176 1012.5841 1640.0846
v  214.0130 1074.9531 1640.0846
v  -271.9490 1368.1552 1394.7454
v  0.1939 1394.9589 1394.7454
v  -533.6336 1288.7740 1394.7454
v  -774.8036 1159.8660 1394.7454
v  -986.1909 986.3848 1394.7454
v  -1159.6720 774.9975 1394.7454
v  -1288.5802 533.8274 1394.7454
v  -1367.9612 272.1426 1394.7454
v  -1394.7649 -0.0005 1394.7454
v  -1367.9611 -272.1436 1394.7454
v  -1288.5797 -533.8283 1394.7454
v  -1159.6715 -774.9984 1394.7454
v  -986.1903 -986.3856 1394.7454
v  -774.8029 -1159.8665 1394.7454
v  -533.6326 -1288.7744 1394.7454
v  -271.9478 -1368.1554 1394.7454
v  0.1953 -1394.9589 1394.7454
v  272.3384 -1368.1548 1394.7454
v  534.0231 -1288.7733 1394.7454
v  775.1930 -1159.8650 1394.7454
v  986.5801 -986.3836 1394.7454
v  1160.0609 -774.9961 1394.7454
v  1288.9688 -533.8258 1394.7454
v  1368.3495 -272.1409 1394.7454
v  1395.1528 0.0022 1394.7454
v  1368.3486 272.1452 1394.7454
v  1288.9669 533.8299 1394.7454
v  1160.0585 774.9998 1394.7454
v  986.5769 986.3867 1394.7454
v  775.1893 1159.8676 1394.7454
v  534.0190 1288.7750 1394.7454
v  272.3340 1368.1558 1394.7454
v  -319.8123 1608.7803 1095.7987
v  0.1939 1640.2982 1095.7987
v  -627.5209 1515.4380 1095.7987
v  -911.1068 1363.8582 1095.7986
v  -1159.6720 1159.8660 1095.7986
v  -1363.6642 911.3007 1095.7986
v  -1515.2441 627.7146 1095.7986
v  -1608.5864 320.0059 1095.7986
v  -1640.1042 -0.0006 1095.7986
v  -1608.5862 -320.0070 1095.7986
v  -1515.2437 -627.7157 1095.7986
v  -1363.6637 -911.3018 1095.7986
v  -1159.6713 -1159.8668 1095.7986
v  -911.1060 -1363.8588 1095.7986
v  -627.5198 -1515.4385 1095.7985
v  -319.8109 -1608.7806 1095.7985
v  0.1956 -1640.2982 1095.7985
v  320.2020 -1608.7800 1095.7985
v  627.9106 -1515.4373 1095.7985
v  911.4966 -1363.8571 1095.7986
v  1160.0614 -1159.8645 1095.7986
v  1364.0533 -911.2991 1095.7986
v  1515.6328 -627.7128 1095.7986
v  1608.9747 -320.0039 1095.7986
v  1640.4922 0.0026 1095.7986
v  1608.9738 320.0090 1095.7986
v  1515.6309 627.7176 1095.7986
v  1364.0504 911.3033 1095.7986
v  1160.0577 1159.8682 1095.7986
v  911.4922 1363.8600 1095.7986
v  627.9058 1515.4393 1095.7987
v  320.1968 1608.7811 1095.7987
v  -355.3780 1787.5807 754.7328
v  0.1939 1822.6014 754.7328
v  -697.2853 1683.8643 754.7328
v  -1012.3890 1515.4379 754.7328
v  -1288.5798 1288.7738 754.7328
v  -1515.2439 1012.5829 754.7328
v  -1683.6704 697.4791 754.7328
v  -1787.3868 355.5715 754.7328
v  -1822.4075 -0.0006 754.7328
v  -1787.3867 -355.5727 754.7328
v  -1683.6698 -697.4803 754.7328
v  -1515.2432 -1012.5841 754.7327
v  -1288.5791 -1288.7748 754.7327
v  -1012.3881 -1515.4385 754.7327
v  -697.2841 -1683.8649 754.7327
v  -355.3764 -1787.5811 754.7327
v  0.1957 -1822.6014 754.7327
v  355.7678 -1787.5802 754.7327
v  697.6752 -1683.8634 754.7327
v  1012.7789 -1515.4365 754.7327
v  1288.9694 -1288.7722 754.7327
v  1515.6331 -1012.5812 754.7327
v  1684.0592 -697.4770 754.7328
v  1787.7753 -355.5692 754.7328
v  1822.7954 0.0029 754.7328
v  1787.7740 355.5749 754.7328
v  1684.0570 697.4824 754.7328
v  1515.6299 1012.5859 754.7328
v  1288.9653 1288.7764 754.7328
v  1012.7740 1515.4398 754.7328
v  697.6699 1683.8656 754.7328
v  355.7620 1787.5814 754.7328
v  -377.2792 1897.6855 384.6549
v  0.1939 1934.8635 384.6549
v  -740.2462 1787.5808 384.6549
v  -1074.7585 1608.7803 384.6548
v  -1367.9611 1368.1550 384.6548
v  -1608.5863 1074.9525 384.6548
v  -1787.3868 740.4399 384.6548
v  -1897.4918 377.4727 384.6548
v  -1934.6696 -0.0006 384.6548
v  -1897.4916 -377.4740 384.6548
v  -1787.3865 -740.4410 384.6548
v  -1608.5856 -1074.9535 384.6547
v  -1367.9603 -1368.1560 384.6547
v  -1074.7574 -1608.7810 384.6547
v  -740.2448 -1787.5814 384.6547
v  -377.2775 -1897.6859 384.6547
v  0.1958 -1934.8635 384.6547
v  377.6691 -1897.6852 384.6547
v  740.6362 -1787.5798 384.6547
v  1075.1486 -1608.7788 384.6547
v  1368.3507 -1368.1533 384.6547
v  1608.9757 -1074.9503 384.6547
v  1787.7759 -740.4376 384.6548
v  1897.8801 -377.4703 384.6548
v  1935.0575 0.0031 384.6548
v  1897.8789 377.4763 384.6548
v  1787.7734 740.4434 384.6548
v  1608.9722 1074.9556 384.6548
v  1368.3463 1368.1577 384.6548
v  1075.1433 1608.7823 384.6548
v  740.6305 1787.5823 384.6549
v  377.6630 1897.6865 384.6549
v  -384.6743 1934.8635 -0.2133
v  0.1939 1972.7698 -0.2133
v  -754.7523 1822.6017 -0.2133
v  -1095.8181 1640.2982 -0.2133
v  -1394.7649 1394.9589 -0.2133
v  -1640.1042 1096.0121 -0.2134
v  -1822.4080 754.9460 -0.2134
v  -1934.6697 384.8678 -0.2134
v  -1972.5758 -0.0006 -0.2134
v  -1934.6696 -384.8691 -0.2134
v  -1822.4073 -754.9472 -0.2134
v  -1640.1035 -1096.0132 -0.2135
v  -1394.7640 -1394.9598 -0.2135
v  -1095.8170 -1640.2990 -0.2135
v  -754.7509 -1822.6023 -0.2135
v  -384.6726 -1934.8639 -0.2135
v  0.1959 -1972.7698 -0.2135
v  385.0643 -1934.8630 -0.2135
v  755.1423 -1822.6007 -0.2135
v  1096.2081 -1640.2968 -0.2135
v  1395.1545 -1394.9572 -0.2135
v  1640.4937 -1096.0100 -0.2135
v  1822.7968 -754.9437 -0.2134
v  1935.0581 -384.8653 -0.2134
v  1972.9637 0.0032 -0.2134
v  1935.0569 384.8716 -0.2134
v  1822.7942 754.9495 -0.2134
v  1640.4901 1096.0153 -0.2134
v  1395.1501 1394.9617 -0.2133
v  1096.2029 1640.3004 -0.2133
v  755.1365 1822.6031 -0.2133
v  385.0580 1934.8645 -0.2133
v  -377.2792 1897.6858 -385.0815
v  0.1939 1934.8636 -385.0815
v  -740.2462 1787.5811 -385.0815
v  -1074.7587 1608.7805 -385.0816
v  -1367.9613 1368.1553 -385.0816
v  -1608.5865 1074.9526 -385.0816
v  -1787.3871 740.4400 -385.0816
v  -1897.4919 377.4727 -385.0816
v  -1934.6697 -0.0006 -385.0816
v  -1897.4918 -377.4739 -385.0817
v  -1787.3867 -740.4411 -385.0817
v  -1608.5858 -1074.9536 -385.0817
v  -1367.9604 -1368.1561 -385.0817
v  -1074.7576 -1608.7811 -385.0817
v  -740.2449 -1787.5817 -385.0817
v  -377.2775 -1897.6862 -385.0817
v  0.1958 -1934.8636 -385.0817
v  377.6692 -1897.6853 -385.0817
v  740.6362 -1787.5801 -385.0817
v  1075.1486 -1608.7791 -385.0817
v  1368.3510 -1368.1534 -385.0817
v  1608.9758 -1074.9506 -385.0817
v  1787.7760 -740.4377 -385.0817
v  1897.8804 -377.4702 -385.0817
v  1935.0576 0.0031 -385.0816
v  1897.8792 377.4764 -385.0816
v  1787.7736 740.4435 -385.0816
v  1608.9723 1074.9557 -385.0816
v  1368.3466 1368.1578 -385.0816
v  1075.1434 1608.7825 -385.0816
v  740.6306 1787.5825 -385.0815
v  377.6630 1897.6868 -385.0815
v  -355.3780 1787.5808 -755.1595
v  0.1939 1822.6017 -755.1595
v  -697.2855 1683.8644 -755.1595
v  -1012.3892 1515.4380 -755.1595
v  -1288.5801 1288.7740 -755.1595
v  -1515.2440 1012.5832 -755.1595
v  -1683.6705 697.4792 -755.1596
v  -1787.3871 355.5715 -755.1596
v  -1822.4077 -0.0006 -755.1596
v  -1787.3868 -355.5727 -755.1596
v  -1683.6700 -697.4802 -755.1596
v  -1515.2434 -1012.5841 -755.1597
v  -1288.5792 -1288.7748 -755.1597
v  -1012.3882 -1515.4387 -755.1597
v  -697.2841 -1683.8650 -755.1597
v  -355.3764 -1787.5813 -755.1597
v  0.1957 -1822.6017 -755.1597
v  355.7678 -1787.5804 -755.1597
v  697.6754 -1683.8636 -755.1597
v  1012.7791 -1515.4368 -755.1597
v  1288.9696 -1288.7723 -755.1597
v  1515.6333 -1012.5811 -755.1597
v  1684.0594 -697.4770 -755.1596
v  1787.7754 -355.5692 -755.1596
v  1822.7957 0.0030 -755.1596
v  1787.7742 355.5750 -755.1596
v  1684.0571 697.4825 -755.1596
v  1515.6300 1012.5862 -755.1595
v  1288.9655 1288.7765 -755.1595
v  1012.7742 1515.4401 -755.1595
v  697.6699 1683.8658 -755.1595
v  355.7621 1787.5817 -755.1595
v  -319.8123 1608.7803 -1096.2255
v  0.1939 1640.2982 -1096.2255
v  -627.5209 1515.4380 -1096.2255
v  -911.1068 1363.8582 -1096.2256
v  -1159.6720 1159.8660 -1096.2256
v  -1363.6642 911.3008 -1096.2256
v  -1515.2441 627.7147 -1096.2256
v  -1608.5864 320.0060 -1096.2256
v  -1640.1042 -0.0005 -1096.2256
v  -1608.5862 -320.0069 -1096.2256
v  -1515.2437 -627.7156 -1096.2256
v  -1363.6637 -911.3016 -1096.2256
v  -1159.6713 -1159.8668 -1096.2256
v  -911.1060 -1363.8588 -1096.2256
v  -627.5198 -1515.4385 -1096.2257
v  -319.8109 -1608.7806 -1096.2257
v  0.1956 -1640.2982 -1096.2257
v  320.2020 -1608.7800 -1096.2257
v  627.9106 -1515.4373 -1096.2257
v  911.4966 -1363.8571 -1096.2256
v  1160.0614 -1159.8645 -1096.2256
v  1364.0533 -911.2990 -1096.2256
v  1515.6328 -627.7127 -1096.2256
v  1608.9747 -320.0038 -1096.2256
v  1640.4922 0.0027 -1096.2256
v  1608.9738 320.0091 -1096.2256
v  1515.6309 627.7177 -1096.2256
v  1364.0504 911.3035 -1096.2256
v  1160.0577 1159.8682 -1096.2256
v  911.4922 1363.8600 -1096.2256
v  627.9058 1515.4393 -1096.2255
v  320.1968 1608.7811 -1096.2255
v  -271.9490 1368.1552 -1395.1724
v  0.1939 1394.9589 -1395.1724
v  -533.6336 1288.7740 -1395.1724
v  -774.8036 1159.8660 -1395.1724
v  -986.1909 986.3849 -1395.1724
v  -1159.6720 774.9976 -1395.1724
v  -1288.5802 533.8275 -1395.1724
v  -1367.9612 272.1427 -1395.1724
v  -1394.7649 -0.0004 -1395.1724
v  -1367.9611 -272.1435 -1395.1724
v  -1288.5797 -533.8282 -1395.1724
v  -1159.6715 -774.9982 -1395.1724
v  -986.1903 -986.3854 -1395.1724
v  -774.8029 -1159.8665 -1395.1724
v  -533.6326 -1288.7744 -1395.1724
v  -271.9478 -1368.1554 -1395.1724
v  0.1953 -1394.9589 -1395.1724
v  272.3384 -1368.1548 -1395.1724
v  534.0231 -1288.7733 -1395.1724
v  775.1930 -1159.8650 -1395.1724
v  986.5801 -986.3835 -1395.1724
v  1160.0609 -774.9960 -1395.1724
v  1288.9688 -533.8257 -1395.1724
v  1368.3495 -272.1408 -1395.1724
v  1395.1528 0.0023 -1395.1724
v  1368.3486 272.1454 -1395.1724
v  1288.9669 533.8300 -1395.1724
v  1160.0585 774.9999 -1395.1724
v  986.5769 986.3868 -1395.1724
v  775.1893 1159.8676 -1395.1724
v  534.0190 1288.7750 -1395.1724
v  272.3340 1368.1558 -1395.1724
v  -213.6274 1074.9525 -1640.5117
v  0.1939 1096.0122 -1640.5117
v  -419.2316 1012.5832 -1640.5117
v  -608.7177 911.3008 -1640.5117
v  -774.8035 774.9976 -1640.5117
v  -911.1068 608.9117 -1640.5117
v  -1012.3893 419.4255 -1640.5117
v  -1074.7585 213.8212 -1640.5117
v  -1095.8181 -0.0003 -1640.5117
v  -1074.7584 -213.8217 -1640.5117
v  -1012.3889 -419.4261 -1640.5117
v  -911.1064 -608.9121 -1640.5117
v  -774.8031 -774.9980 -1640.5117
v  -608.7170 -911.3011 -1640.5117
v  -419.2309 -1012.5834 -1640.5117
v  -213.6264 -1074.9525 -1640.5117
v  0.1950 -1096.0120 -1640.5117
v  214.0164 -1074.9521 -1640.5117
v  419.6208 -1012.5826 -1640.5117
v  609.1068 -911.2999 -1640.5117
v  775.1924 -774.9965 -1640.5117
v  911.4955 -608.9104 -1640.5117
v  1012.7777 -419.4241 -1640.5117
v  1075.1467 -213.8196 -1640.5117
v  1096.2061 0.0018 -1640.5117
v  1075.1461 213.8232 -1640.5117
v  1012.7763 419.4275 -1640.5117
v  911.4936 608.9135 -1640.5117
v  775.1900 774.9991 -1640.5117
v  609.1038 911.3021 -1640.5117
v  419.6175 1012.5840 -1640.5117
v  214.0130 1074.9531 -1640.5117
v  -147.0887 740.4400 -1822.8154
v  0.1939 754.9461 -1822.8154
v  -288.7113 697.4792 -1822.8154
v  -419.2315 627.7147 -1822.8154
v  -533.6335 533.8275 -1822.8154
v  -627.5207 419.4256 -1822.8154
v  -697.2853 288.9053 -1822.8154
v  -740.2460 147.2826 -1822.8154
v  -754.7521 -0.0002 -1822.8154
v  -740.2459 -147.2829 -1822.8154
v  -697.2850 -288.9056 -1822.8154
v  -627.5204 -419.4258 -1822.8154
v  -533.6332 -533.8277 -1822.8154
v  -419.2311 -627.7149 -1822.8154
v  -288.7108 -697.4794 -1822.8154
v  -147.0880 -740.4400 -1822.8154
v  0.1947 -754.9460 -1822.8154
v  147.4774 -740.4397 -1822.8154
v  289.1001 -697.4788 -1822.8154
v  419.6203 -627.7141 -1822.8154
v  534.0221 -533.8267 -1822.8154
v  627.9092 -419.4246 -1822.8154
v  697.6736 -288.9042 -1822.8154
v  740.6341 -147.2814 -1822.8154
v  755.1400 0.0013 -1822.8154
v  740.6337 147.2840 -1822.8154
v  697.6727 288.9066 -1822.8154
v  627.9079 419.4268 -1822.8154
v  534.0204 533.8285 -1822.8154
v  419.6183 627.7156 -1822.8154
v  289.0978 697.4799 -1822.8154
v  147.4750 740.4404 -1822.8154
v  -74.8900 377.4728 -1935.0771
v  0.1940 384.8679 -1935.0771
v  -147.0886 355.5716 -1935.0771
v  -213.6271 320.0060 -1935.0771
v  -271.9487 272.1428 -1935.0771
v  -319.8120 213.8212 -1935.0771
v  -355.3776 147.2826 -1935.0771
v  -377.2787 75.0840 -1935.0771
v  -384.6739 -0.0000 -1935.0771
v  -377.2787 -75.0841 -1935.0771
v  -355.3775 -147.2826 -1935.0771
v  -319.8118 -213.8212 -1935.0771
v  -271.9485 -272.1428 -1935.0771
v  -213.6269 -320.0060 -1935.0771
v  -147.0883 -355.5716 -1935.0771
v  -74.8897 -377.4727 -1935.0771
v  0.1943 -384.8677 -1935.0771
v  75.2784 -377.4725 -1935.0771
v  147.4769 -355.5713 -1935.0771
v  214.0155 -320.0056 -1935.0771
v  272.3370 -272.1422 -1935.0771
v  320.2002 -213.8206 -1935.0771
v  355.7657 -147.2819 -1935.0771
v  377.6668 -75.0833 -1935.0771
v  385.0618 0.0007 -1935.0771
v  377.6665 75.0847 -1935.0771
v  355.7652 147.2833 -1935.0771
v  320.1995 213.8218 -1935.0771
v  272.3361 272.1432 -1935.0771
v  214.0145 320.0064 -1935.0771
v  147.4758 355.5719 -1935.0771
v  75.2771 377.4730 -1935.0771
v  0.1940 0.0001 -1972.9833
# 482 vertices

vn 0.0000 0.0000 -1.0000
vn 0.0392 -0.1971 -0.9796
vn 0.0000 -0.2010 -0.9796
vn 0.0769 -0.1857 -0.9796
vn 0.1117 -0.1671 -0.9796
vn 0.1421 -0.1421 -0.9796
vn 0.1671 -0.1117 -0.9796
vn 0.1857 -0.0769 -0.9796
vn 0.1971 -0.0392 -0.9796
vn 0.2010 0.0000 -0.9796
vn 0.1971 0.0392 -0.9796
vn 0.1857 0.0769 -0.9796
vn 0.1671 0.1117 -0.9796
vn 0.1421 0.1421 -0.9796
vn 0.1117 0.1671 -0.9796
vn 0.0769 0.1857 -0.9796
vn 0.0392 0.1971 -0.9796
vn -0.0000 0.2010 -0.9796
vn -0.0392 0.1971 -0.9796
vn -0.0769 0.1857 -0.9796
vn -0.1117 0.1671 -0.9796
vn -0.1421 0.1421 -0.9796
vn -0.1671 0.1117 -0.9796
vn -0.1857 0.0769 -0.9796
vn -0.1971 0.0392 -0.9796
vn -0.2010 -0.0000 -0.9796
vn -0.1971 -0.0392 -0.9796
vn -0.1857 -0.0769 -0.9796
vn -0.1671 -0.1117 -0.9796
vn -0.1421 -0.1421 -0.9796
vn -0.1117 -0.1671 -0.9796
vn -0.0769 -0.1857 -0.9796
vn -0.0392 -0.1971 -0.9796
vn 0.0757 -0.3804 -0.9217
vn 0.0000 -0.3879 -0.9217
vn 0.1484 -0.3584 -0.9217
vn 0.2155 -0.3225 -0.9217
vn 0.2743 -0.2743 -0.9217
vn 0.3225 -0.2155 -0.9217
vn 0.3584 -0.1484 -0.9217
vn 0.3804 -0.0757 -0.9217
vn 0.3879 0.0000 -0.9217
vn 0.3804 0.0757 -0.9217
vn 0.3584 0.1484 -0.9217
vn 0.3225 0.2155 -0.9217
vn 0.2743 0.2743 -0.9217
vn 0.2155 0.3225 -0.9217
vn 0.1484 0.3584 -0.9217
vn 0.0757 0.3804 -0.9217
vn -0.0000 0.3879 -0.9217
vn -0.0757 0.3804 -0.9217
vn -0.1484 0.3584 -0.9217
vn -0.2155 0.3225 -0.9217
vn -0.2743 0.2743 -0.9217
vn -0.3225 0.2155 -0.9217
vn -0.3584 0.1484 -0.9217
vn -0.3804 0.0757 -0.9217
vn -0.3879 -0.0000 -0.9217
vn -0.3804 -0.0757 -0.9217
vn -0.3584 -0.1484 -0.9217
vn -0.3225 -0.2155 -0.9217
vn -0.2743 -0.2743 -0.9217
vn -0.2155 -0.3225 -0.9217
vn -0.1484 -0.3584 -0.9217
vn -0.0757 -0.3804 -0.9217
vn 0.1092 -0.5490 -0.8286
vn 0.0000 -0.5598 -0.8286
vn 0.2142 -0.5172 -0.8286
vn 0.3110 -0.4654 -0.8286
vn 0.3958 -0.3958 -0.8286
vn 0.4654 -0.3110 -0.8286
vn 0.5172 -0.2142 -0.8286
vn 0.5490 -0.1092 -0.8286
vn 0.5598 0.0000 -0.8286
vn 0.5490 0.1092 -0.8286
vn 0.5172 0.2142 -0.8286
vn 0.4654 0.3110 -0.8286
vn 0.3958 0.3958 -0.8286
vn 0.3110 0.4654 -0.8286
vn 0.2142 0.5172 -0.8286
vn 0.1092 0.5490 -0.8286
vn -0.0000 0.5598 -0.8286
vn -0.1092 0.5490 -0.8286
vn -0.2142 0.5172 -0.8286
vn -0.3110 0.4654 -0.8286
vn -0.3958 0.3958 -0.8286
vn -0.4654 0.3110 -0.8286
vn -0.5172 0.2142 -0.8286
vn -0.5490 0.1092 -0.8286
vn -0.5598 -0.0000 -0.8286
vn -0.5490 -0.1092 -0.8286
vn -0.5172 -0.2142 -0.8286
vn -0.4654 -0.3110 -0.8286
vn -0.3958 -0.3958 -0.8286
vn -0.3110 -0.4654 -0.8286
vn -0.2142 -0.5172 -0.8286
vn -0.1092 -0.5490 -0.8286
vn 0.1385 -0.6965 -0.7041
vn 0.0000 -0.7101 -0.7041
vn 0.2718 -0.6561 -0.7041
vn 0.3945 -0.5905 -0.7041
vn 0.5021 -0.5021 -0.7041
vn 0.5905 -0.3945 -0.7041
vn 0.6561 -0.2718 -0.7041
vn 0.6965 -0.1385 -0.7041
vn 0.7101 0.0000 -0.7041
vn 0.6965 0.1385 -0.7041
vn 0.6561 0.2718 -0.7041
vn 0.5905 0.3945 -0.7041
vn 0.5021 0.5021 -0.7041
vn 0.3945 0.5905 -0.7041
vn 0.2718 0.6561 -0.7041
vn 0.1385 0.6965 -0.7041
vn -0.0000 0.7101 -0.7041
vn -0.1385 0.6965 -0.7041
vn -0.2718 0.6561 -0.7041
vn -0.3945 0.5905 -0.7041
vn -0.5021 0.5021 -0.7041
vn -0.5905 0.3945 -0.7041
vn -0.6561 0.2718 -0.7041
vn -0.6965 0.1385 -0.7041
vn -0.7101 -0.0000 -0.7041
vn -0.6965 -0.1385 -0.7041
vn -0.6561 -0.2718 -0.7041
vn -0.5905 -0.3945 -0.7041
vn -0.5021 -0.5021 -0.7041
vn -0.3945 -0.5905 -0.7041
vn -0.2718 -0.6561 -0.7041
vn -0.1385 -0.6965 -0.7041
vn 0.1626 -0.8173 -0.5528
vn 0.0000 -0.8333 -0.5528
vn 0.3189 -0.7699 -0.5528
vn 0.4630 -0.6929 -0.5528
vn 0.5893 -0.5893 -0.5528
vn 0.6929 -0.4630 -0.5528
vn 0.7699 -0.3189 -0.5528
vn 0.8173 -0.1626 -0.5528
vn 0.8333 0.0000 -0.5528
vn 0.8173 0.1626 -0.5528
vn 0.7699 0.3189 -0.5528
vn 0.6929 0.4630 -0.5528
vn 0.5893 0.5893 -0.5528
vn 0.4630 0.6929 -0.5528
vn 0.3189 0.7699 -0.5528
vn 0.1626 0.8173 -0.5528
vn -0.0000 0.8333 -0.5528
vn -0.1626 0.8173 -0.5528
vn -0.3189 0.7699 -0.5528
vn -0.4630 0.6929 -0.5528
vn -0.5893 0.5893 -0.5528
vn -0.6929 0.4630 -0.5528
vn -0.7699 0.3189 -0.5528
vn -0.8173 0.1626 -0.5528
vn -0.8333 -0.0000 -0.5528
vn -0.8173 -0.1626 -0.5528
vn -0.7699 -0.3189 -0.5528
vn -0.6929 -0.4630 -0.5528
vn -0.5893 -0.5893 -0.5528
vn -0.4630 -0.6929 -0.5528
vn -0.3189 -0.7699 -0.5528
vn -0.1626 -0.8173 -0.5528
vn 0.1804 -0.9070 -0.3805
vn 0.0000 -0.9248 -0.3805
vn 0.3539 -0.8544 -0.3805
vn 0.5138 -0.7689 -0.3805
vn 0.6539 -0.6539 -0.3805
vn 0.7689 -0.5138 -0.3805
vn 0.8544 -0.3539 -0.3805
vn 0.9070 -0.1804 -0.3805
vn 0.9248 0.0000 -0.3805
vn 0.9070 0.1804 -0.3805
vn 0.8544 0.3539 -0.3805
vn 0.7689 0.5138 -0.3805
vn 0.6539 0.6539 -0.3805
vn 0.5138 0.7689 -0.3805
vn 0.3539 0.8544 -0.3805
vn 0.1804 0.9070 -0.3805
vn -0.0000 0.9248 -0.3805
vn -0.1804 0.9070 -0.3805
vn -0.3539 0.8544 -0.3805
vn -0.5138 0.7689 -0.3805
vn -0.6539 0.6539 -0.3805
vn -0.7689 0.5138 -0.3805
vn -0.8544 0.3539 -0.3805
vn -0.9070 0.1804 -0.3805
vn -0.9248 -0.0000 -0.3805
vn -0.9070 -0.1804 -0.3805
vn -0.8544 -0.3539 -0.3805
vn -0.7689 -0.5138 -0.3805
vn -0.6539 -0.6539 -0.3805
vn -0.5138 -0.7689 -0.3805
vn -0.3539 -0.8544 -0.3805
vn -0.1804 -0.9070 -0.3805
vn 0.1914 -0.9622 -0.1939
vn 0.0000 -0.9810 -0.1939
vn 0.3754 -0.9063 -0.1939
vn 0.5450 -0.8157 -0.1939
vn 0.6937 -0.6937 -0.1939
vn 0.8157 -0.5450 -0.1939
vn 0.9063 -0.3754 -0.1939
vn 0.9622 -0.1914 -0.1939
vn 0.9810 0.0000 -0.1939
vn 0.9622 0.1914 -0.1939
vn 0.9063 0.3754 -0.1939
vn 0.8157 0.5450 -0.1939
vn 0.6937 0.6937 -0.1939
vn 0.5450 0.8157 -0.1939
vn 0.3754 0.9063 -0.1939
vn 0.1914 0.9622 -0.1939
vn -0.0000 0.9810 -0.1939
vn -0.1914 0.9622 -0.1939
vn -0.3754 0.9063 -0.1939
vn -0.5450 0.8157 -0.1939
vn -0.6937 0.6937 -0.1939
vn -0.8157 0.5450 -0.1939
vn -0.9063 0.3754 -0.1939
vn -0.9622 0.1914 -0.1939
vn -0.9810 -0.0000 -0.1939
vn -0.9622 -0.1914 -0.1939
vn -0.9063 -0.3754 -0.1939
vn -0.8157 -0.5450 -0.1939
vn -0.6937 -0.6937 -0.1939
vn -0.5450 -0.8157 -0.1939
vn -0.3754 -0.9063 -0.1939
vn -0.1914 -0.9622 -0.1939
vn 0.1951 -0.9808 -0.0000
vn 0.0000 -1.0000 -0.0000
vn 0.3827 -0.9239 -0.0000
vn 0.5556 -0.8315 -0.0000
vn 0.7071 -0.7071 -0.0000
vn 0.8315 -0.5556 -0.0000
vn 0.9239 -0.3827 -0.0000
vn 0.9808 -0.1951 -0.0000
vn 1.0000 0.0000 -0.0000
vn 0.9808 0.1951 -0.0000
vn 0.9239 0.3827 -0.0000
vn 0.8315 0.5556 -0.0000
vn 0.7071 0.7071 -0.0000
vn 0.5556 0.8315 -0.0000
vn 0.3827 0.9239 -0.0000
vn 0.1951 0.9808 -0.0000
vn -0.0000 1.0000 -0.0000
vn -0.1951 0.9808 -0.0000
vn -0.3827 0.9239 -0.0000
vn -0.5556 0.8315 -0.0000
vn -0.7071 0.7071 -0.0000
vn -0.8315 0.5556 -0.0000
vn -0.9239 0.3827 -0.0000
vn -0.9808 0.1951 -0.0000
vn -1.0000 -0.0000 -0.0000
vn -0.9808 -0.1951 -0.0000
vn -0.9239 -0.3827 -0.0000
vn -0.8315 -0.5556 -0.0000
vn -0.7071 -0.7071 -0.0000
vn -0.5556 -0.8315 -0.0000
vn -0.3827 -0.9239 -0.0000
vn -0.1951 -0.9808 -0.0000
vn 0.1914 -0.9622 0.1939
vn 0.0000 -0.9810 0.1939
vn 0.3754 -0.9063 0.1939
vn 0.5450 -0.8157 0.1939
vn 0.6937 -0.6937 0.1939
vn 0.8157 -0.5450 0.1939
vn 0.9063 -0.3754 0.1939
vn 0.9622 -0.1914 0.1939
vn 0.9810 0.0000 0.1939
vn 0.9622 0.1914 0.1939
vn 0.9063 0.3754 0.1939
vn 0.8157 0.5450 0.1939
vn 0.6937 0.6937 0.1939
vn 0.5450 0.8157 0.1939
vn 0.3754 0.9063 0.1939
vn 0.1914 0.9622 0.1939
vn -0.0000 0.9810 0.1939
vn -0.1914 0.9622 0.1939
vn -0.3754 0.9063 0.1939
vn -0.5450 0.8157 0.1939
vn -0.6937 0.6937 0.1939
vn -0.8157 0.5450 0.1939
vn -0.9063 0.3754 0.1939
vn -0.9622 0.1914 0.1939
vn -0.9810 -0.0000 0.1939
vn -0.9622 -0.1914 0.1939
vn -0.9063 -0.3754 0.1939
vn -0.8157 -0.5450 0.1939
vn -0.6937 -0.6937 0.1939
vn -0.5450 -0.8157 0.1939
vn -0.3754 -0.9063 0.1939
vn -0.1914 -0.9622 0.1939
vn 0.1804 -0.9070 0.3805
vn 0.0000 -0.9248 0.3805
vn 0.3539 -0.8544 0.3805
vn 0.5138 -0.7689 0.3805
vn 0.6539 -0.6539 0.3805
vn 0.7689 -0.5138 0.3805
vn 0.8544 -0.3539 0.3805
vn 0.9070 -0.1804 0.3805
vn 0.9248 0.0000 0.3805
vn 0.9070 0.1804 0.3805
vn 0.8544 0.3539 0.3805
vn 0.7689 0.5138 0.3805
vn 0.6539 0.6539 0.3805
vn 0.5138 0.7689 0.3805
vn 0.3539 0.8544 0.3805
vn 0.1804 0.9070 0.3805
vn -0.0000 0.9248 0.3805
vn -0.1804 0.9070 0.3805
vn -0.3539 0.8544 0.3805
vn -0.5138 0.7689 0.3805
vn -0.6539 0.6539 0.3805
vn -0.7689 0.5138 0.3805
vn -0.8544 0.3539 0.3805
vn -0.9070 0.1804 0.3805
vn -0.9248 -0.0000 0.3805
vn -0.9070 -0.1804 0.3805
vn -0.8544 -0.3539 0.3805
vn -0.7689 -0.5138 0.3805
vn -0.6539 -0.6539 0.3805
vn -0.5138 -0.7689 0.3805
vn -0.3539 -0.8544 0.3805
vn -0.1804 -0.9070 0.3805
vn 0.1626 -0.8173 0.5528
vn 0.0000 -0.8333 0.5528
vn 0.3189 -0.7699 0.5528
vn 0.4630 -0.6929 0.5528
vn 0.5893 -0.5893 0.5528
vn 0.6929 -0.4630 0.5528
vn 0.7699 -0.3189 0.5528
vn 0.8173 -0.1626 0.5528
vn 0.8333 0.0000 0.5528
vn 0.8173 0.1626 0.5528
vn 0.7699 0.3189 0.5528
vn 0.6929 0.4630 0.5528
vn 0.5893 0.5893 0.5528
vn 0.4630 0.6929 0.5528
vn 0.3189 0.7699 0.5528
vn 0.1626 0.8173 0.5528
vn -0.0000 0.8333 0.5528
vn -0.1626 0.8173 0.5528
vn -0.3189 0.7699 0.5528
vn -0.4630 0.6929 0.5528
vn -0.5893 0.5893 0.5528
vn -0.6929 0.4630 0.5528
vn -0.7699 0.3189 0.5528
vn -0.8173 0.1626 0.5528
vn -0.8333 -0.0000 0.5528
vn -0.8173 -0.1626 0.5528
vn -0.7699 -0.3189 0.5528
vn -0.6929 -0.4630 0.5528
vn -0.5893 -0.5893 0.5528
vn -0.4630 -0.6929 0.5528
vn -0.3189 -0.7699 0.5528
vn -0.1626 -0.8173 0.5528
vn 0.1385 -0.6965 0.7041
vn 0.0000 -0.7101 0.7041
vn 0.2718 -0.6561 0.7041
vn 0.3945 -0.5905 0.7041
vn 0.5021 -0.5021 0.7041
vn 0.5905 -0.3945 0.7041
vn 0.6561 -0.2718 0.7041
vn 0.6965 -0.1385 0.7041
vn 0.7101 0.0000 0.7041
vn 0.6965 0.1385 0.7041
vn 0.6561 0.2718 0.7041
vn 0.5905 0.3945 0.7041
vn 0.5021 0.5021 0.7041
vn 0.3945 0.5905 0.7041
vn 0.2718 0.6561 0.7041
vn 0.1385 0.6965 0.7041
vn -0.0000 0.7101 0.7041
vn -0.1385 0.6965 0.7041
vn -0.2718 0.6561 0.7041
vn -0.3945 0.5905 0.7041
vn -0.5021 0.5021 0.7041
vn -0.5905 0.3945 0.7041
vn -0.6561 0.2718 0.7041
vn -0.6965 0.1385 0.7041
vn -0.7101 -0.0000 0.7041
vn -0.6965 -0.1385 0.7041
vn -0.6561 -0.2718 0.7041
vn -0.5905 -0.3945 0.7041
vn -0.5021 -0.5021 0.7041
vn -0.3945 -0.5905 0.7041
vn -0.2718 -0.6561 0.7041
vn -0.1385 -0.6965 0.7041
vn 0.1092 -0.5490 0.8286
vn 0.0000 -0.5598 0.8286
vn 0.2142 -0.5172 0.8286
vn 0.3110 -0.4654 0.8286
vn 0.3958 -0.3958 0.8286
vn 0.4654 -0.3110 0.8286
vn 0.5172 -0.2142 0.8286
vn 0.5490 -0.1092 0.8286
vn 0.5598 0.0000 0.8286
vn 0.5490 0.1092 0.8286
vn 0.5172 0.2142 0.8286
vn 0.4654 0.3110 0.8286
vn 0.3958 0.3958 0.8286
vn 0.3110 0.4654 0.8286
vn 0.2142 0.5172 0.8286
vn 0.1092 0.5490 0.8286
vn -0.0000 0.5598 0.8286
vn -0.1092 0.5490 0.8286
vn -0.2142 0.5172 0.8286
vn -0.3110 0.4654 0.8286
vn -0.3958 0.3958 0.8286
vn -0.4654 0.3110 0.8286
vn -0.5172 0.2142 0.8286
vn -0.5490 0.1092 0.8286
vn -0.5598 -0.0000 0.8286
vn -0.5490 -0.1092 0.8286
vn -0.5172 -0.2142 0.8286
vn -0.4654 -0.3110 0.8286
vn -0.3958 -0.3958 0.8286
vn -0.3110 -0.4654 0.8286
vn -0.2142 -0.5172 0.8286
vn -0.1092 -0.5490 0.8286
vn 0.0757 -0.3804 0.9217
vn 0.0000 -0.3879 0.9217
vn 0.1484 -0.3584 0.9217
vn 0.2155 -0.3225 0.9217
vn 0.2743 -0.2743 0.9217
vn 0.3225 -0.2155 0.9217
vn 0.3584 -0.1484 0.9217
vn 0.3804 -0.0757 0.9217
vn 0.3879 0.0000 0.9217
vn 0.3804 0.0757 0.9217
vn 0.3584 0.1484 0.9217
vn 0.3225 0.2155 0.9217
vn 0.2743 0.2743 0.9217
vn 0.2155 0.3225 0.9217
vn 0.1484 0.3584 0.9217
vn 0.0757 0.3804 0.9217
vn -0.0000 0.3879 0.9217
vn -0.0757 0.3804 0.9217
vn -0.1484 0.3584 0.9217
vn -0.2155 0.3225 0.9217
vn -0.2743 0.2743 0.9217
vn -0.3225 0.2155 0.9217
vn -0.3584 0.1484 0.9217
vn -0.3804 0.0757 0.9217
vn -0.3879 -0.0000 0.9217
vn -0.3804 -0.0757 0.9217
vn -0.3584 -0.1484 0.9217
vn -0.3225 -0.2155 0.9217
vn -0.2743 -0.2743 0.9217
vn -0.2155 -0.3225 0.9217
vn -0.1484 -0.3584 0.9217
vn -0.0757 -0.3804 0.9217
vn 0.0392 -0.1971 0.9796
vn 0.0000 -0.2010 0.9796
vn 0.0769 -0.1857 0.9796
vn 0.1117 -0.1671 0.9796
vn 0.1421 -0.1421 0.9796
vn 0.1671 -0.1117 0.9796
vn 0.1857 -0.0769 0.9796
vn 0.1971 -0.0392 0.9796
vn 0.2010 0.0000 0.9796
vn 0.1971 0.0392 0.9796
vn 0.1857 0.0769 0.9796
vn 0.1671 0.1117 0.9796
vn 0.1421 0.1421 0.9796
vn 0.1117 0.1671 0.9796
vn 0.0769 0.1857 0.9796
vn 0.0392 0.1971 0.9796
vn -0.0000 0.2010 0.9796
vn -0.0392 0.1971 0.9796
vn -0.0769 0.1857 0.9796
vn -0.1117 0.1671 0.9796
vn -0.1421 0.1421 0.9796
vn -0.1671 0.1117 0.9796
vn -0.1857 0.0769 0.9796
vn -0.1971 0.0392 0.9796
vn -0.2010 -0.0000 0.9796
vn -0.1971 -0.0392 0.9796
vn -0.1857 -0.0769 0.9796
vn -0.1671 -0.1117 0.9796
vn -0.1421 -0.1421 0.9796
vn -0.1117 -0.1671 0.9796
vn -0.0769 -0.1857 0.9796
vn -0.0392 -0.1971 0.9796
vn 0.0000 -0.0000 1.0000
# 482 vertex normals

vt 0.0000 1.0000 0.0000
vt 0.0313 0.9375 0.0000
vt 0.0000 0.9375 0.0000
vt 0.0313 1.0000 0.0000
vt 0.0625 0.9375 0.0000
vt 0.0625 1.0000 0.0000
vt 0.0938 0.9375 0.0000
vt 0.0938 1.0000 0.0000
vt 0.1250 0.9375 0.0000
vt 0.1250 1.0000 0.0000
vt 0.1563 0.9375 0.0000
vt 0.1563 1.0000 0.0000
vt 0.1875 0.9375 0.0000
vt 0.1875 1.0000 0.0000
vt 0.2187 0.9375 0.0000
vt 0.2187 1.0000 0.0000
vt 0.2500 0.9375 0.0000
vt 0.2500 1.0000 0.0000
vt 0.2812 0.9375 0.0000
vt 0.2812 1.0000 0.0000
vt 0.3125 0.9375 0.0000
vt 0.3125 1.0000 0.0000
vt 0.3437 0.9375 0.0000
vt 0.3437 1.0000 0.0000
vt 0.3750 0.9375 0.0000
vt 0.3750 1.0000 0.0000
vt 0.4063 0.9375 0.0000
vt 0.4063 1.0000 0.0000
vt 0.4375 0.9375 0.0000
vt 0.4375 1.0000 0.0000
vt 0.4688 0.9375 0.0000
vt 0.4688 1.0000 0.0000
vt 0.5000 0.9375 0.0000
vt 0.5000 1.0000 0.0000
vt 0.5313 0.9375 0.0000
vt 0.5313 1.0000 0.0000
vt 0.5625 0.9375 0.0000
vt 0.5625 1.0000 0.0000
vt 0.5938 0.9375 0.0000
vt 0.5938 1.0000 0.0000
vt 0.6250 0.9375 0.0000
vt 0.6250 1.0000 0.0000
vt 0.6563 0.9375 0.0000
vt 0.6563 1.0000 0.0000
vt 0.6875 0.9375 0.0000
vt 0.6875 1.0000 0.0000
vt 0.7188 0.9375 0.0000
vt 0.7188 1.0000 0.0000
vt 0.7500 0.9375 0.0000
vt 0.7500 1.0000 0.0000
vt 0.7813 0.9375 0.0000
vt 0.7813 1.0000 0.0000
vt 0.8125 0.9375 0.0000
vt 0.8125 1.0000 0.0000
vt 0.8438 0.9375 0.0000
vt 0.8438 1.0000 0.0000
vt 0.8750 0.9375 0.0000
vt 0.8750 1.0000 0.0000
vt 0.9063 0.9375 0.0000
vt 0.9063 1.0000 0.0000
vt 0.9375 0.9375 0.0000
vt 0.9375 1.0000 0.0000
vt 0.9688 0.9375 0.0000
vt 0.9688 1.0000 0.0000
vt 1.0000 0.9375 0.0000
vt 0.0313 0.8750 0.0000
vt 0.0000 0.8750 0.0000
vt 0.0625 0.8750 0.0000
vt 0.0938 0.8750 0.0000
vt 0.1250 0.8750 0.0000
vt 0.1563 0.8750 0.0000
vt 0.1875 0.8750 0.0000
vt 0.2187 0.8750 0.0000
vt 0.2500 0.8750 0.0000
vt 0.2812 0.8750 0.0000
vt 0.3125 0.8750 0.0000
vt 0.3437 0.8750 0.0000
vt 0.3750 0.8750 0.0000
vt 0.4063 0.8750 0.0000
vt 0.4375 0.8750 0.0000
vt 0.4688 0.8750 0.0000
vt 0.5000 0.8750 0.0000
vt 0.5313 0.8750 0.0000
vt 0.5625 0.8750 0.0000
vt 0.5938 0.8750 0.0000
vt 0.6250 0.8750 0.0000
vt 0.6563 0.8750 0.0000
vt 0.6875 0.8750 0.0000
vt 0.7188 0.8750 0.0000
vt 0.7500 0.8750 0.0000
vt 0.7813 0.8750 0.0000
vt 0.8125 0.8750 0.0000
vt 0.8438 0.8750 0.0000
vt 0.8750 0.8750 0.0000
vt 0.9063 0.8750 0.0000
vt 0.9375 0.8750 0.0000
vt 0.9688 0.8750 0.0000
vt 1.0000 0.8750 0.0000
vt 0.0313 0.8125 0.0000
vt 0.0000 0.8125 0.0000
vt 0.0625 0.8125 0.0000
vt 0.0938 0.8125 0.0000
vt 0.1250 0.8125 0.0000
vt 0.1563 0.8125 0.0000
vt 0.1875 0.8125 0.0000
vt 0.2187 0.8125 0.0000
vt 0.2500 0.8125 0.0000
vt 0.2812 0.8125 0.0000
vt 0.3125 0.8125 0.0000
vt 0.3437 0.8125 0.0000
vt 0.3750 0.8125 0.0000
vt 0.4063 0.8125 0.0000
vt 0.4375 0.8125 0.0000
vt 0.4688 0.8125 0.0000
vt 0.5000 0.8125 0.0000
vt 0.5313 0.8125 0.0000
vt 0.5625 0.8125 0.0000
vt 0.5938 0.8125 0.0000
vt 0.6250 0.8125 0.0000
vt 0.6563 0.8125 0.0000
vt 0.6875 0.8125 0.0000
vt 0.7188 0.8125 0.0000
vt 0.7500 0.8125 0.0000
vt 0.7813 0.8125 0.0000
vt 0.8125 0.8125 0.0000
vt 0.8438 0.8125 0.0000
vt 0.8750 0.8125 0.0000
vt 0.9063 0.8125 0.0000
vt 0.9375 0.8125 0.0000
vt 0.9688 0.8125 0.0000
vt 1.0000 0.8125 0.0000
vt 0.0313 0.7500 0.0000
vt 0.0000 0.7500 0.0000
vt 0.0625 0.7500 0.0000
vt 0.0938 0.7500 0.0000
vt 0.1250 0.7500 0.0000
vt 0.1563 0.7500 0.0000
vt 0.1875 0.7500 0.0000
vt 0.2187 0.7500 0.0000
vt 0.2500 0.7500 0.0000
vt 0.2812 0.7500 0.0000
vt 0.3125 0.7500 0.0000
vt 0.3437 0.7500 0.0000
vt 0.3750 0.7500 0.0000
vt 0.4063 0.7500 0.0000
vt 0.4375 0.7500 0.0000
vt 0.4688 0.7500 0.0000
vt 0.5000 0.7500 0.0000
vt 0.5313 0.7500 0.0000
vt 0.5625 0.7500 0.0000
vt 0.5938 0.7500 0.0000
vt 0.6250 0.7500 0.0000
vt 0.6563 0.7500 0.0000
vt 0.6875 0.7500 0.0000
vt 0.7188 0.7500 0.0000
vt 0.7500 0.7500 0.0000
vt 0.7813 0.7500 0.0000
vt 0.8125 0.7500 0.0000
vt 0.8438 0.7500 0.0000
vt 0.8750 0.7500 0.0000
vt 0.9063 0.7500 0.0000
vt 0.9375 0.7500 0.0000
vt 0.9688 0.7500 0.0000
vt 1.0000 0.7500 0.0000
vt 0.0313 0.6875 0.0000
vt 0.0000 0.6875 0.0000
vt 0.0625 0.6875 0.0000
vt 0.0938 0.6875 0.0000
vt 0.1250 0.6875 0.0000
vt 0.1563 0.6875 0.0000
vt 0.1875 0.6875 0.0000
vt 0.2187 0.6875 0.0000
vt 0.2500 0.6875 0.0000
vt 0.2812 0.6875 0.0000
vt 0.3125 0.6875 0.0000
vt 0.3437 0.6875 0.0000
vt 0.3750 0.6875 0.0000
vt 0.4063 0.6875 0.0000
vt 0.4375 0.6875 0.0000
vt 0.4688 0.6875 0.0000
vt 0.5000 0.6875 0.0000
vt 0.5313 0.6875 0.0000
vt 0.5625 0.6875 0.0000
vt 0.5938 0.6875 0.0000
vt 0.6250 0.6875 0.0000
vt 0.6563 0.6875 0.0000
vt 0.6875 0.6875 0.0000
vt 0.7188 0.6875 0.0000
vt 0.7500 0.6875 0.0000
vt 0.7813 0.6875 0.0000
vt 0.8125 0.6875 0.0000
vt 0.8438 0.6875 0.0000
vt 0.8750 0.6875 0.0000
vt 0.9063 0.6875 0.0000
vt 0.9375 0.6875 0.0000
vt 0.9688 0.6875 0.0000
vt 1.0000 0.6875 0.0000
vt 0.0313 0.6250 0.0000
vt 0.0000 0.6250 0.0000
vt 0.0625 0.6250 0.0000
vt 0.0938 0.6250 0.0000
vt 0.1250 0.6250 0.0000
vt 0.1563 0.6250 0.0000
vt 0.1875 0.6250 0.0000
vt 0.2187 0.6250 0.0000
vt 0.2500 0.6250 0.0000
vt 0.2812 0.6250 0.0000
vt 0.3125 0.6250 0.0000
vt 0.3437 0.6250 0.0000
vt 0.3750 0.6250 0.0000
vt 0.4063 0.6250 0.0000
vt 0.4375 0.6250 0.0000
vt 0.4688 0.6250 0.0000
vt 0.5000 0.6250 0.0000
vt 0.5313 0.6250 0.0000
vt 0.5625 0.6250 0.0000
vt 0.5938 0.6250 0.0000
vt 0.6250 0.6250 0.0000
vt 0.6563 0.6250 0.0000
vt 0.6875 0.6250 0.0000
vt 0.7188 0.6250 0.0000
vt 0.7500 0.6250 0.0000
vt 0.7813 0.6250 0.0000
vt 0.8125 0.6250 0.0000
vt 0.8438 0.6250 0.0000
vt 0.8750 0.6250 0.0000
vt 0.9063 0.6250 0.0000
vt 0.9375 0.6250 0.0000
vt 0.9688 0.6250 0.0000
vt 1.0000 0.6250 0.0000
vt 0.0313 0.5625 0.0000
vt 0.0000 0.5625 0.0000
vt 0.0625 0.5625 0.0000
vt 0.0938 0.5625 0.0000
vt 0.1250 0.5625 0.0000
vt 0.1563 0.5625 0.0000
vt 0.1875 0.5625 0.0000
vt 0.2187 0.5625 0.0000
vt 0.2500 0.5625 0.0000
vt 0.2812 0.5625 0.0000
vt 0.3125 0.5625 0.0000
vt 0.3437 0.5625 0.0000
vt 0.3750 0.5625 0.0000
vt 0.4063 0.5625 0.0000
vt 0.4375 0.5625 0.0000
vt 0.4688 0.5625 0.0000
vt 0.5000 0.5625 0.0000
vt 0.5313 0.5625 0.0000
vt 0.5625 0.5625 0.0000
vt 0.5938 0.5625 0.0000
vt 0.6250 0.5625 0.0000
vt 0.6563 0.5625 0.0000
vt 0.6875 0.5625 0.0000
vt 0.7188 0.5625 0.0000
vt 0.7500 0.5625 0.0000
vt 0.7813 0.5625 0.0000
vt 0.8125 0.5625 0.0000
vt 0.8438 0.5625 0.0000
vt 0.8750 0.5625 0.0000
vt 0.9063 0.5625 0.0000
vt 0.9375 0.5625 0.0000
vt 0.9688 0.5625 0.0000
vt 1.0000 0.5625 0.0000
vt 0.0313 0.5000 0.0000
vt 0.0000 0.5000 0.0000
vt 0.0625 0.5000 0.0000
vt 0.0938 0.5000 0.0000
vt 0.1250 0.5000 0.0000
vt 0.1563 0.5000 0.0000
vt 0.1875 0.5000 0.0000
vt 0.2187 0.5000 0.0000
vt 0.2500 0.5000 0.0000
vt 0.2812 0.5000 0.0000
vt 0.3125 0.5000 0.0000
vt 0.3437 0.5000 0.0000
vt 0.3750 0.5000 0.0000
vt 0.4063 0.5000 0.0000
vt 0.4375 0.5000 0.0000
vt 0.4688 0.5000 0.0000
vt 0.5000 0.5000 0.0000
vt 0.5313 0.5000 0.0000
vt 0.5625 0.5000 0.0000
vt 0.5938 0.5000 0.0000
vt 0.6250 0.5000 0.0000
vt 0.6563 0.5000 0.0000
vt 0.6875 0.5000 0.0000
vt 0.7188 0.5000 0.0000
vt 0.7500 0.5000 0.0000
vt 0.7813 0.5000 0.0000
vt 0.8125 0.5000 0.0000
vt 0.8438 0.5000 0.0000
vt 0.8750 0.5000 0.0000
vt 0.9063 0.5000 0.0000
vt 0.9375 0.5000 0.0000
vt 0.9688 0.5000 0.0000
vt 1.0000 0.5000 0.0000
vt 0.0313 0.4375 0.0000
vt 0.0000 0.4375 0.0000
vt 0.0625 0.4375 0.0000
vt 0.0938 0.4375 0.0000
vt 0.1250 0.4375 0.0000
vt 0.1563 0.4375 0.0000
vt 0.1875 0.4375 0.0000
vt 0.2187 0.4375 0.0000
vt 0.2500 0.4375 0.0000
vt 0.2812 0.4375 0.0000
vt 0.3125 0.4375 0.0000
vt 0.3437 0.4375 0.0000
vt 0.3750 0.4375 0.0000
vt 0.4063 0.4375 0.0000
vt 0.4375 0.4375 0.0000
vt 0.4688 0.4375 0.0000
vt 0.5000 0.4375 0.0000
vt 0.5313 0.4375 0.0000
vt 0.5625 0.4375 0.0000
vt 0.5938 0.4375 0.0000
vt 0.6250 0.4375 0.0000
vt 0.6563 0.4375 0.0000
vt 0.6875 0.4375 0.0000
vt 0.7188 0.4375 0.0000
vt 0.7500 0.4375 0.0000
vt 0.7813 0.4375 0.0000
vt 0.8125 0.4375 0.0000
vt 0.8438 0.4375 0.0000
vt 0.8750 0.4375 0.0000
vt 0.9063 0.4375 0.0000
vt 0.9375 0.4375 0.0000
vt 0.9688 0.4375 0.0000
vt 1.0000 0.4375 0.0000
vt 0.0313 0.3750 0.0000
vt 0.0000 0.3750 0.0000
vt 0.0625 0.3750 0.0000
vt 0.0938 0.3750 0.0000
vt 0.1250 0.3750 0.0000
vt 0.1563 0.3750 0.0000
vt 0.1875 0.3750 0.0000
vt 0.2187 0.3750 0.0000
vt 0.2500 0.3750 0.0000
vt 0.2812 0.3750 0.0000
vt 0.3125 0.3750 0.0000
vt 0.3437 0.3750 0.0000
vt 0.3750 0.3750 0.0000
vt 0.4063 0.3750 0.0000
vt 0.4375 0.3750 0.0000
vt 0.4688 0.3750 0.0000
vt 0.5000 0.3750 0.0000
vt 0.5313 0.3750 0.0000
vt 0.5625 0.3750 0.0000
vt 0.5938 0.3750 0.0000
vt 0.6250 0.3750 0.0000
vt 0.6563 0.3750 0.0000
vt 0.6875 0.3750 0.0000
vt 0.7188 0.3750 0.0000
vt 0.7500 0.3750 0.0000
vt 0.7813 0.3750 0.0000
vt 0.8125 0.3750 0.0000
vt 0.8438 0.3750 0.0000
vt 0.8750 0.3750 0.0000
vt 0.9063 0.3750 0.0000
vt 0.9375 0.3750 0.0000
vt 0.9688 0.3750 0.0000
vt 1.0000 0.3750 0.0000
vt 0.0313 0.3125 0.0000
vt 0.0000 0.3125 0.0000
vt 0.0625 0.3125 0.0000
vt 0.0938 0.3125 0.0000
vt 0.1250 0.3125 0.0000
vt 0.1563 0.3125 0.0000
vt 0.1875 0.3125 0.0000
vt 0.2187 0.3125 0.0000
vt 0.2500 0.3125 0.0000
vt 0.2812 0.3125 0.0000
vt 0.3125 0.3125 0.0000
vt 0.3437 0.3125 0.0000
vt 0.3750 0.3125 0.0000
vt 0.4063 0.3125 0.0000
vt 0.4375 0.3125 0.0000
vt 0.4688 0.3125 0.0000
vt 0.5000 0.3125 0.0000
vt 0.5313 0.3125 0.0000
vt 0.5625 0.3125 0.0000
vt 0.5938 0.3125 0.0000
vt 0.6250 0.3125 0.0000
vt 0.6563 0.3125 0.0000
vt 0.6875 0.3125 0.0000
vt 0.7188 0.3125 0.0000
vt 0.7500 0.3125 0.0000
vt 0.7813 0.3125 0.0000
vt 0.8125 0.3125 0.0000
vt 0.8438 0.3125 0.0000
vt 0.8750 0.3125 0.0000
vt 0.9063 0.3125 0.0000
vt 0.9375 0.3125 0.0000
vt 0.9688 0.3125 0.0000
vt 1.0000 0.3125 0.0000
vt 0.0313 0.2500 0.0000
vt 0.0000 0.2500 0.0000
vt 0.0625 0.2500 0.0000
vt 0.0938 0.2500 0.0000
vt 0.1250 0.2500 0.0000
vt 0.1563 0.2500 0.0000
vt 0.1875 0.2500 0.0000
vt 0.2187 0.2500 0.0000
vt 0.2500 0.2500 0.0000
vt 0.2812 0.2500 0.0000
vt 0.3125 0.2500 0.0000
vt 0.3437 0.2500 0.0000
vt 0.3750 0.2500 0.0000
vt 0.4063 0.2500 0.0000
vt 0.4375 0.2500 0.0000
vt 0.4688 0.2500 0.0000
vt 0.5000 0.2500 0.0000
vt 0.5313 0.2500 0.0000
vt 0.5625 0.2500 0.0000
vt 0.5938 0.2500 0.0000
vt 0.6250 0.2500 0.0000
vt 0.6563 0.2500 0.0000
vt 0.6875 0.2500 0.0000
vt 0.7188 0.2500 0.0000
vt 0.7500 0.2500 0.0000
vt 0.7813 0.2500 0.0000
vt 0.8125 0.2500 0.0000
vt 0.8438 0.2500 0.0000
vt 0.8750 0.2500 0.0000
vt 0.9063 0.2500 0.0000
vt 0.9375 0.2500 0.0000
vt 0.9688 0.2500 0.0000
vt 1.0000 0.2500 0.0000
vt 0.0313 0.1875 0.0000
vt 0.0000 0.1875 0.0000
vt 0.0625 0.1875 0.0000
vt 0.0938 0.1875 0.0000
vt 0.1250 0.1875 0.0000
vt 0.1563 0.1875 0.0000
vt 0.1875 0.1875 0.0000
vt 0.2187 0.1875 0.0000
vt 0.2500 0.1875 0.0000
vt 0.2812 0.1875 0.0000
vt 0.3125 0.1875 0.0000
vt 0.3437 0.1875 0.0000
vt 0.3750 0.1875 0.0000
vt 0.4063 0.1875 0.0000
vt 0.4375 0.1875 0.0000
vt 0.4688 0.1875 0.0000
vt 0.5000 0.1875 0.0000
vt 0.5313 0.1875 0.0000
vt 0.5625 0.1875 0.0000
vt 0.5938 0.1875 0.0000
vt 0.6250 0.1875 0.0000
vt 0.6563 0.1875 0.0000
vt 0.6875 0.1875 0.0000
vt 0.7188 0.1875 0.0000
vt 0.7500 0.1875 0.0000
vt 0.7813 0.1875 0.0000
vt 0.8125 0.1875 0.0000
vt 0.8438 0.1875 0.0000
vt 0.8750 0.1875 0.0000
vt 0.9063 0.1875 0.0000
vt 0.9375 0.1875 0.0000
vt 0.9688 0.1875 0.0000
vt 1.0000 0.1875 0.0000
vt 0.0313 0.1250 0.0000
vt 0.0000 0.1250 0.0000
vt 0.0625 0.1250 0.0000
vt 0.0938 0.1250 0.0000
vt 0.1250 0.1250 0.0000
vt 0.1563 0.1250 0.0000
vt 0.1875 0.1250 0.0000
vt 0.2187 0.1250 0.0000
vt 0.2500 0.1250 0.0000
vt 0.2812 0.1250 0.0000
vt 0.3125 0.1250 0.0000
vt 0.3437 0.1250 0.0000
vt 0.3750 0.1250 0.0000
vt 0.4063 0.1250 0.0000
vt 0.4375 0.1250 0.0000
vt 0.4688 0.1250 0.0000
vt 0.5000 0.1250 0.0000
vt 0.5313 0.1250 0.0000
vt 0.5625 0.1250 0.0000
vt 0.5938 0.1250 0.0000
vt 0.6250 0.1250 0.0000
vt 0.6563 0.1250 0.0000
vt 0.6875 0.1250 0.0000
vt 0.7188 0.1250 0.0000
vt 0.7500 0.1250 0.0000
vt 0.7813 0.1250 0.0000
vt 0.8125 0.1250 0.0000
vt 0.8438 0.1250 0.0000
vt 0.8750 0.1250 0.0000
vt 0.9063 0.1250 0.0000
vt 0.9375 0.1250 0.0000
vt 0.9688 0.1250 0.0000
vt 1.0000 0.1250 0.0000
vt 0.0313 0.0625 0.0000
vt 0.0000 0.0625 0.0000
vt 0.0625 0.0625 0.0000
vt 0.0938 0.0625 0.0000
vt 0.1250 0.0625 0.0000
vt 0.1563 0.0625 0.0000
vt 0.1875 0.0625 0.0000
vt 0.2187 0.0625 0.0000
vt 0.2500 0.0625 0.0000
vt 0.2812 0.0625 0.0000
vt 0.3125 0.0625 0.0000
vt 0.3437 0.0625 0.0000
vt 0.3750 0.0625 0.0000
vt 0.4063 0.0625 0.0000
vt 0.4375 0.0625 0.0000
vt 0.4688 0.0625 0.0000
vt 0.5000 0.0625 0.0000
vt 0.5313 0.0625 0.0000
vt 0.5625 0.0625 0.0000
vt 0.5938 0.0625 0.0000
vt 0.6250 0.0625 0.0000
vt 0.6563 0.0625 0.0000
vt 0.6875 0.0625 0.0000
vt 0.7188 0.0625 0.0000
vt 0.7500 0.0625 0.0000
vt 0.7813 0.0625 0.0000
vt 0.8125 0.0625 0.0000
vt 0.8438 0.0625 0.0000
vt 0.8750 0.0625 0.0000
vt 0.9063 0.0625 0.0000
vt 0.9375 0.0625 0.0000
vt 0.9688 0.0625 0.0000
vt 1.0000 0.0625 0.0000
vt 0.0000 -0.0000 0.0000
vt 0.0313 -0.0000 0.0000
vt 0.0625 -0.0000 0.0000
vt 0.0938 -0.0000 0.0000
vt 0.1250 -0.0000 0.0000
vt 0.1563 -0.0000 0.0000
vt 0.1875 -0.0000 0.0000
vt 0.2187 -0.0000 0.0000
vt 0.2500 -0.0000 0.0000
vt 0.2812 -0.0000 0.0000
vt 0.3125 -0.0000 0.0000
vt 0.3437 -0.0000 0.0000
vt 0.3750 -0.0000 0.0000
vt 0.4063 -0.0000 0.0000
vt 0.4375 -0.0000 0.0000
vt 0.4688 -0.0000 0.0000
vt 0.5000 -0.0000 0.0000
vt 0.5313 -0.0000 0.0000
vt 0.5625 -0.0000 0.0000
vt 0.5938 -0.0000 0.0000
vt 0.6250 -0.0000 0.0000
vt 0.6563 -0.0000 0.0000
vt 0.6875 -0.0000 0.0000
vt 0.7188 -0.0000 0.0000
vt 0.7500 -0.0000 0.0000
vt 0.7813 -0.0000 0.0000
vt 0.8125 -0.0000 0.0000
vt 0.8438 -0.0000 0.0000
vt 0.8750 -0.0000 0.0000
vt 0.9063 -0.0000 0.0000
vt 0.9375 -0.0000 0.0000
vt 0.9688 -0.0000 0.0000
# 559 texture coords

g Sphere001
usemtl 01___Default
s 1
f 1/1/1 2/2/2 3/3/3 
f 1/4/1 4/5/4 2/2/2 
f 1/6/1 5/7/5 4/5/4 
f 1/8/1 6/9/6 5/7/5 
f 1/10/1 7/11/7 6/9/6 
f 1/12/1 8/13/8 7/11/7 
f 1/14/1 9/15/9 8/13/8 
f 1/16/1 10/17/10 9/15/9 
f 1/18/1 11/19/11 10/17/10 
f 1/20/1 12/21/12 11/19/11 
f 1/22/1 13/23/13 12/21/12 
f 1/24/1 14/25/14 13/23/13 
f 1/26/1 15/27/15 14/25/14 
f 1/28/1 16/29/16 15/27/15 
f 1/30/1 17/31/17 16/29/16 
f 1/32/1 18/33/18 17/31/17 
f 1/34/1 19/35/19 18/33/18 
f 1/36/1 20/37/20 19/35/19 
f 1/38/1 21/39/21 20/37/20 
f 1/40/1 22/41/22 21/39/21 
f 1/42/1 23/43/23 22/41/22 
f 1/44/1 24/45/24 23/43/23 
f 1/46/1 25/47/25 24/45/24 
f 1/48/1 26/49/26 25/47/25 
f 1/50/1 27/51/27 26/49/26 
f 1/52/1 28/53/28 27/51/27 
f 1/54/1 29/55/29 28/53/28 
f 1/56/1 30/57/30 29/55/29 
f 1/58/1 31/59/31 30/57/30 
f 1/60/1 32/61/32 31/59/31 
f 1/62/1 33/63/33 32/61/32 
f 1/64/1 3/65/3 33/63/33 
f 34/66/34 35/67/35 3/3/3 2/2/2 
f 36/68/36 34/66/34 2/2/2 4/5/4 
f 37/69/37 36/68/36 4/5/4 5/7/5 
f 38/70/38 37/69/37 5/7/5 6/9/6 
f 39/71/39 38/70/38 6/9/6 7/11/7 
f 40/72/40 39/71/39 7/11/7 8/13/8 
f 41/73/41 40/72/40 8/13/8 9/15/9 
f 42/74/42 41/73/41 9/15/9 10/17/10 
f 43/75/43 42/74/42 10/17/10 11/19/11 
f 44/76/44 43/75/43 11/19/11 12/21/12 
f 45/77/45 44/76/44 12/21/12 13/23/13 
f 46/78/46 45/77/45 13/23/13 14/25/14 
f 47/79/47 46/78/46 14/25/14 15/27/15 
f 48/80/48 47/79/47 15/27/15 16/29/16 
f 49/81/49 48/80/48 16/29/16 17/31/17 
f 50/82/50 49/81/49 17/31/17 18/33/18 
f 51/83/51 50/82/50 18/33/18 19/35/19 
f 52/84/52 51/83/51 19/35/19 20/37/20 
f 53/85/53 52/84/52 20/37/20 21/39/21 
f 54/86/54 53/85/53 21/39/21 22/41/22 
f 55/87/55 54/86/54 22/41/22 23/43/23 
f 56/88/56 55/87/55 23/43/23 24/45/24 
f 57/89/57 56/88/56 24/45/24 25/47/25 
f 58/90/58 57/89/57 25/47/25 26/49/26 
f 59/91/59 58/90/58 26/49/26 27/51/27 
f 60/92/60 59/91/59 27/51/27 28/53/28 
f 61/93/61 60/92/60 28/53/28 29/55/29 
f 62/94/62 61/93/61 29/55/29 30/57/30 
f 63/95/63 62/94/62 30/57/30 31/59/31 
f 64/96/64 63/95/63 31/59/31 32/61/32 
f 65/97/65 64/96/64 32/61/32 33/63/33 
f 35/98/35 65/97/65 33/63/33 3/65/3 
f 66/99/66 67/100/67 35/67/35 34/66/34 
f 68/101/68 66/99/66 34/66/34 36/68/36 
f 69/102/69 68/101/68 36/68/36 37/69/37 
f 70/103/70 69/102/69 37/69/37 38/70/38 
f 71/104/71 70/103/70 38/70/38 39/71/39 
f 72/105/72 71/104/71 39/71/39 40/72/40 
f 73/106/73 72/105/72 40/72/40 41/73/41 
f 74/107/74 73/106/73 41/73/41 42/74/42 
f 75/108/75 74/107/74 42/74/42 43/75/43 
f 76/109/76 75/108/75 43/75/43 44/76/44 
f 77/110/77 76/109/76 44/76/44 45/77/45 
f 78/111/78 77/110/77 45/77/45 46/78/46 
f 79/112/79 78/111/78 46/78/46 47/79/47 
f 80/113/80 79/112/79 47/79/47 48/80/48 
f 81/114/81 80/113/80 48/80/48 49/81/49 
f 82/115/82 81/114/81 49/81/49 50/82/50 
f 83/116/83 82/115/82 50/82/50 51/83/51 
f 84/117/84 83/116/83 51/83/51 52/84/52 
f 85/118/85 84/117/84 52/84/52 53/85/53 
f 86/119/86 85/118/85 53/85/53 54/86/54 
f 87/120/87 86/119/86 54/86/54 55/87/55 
f 88/121/88 87/120/87 55/87/55 56/88/56 
f 89/122/89 88/121/88 56/88/56 57/89/57 
f 90/123/90 89/122/89 57/89/57 58/90/58 
f 91/124/91 90/123/90 58/90/58 59/91/59 
f 92/125/92 91/124/91 59/91/59 60/92/60 
f 93/126/93 92/125/92 60/92/60 61/93/61 
f 94/127/94 93/126/93 61/93/61 62/94/62 
f 95/128/95 94/127/94 62/94/62 63/95/63 
f 96/129/96 95/128/95 63/95/63 64/96/64 
f 97/130/97 96/129/96 64/96/64 65/97/65 
f 67/131/67 97/130/97 65/97/65 35/98/35 
f 98/132/98 99/133/99 67/100/67 66/99/66 
f 100/134/100 98/132/98 66/99/66 68/101/68 
f 101/135/101 100/134/100 68/101/68 69/102/69 
f 102/136/102 101/135/101 69/102/69 70/103/70 
f 103/137/103 102/136/102 70/103/70 71/104/71 
f 104/138/104 103/137/103 71/104/71 72/105/72 
f 105/139/105 104/138/104 72/105/72 73/106/73 
f 106/140/106 105/139/105 73/106/73 74/107/74 
f 107/141/107 106/140/106 74/107/74 75/108/75 
f 108/142/108 107/141/107 75/108/75 76/109/76 
f 109/143/109 108/142/108 76/109/76 77/110/77 
f 110/144/110 109/143/109 77/110/77 78/111/78 
f 111/145/111 110/144/110 78/111/78 79/112/79 
f 112/146/112 111/145/111 79/112/79 80/113/80 
f 113/147/113 112/146/112 80/113/80 81/114/81 
f 114/148/114 113/147/113 81/114/81 82/115/82 
f 115/149/115 114/148/114 82/115/82 83/116/83 
f 116/150/116 115/149/115 83/116/83 84/117/84 
f 117/151/117 116/150/116 84/117/84 85/118/85 
f 118/152/118 117/151/117 85/118/85 86/119/86 
f 119/153/119 118/152/118 86/119/86 87/120/87 
f 120/154/120 119/153/119 87/120/87 88/121/88 
f 121/155/121 120/154/120 88/121/88 89/122/89 
f 122/156/122 121/155/121 89/122/89 90/123/90 
f 123/157/123 122/156/122 90/123/90 91/124/91 
f 124/158/124 123/157/123 91/124/91 92/125/92 
f 125/159/125 124/158/124 92/125/92 93/126/93 
f 126/160/126 125/159/125 93/126/93 94/127/94 
f 127/161/127 126/160/126 94/127/94 95/128/95 
f 128/162/128 127/161/127 95/128/95 96/129/96 
f 129/163/129 128/162/128 96/129/96 97/130/97 
f 99/164/99 129/163/129 97/130/97 67/131/67 
f 130/165/130 131/166/131 99/133/99 98/132/98 
f 132/167/132 130/165/130 98/132/98 100/134/100 
f 133/168/133 132/167/132 100/134/100 101/135/101 
f 134/169/134 133/168/133 101/135/101 102/136/102 
f 135/170/135 134/169/134 102/136/102 103/137/103 
f 136/171/136 135/170/135 103/137/103 104/138/104 
f 137/172/137 136/171/136 104/138/104 105/139/105 
f 138/173/138 137/172/137 105/139/105 106/140/106 
f 139/174/139 138/173/138 106/140/106 107/141/107 
f 140/175/140 139/174/139 107/141/107 108/142/108 
f 141/176/141 140/175/140 108/142/108 109/143/109 
f 142/177/142 141/176/141 109/143/109 110/144/110 
f 143/178/143 142/177/142 110/144/110 111/145/111 
f 144/179/144 143/178/143 111/145/111 112/146/112 
f 145/180/145 144/179/144 112/146/112 113/147/113 
f 146/181/146 145/180/145 113/147/113 114/148/114 
f 147/182/147 146/181/146 114/148/114 115/149/115 
f 148/183/148 147/182/147 115/149/115 116/150/116 
f 149/184/149 148/183/148 116/150/116 117/151/117 
f 150/185/150 149/184/149 117/151/117 118/152/118 
f 151/186/151 150/185/150 118/152/118 119/153/119 
f 152/187/152 151/186/151 119/153/119 120/154/120 
f 153/188/153 152/187/152 120/154/120 121/155/121 
f 154/189/154 153/188/153 121/155/121 122/156/122 
f 155/190/155 154/189/154 122/156/122 123/157/123 
f 156/191/156 155/190/155 123/157/123 124/158/124 
f 157/192/157 156/191/156 124/158/124 125/159/125 
f 158/193/158 157/192/157 125/159/125 126/160/126 
f 159/194/159 158/193/158 126/160/126 127/161/127 
f 160/195/160 159/194/159 127/161/127 128/162/128 
f 161/196/161 160/195/160 128/162/128 129/163/129 
f 131/197/131 161/196/161 129/163/129 99/164/99 
f 162/198/162 163/199/163 131/166/131 130/165/130 
f 164/200/164 162/198/162 130/165/130 132/167/132 
f 165/201/165 164/200/164 132/167/132 133/168/133 
f 166/202/166 165/201/165 133/168/133 134/169/134 
f 167/203/167 166/202/166 134/169/134 135/170/135 
f 168/204/168 167/203/167 135/170/135 136/171/136 
f 169/205/169 168/204/168 136/171/136 137/172/137 
f 170/206/170 169/205/169 137/172/137 138/173/138 
f 171/207/171 170/206/170 138/173/138 139/174/139 
f 172/208/172 171/207/171 139/174/139 140/175/140 
f 173/209/173 172/208/172 140/175/140 141/176/141 
f 174/210/174 173/209/173 141/176/141 142/177/142 
f 175/211/175 174/210/174 142/177/142 143/178/143 
f 176/212/176 175/211/175 143/178/143 144/179/144 
f 177/213/177 176/212/176 144/179/144 145/180/145 
f 178/214/178 177/213/177 145/180/145 146/181/146 
f 179/215/179 178/214/178 146/181/146 147/182/147 
f 180/216/180 179/215/179 147/182/147 148/183/148 
f 181/217/181 180/216/180 148/183/148 149/184/149 
f 182/218/182 181/217/181 149/184/149 150/185/150 
f 183/219/183 182/218/182 150/185/150 151/186/151 
f 184/220/184 183/219/183 151/186/151 152/187/152 
f 185/221/185 184/220/184 152/187/152 153/188/153 
f 186/222/186 185/221/185 153/188/153 154/189/154 
f 187/223/187 186/222/186 154/189/154 155/190/155 
f 188/224/188 187/223/187 155/190/155 156/191/156 
f 189/225/189 188/224/188 156/191/156 157/192/157 
f 190/226/190 189/225/189 157/192/157 158/193/158 
f 191/227/191 190/226/190 158/193/158 159/194/159 
f 192/228/192 191/227/191 159/194/159 160/195/160 
f 193/229/193 192/228/192 160/195/160 161/196/161 
f 163/230/163 193/229/193 161/196/161 131/197/131 
f 194/231/194 195/232/195 163/199/163 162/198/162 
f 196/233/196 194/231/194 162/198/162 164/200/164 
f 197/234/197 196/233/196 164/200/164 165/201/165 
f 198/235/198 197/234/197 165/201/165 166/202/166 
f 199/236/199 198/235/198 166/202/166 167/203/167 
f 200/237/200 199/236/199 167/203/167 168/204/168 
f 201/238/201 200/237/200 168/204/168 169/205/169 
f 202/239/202 201/238/201 169/205/169 170/206/170 
f 203/240/203 202/239/202 170/206/170 171/207/171 
f 204/241/204 203/240/203 171/207/171 172/208/172 
f 205/242/205 204/241/204 172/208/172 173/209/173 
f 206/243/206 205/242/205 173/209/173 174/210/174 
f 207/244/207 206/243/206 174/210/174 175/211/175 
f 208/245/208 207/244/207 175/211/175 176/212/176 
f 209/246/209 208/245/208 176/212/176 177/213/177 
f 210/247/210 209/246/209 177/213/177 178/214/178 
f 211/248/211 210/247/210 178/214/178 179/215/179 
f 212/249/212 211/248/211 179/215/179 180/216/180 
f 213/250/213 212/249/212 180/216/180 181/217/181 
f 214/251/214 213/250/213 181/217/181 182/218/182 
f 215/252/215 214/251/214 182/218/182 183/219/183 
f 216/253/216 215/252/215 183/219/183 184/220/184 
f 217/254/217 216/253/216 184/220/184 185/221/185 
f 218/255/218 217/254/217 185/221/185 186/222/186 
f 219/256/219 218/255/218 186/222/186 187/223/187 
f 220/257/220 219/256/219 187/223/187 188/224/188 
f 221/258/221 220/257/220 188/224/188 189/225/189 
f 222/259/222 221/258/221 189/225/189 190/226/190 
f 223/260/223 222/259/222 190/226/190 191/227/191 
f 224/261/224 223/260/223 191/227/191 192/228/192 
f 225/262/225 224/261/224 192/228/192 193/229/193 
f 195/263/195 225/262/225 193/229/193 163/230/163 
f 226/264/226 227/265/227 195/232/195 194/231/194 
f 228/266/228 226/264/226 194/231/194 196/233/196 
f 229/267/229 228/266/228 196/233/196 197/234/197 
f 230/268/230 229/267/229 197/234/197 198/235/198 
f 231/269/231 230/268/230 198/235/198 199/236/199 
f 232/270/232 231/269/231 199/236/199 200/237/200 
f 233/271/233 232/270/232 200/237/200 201/238/201 
f 234/272/234 233/271/233 201/238/201 202/239/202 
f 235/273/235 234/272/234 202/239/202 203/240/203 
f 236/274/236 235/273/235 203/240/203 204/241/204 
f 237/275/237 236/274/236 204/241/204 205/242/205 
f 238/276/238 237/275/237 205/242/205 206/243/206 
f 239/277/239 238/276/238 206/243/206 207/244/207 
f 240/278/240 239/277/239 207/244/207 208/245/208 
f 241/279/241 240/278/240 208/245/208 209/246/209 
f 242/280/242 241/279/241 209/246/209 210/247/210 
f 243/281/243 242/280/242 210/247/210 211/248/211 
f 244/282/244 243/281/243 211/248/211 212/249/212 
f 245/283/245 244/282/244 212/249/212 213/250/213 
f 246/284/246 245/283/245 213/250/213 214/251/214 
f 247/285/247 246/284/246 214/251/214 215/252/215 
f 248/286/248 247/285/247 215/252/215 216/253/216 
f 249/287/249 248/286/248 216/253/216 217/254/217 
f 250/288/250 249/287/249 217/254/217 218/255/218 
f 251/289/251 250/288/250 218/255/218 219/256/219 
f 252/290/252 251/289/251 219/256/219 220/257/220 
f 253/291/253 252/290/252 220/257/220 221/258/221 
f 254/292/254 253/291/253 221/258/221 222/259/222 
f 255/293/255 254/292/254 222/259/222 223/260/223 
f 256/294/256 255/293/255 223/260/223 224/261/224 
f 257/295/257 256/294/256 224/261/224 225/262/225 
f 227/296/227 257/295/257 225/262/225 195/263/195 
f 258/297/258 259/298/259 227/265/227 226/264/226 
f 260/299/260 258/297/258 226/264/226 228/266/228 
f 261/300/261 260/299/260 228/266/228 229/267/229 
f 262/301/262 261/300/261 229/267/229 230/268/230 
f 263/302/263 262/301/262 230/268/230 231/269/231 
f 264/303/264 263/302/263 231/269/231 232/270/232 
f 265/304/265 264/303/264 232/270/232 233/271/233 
f 266/305/266 265/304/265 233/271/233 234/272/234 
f 267/306/267 266/305/266 234/272/234 235/273/235 
f 268/307/268 267/306/267 235/273/235 236/274/236 
f 269/308/269 268/307/268 236/274/236 237/275/237 
f 270/309/270 269/308/269 237/275/237 238/276/238 
f 271/310/271 270/309/270 238/276/238 239/277/239 
f 272/311/272 271/310/271 239/277/239 240/278/240 
f 273/312/273 272/311/272 240/278/240 241/279/241 
f 274/313/274 273/312/273 241/279/241 242/280/242 
f 275/314/275 274/313/274 242/280/242 243/281/243 
f 276/315/276 275/314/275 243/281/243 244/282/244 
f 277/316/277 276/315/276 244/282/244 245/283/245 
f 278/317/278 277/316/277 245/283/245 246/284/246 
f 279/318/279 278/317/278 246/284/246 247/285/247 
f 280/319/280 279/318/279 247/285/247 248/286/248 
f 281/320/281 280/319/280 248/286/248 249/287/249 
f 282/321/282 281/320/281 249/287/249 250/288/250 
f 283/322/283 282/321/282 250/288/250 251/289/251 
f 284/323/284 283/322/283 251/289/251 252/290/252 
f 285/324/285 284/323/284 252/290/252 253/291/253 
f 286/325/286 285/324/285 253/291/253 254/292/254 
f 287/326/287 286/325/286 254/292/254 255/293/255 
f 288/327/288 287/326/287 255/293/255 256/294/256 
f 289/328/289 288/327/288 256/294/256 257/295/257 
f 259/329/259 289/328/289 257/295/257 227/296/227 
f 290/330/290 291/331/291 259/298/259 258/297/258 
f 292/332/292 290/330/290 258/297/258 260/299/260 
f 293/333/293 292/332/292 260/299/260 261/300/261 
f 294/334/294 293/333/293 261/300/261 262/301/262 
f 295/335/295 294/334/294 262/301/262 263/302/263 
f 296/336/296 295/335/295 263/302/263 264/303/264 
f 297/337/297 296/336/296 264/303/264 265/304/265 
f 298/338/298 297/337/297 265/304/265 266/305/266 
f 299/339/299 298/338/298 266/305/266 267/306/267 
f 300/340/300 299/339/299 267/306/267 268/307/268 
f 301/341/301 300/340/300 268/307/268 269/308/269 
f 302/342/302 301/341/301 269/308/269 270/309/270 
f 303/343/303 302/342/302 270/309/270 271/310/271 
f 304/344/304 303/343/303 271/310/271 272/311/272 
f 305/345/305 304/344/304 272/311/272 273/312/273 
f 306/346/306 305/345/305 273/312/273 274/313/274 
f 307/347/307 306/346/306 274/313/274 275/314/275 
f 308/348/308 307/347/307 275/314/275 276/315/276 
f 309/349/309 308/348/308 276/315/276 277/316/277 
f 310/350/310 309/349/309 277/316/277 278/317/278 
f 311/351/311 310/350/310 278/317/278 279/318/279 
f 312/352/312 311/351/311 279/318/279 280/319/280 
f 313/353/313 312/352/312 280/319/280 281/320/281 
f 314/354/314 313/353/313 281/320/281 282/321/282 
f 315/355/315 314/354/314 282/321/282 283/322/283 
f 316/356/316 315/355/315 283/322/283 284/323/284 
f 317/357/317 316/356/316 284/323/284 285/324/285 
f 318/358/318 317/357/317 285/324/285 286/325/286 
f 319/359/319 318/358/318 286/325/286 287/326/287 
f 320/360/320 319/359/319 287/326/287 288/327/288 
f 321/361/321 320/360/320 288/327/288 289/328/289 
f 291/362/291 321/361/321 289/328/289 259/329/259 
f 322/363/322 323/364/323 291/331/291 290/330/290 
f 324/365/324 322/363/322 290/330/290 292/332/292 
f 325/366/325 324/365/324 292/332/292 293/333/293 
f 326/367/326 325/366/325 293/333/293 294/334/294 
f 327/368/327 326/367/326 294/334/294 295/335/295 
f 328/369/328 327/368/327 295/335/295 296/336/296 
f 329/370/329 328/369/328 296/336/296 297/337/297 
f 330/371/330 329/370/329 297/337/297 298/338/298 
f 331/372/331 330/371/330 298/338/298 299/339/299 
f 332/373/332 331/372/331 299/339/299 300/340/300 
f 333/374/333 332/373/332 300/340/300 301/341/301 
f 334/375/334 333/374/333 301/341/301 302/342/302 
f 335/376/335 334/375/334 302/342/302 303/343/303 
f 336/377/336 335/376/335 303/343/303 304/344/304 
f 337/378/337 336/377/336 304/344/304 305/345/305 
f 338/379/338 337/378/337 305/345/305 306/346/306 
f 339/380/339 338/379/338 306/346/306 307/347/307 
f 340/381/340 339/380/339 307/347/307 308/348/308 
f 341/382/341 340/381/340 308/348/308 309/349/309 
f 342/383/342 341/382/341 309/349/309 310/350/310 
f 343/384/343 342/383/342 310/350/310 311/351/311 
f 344/385/344 343/384/343 311/351/311 312/352/312 
f 345/386/345 344/385/344 312/352/312 313/353/313 
f 346/387/346 345/386/345 313/353/313 314/354/314 
f 347/388/347 346/387/346 314/354/314 315/355/315 
f 348/389/348 347/388/347 315/355/315 316/356/316 
f 349/390/349 348/389/348 316/356/316 317/357/317 
f 350/391/350 349/390/349 317/357/317 318/358/318 
f 351/392/351 350/391/350 318/358/318 319/359/319 
f 352/393/352 351/392/351 319/359/319 320/360/320 
f 353/394/353 352/393/352 320/360/320 321/361/321 
f 323/395/323 353/394/353 321/361/321 291/362/291 
f 354/396/354 355/397/355 323/364/323 322/363/322 
f 356/398/356 354/396/354 322/363/322 324/365/324 
f 357/399/357 356/398/356 324/365/324 325/366/325 
f 358/400/358 357/399/357 325/366/325 326/367/326 
f 359/401/359 358/400/358 326/367/326 327/368/327 
f 360/402/360 359/401/359 327/368/327 328/369/328 
f 361/403/361 360/402/360 328/369/328 329/370/329 
f 362/404/362 361/403/361 329/370/329 330/371/330 
f 363/405/363 362/404/362 330/371/330 331/372/331 
f 364/406/364 363/405/363 331/372/331 332/373/332 
f 365/407/365 364/406/364 332/373/332 333/374/333 
f 366/408/366 365/407/365 333/374/333 334/375/334 
f 367/409/367 366/408/366 334/375/334 335/376/335 
f 368/410/368 367/409/367 335/376/335 336/377/336 
f 369/411/369 368/410/368 336/377/336 337/378/337 
f 370/412/370 369/411/369 337/378/337 338/379/338 
f 371/413/371 370/412/370 338/379/338 339/380/339 
f 372/414/372 371/413/371 339/380/339 340/381/340 
f 373/415/373 372/414/372 340/381/340 341/382/341 
f 374/416/374 373/415/373 341/382/341 342/383/342 
f 375/417/375 374/416/374 342/383/342 343/384/343 
f 376/418/376 375/417/375 343/384/343 344/385/344 
f 377/419/377 376/418/376 344/385/344 345/386/345 
f 378/420/378 377/419/377 345/386/345 346/387/346 
f 379/421/379 378/420/378 346/387/346 347/388/347 
f 380/422/380 379/421/379 347/388/347 348/389/348 
f 381/423/381 380/422/380 348/389/348 349/390/349 
f 382/424/382 381/423/381 349/390/349 350/391/350 
f 383/425/383 382/424/382 350/391/350 351/392/351 
f 384/426/384 383/425/383 351/392/351 352/393/352 
f 385/427/385 384/426/384 352/393/352 353/394/353 
f 355/428/355 385/427/385 353/394/353 323/395/323 
f 386/429/386 387/430/387 355/397/355 354/396/354 
f 388/431/388 386/429/386 354/396/354 356/398/356 
f 389/432/389 388/431/388 356/398/356 357/399/357 
f 390/433/390 389/432/389 357/399/357 358/400/358 
f 391/434/391 390/433/390 358/400/358 359/401/359 
f 392/435/392 391/434/391 359/401/359 360/402/360 
f 393/436/393 392/435/392 360/402/360 361/403/361 
f 394/437/394 393/436/393 361/403/361 362/404/362 
f 395/438/395 394/437/394 362/404/362 363/405/363 
f 396/439/396 395/438/395 363/405/363 364/406/364 
f 397/440/397 396/439/396 364/406/364 365/407/365 
f 398/441/398 397/440/397 365/407/365 366/408/366 
f 399/442/399 398/441/398 366/408/366 367/409/367 
f 400/443/400 399/442/399 367/409/367 368/410/368 
f 401/444/401 400/443/400 368/410/368 369/411/369 
f 402/445/402 401/444/401 369/411/369 370/412/370 
f 403/446/403 402/445/402 370/412/370 371/413/371 
f 404/447/404 403/446/403 371/413/371 372/414/372 
f 405/448/405 404/447/404 372/414/372 373/415/373 
f 406/449/406 405/448/405 373/415/373 374/416/374 
f 407/450/407 406/449/406 374/416/374 375/417/375 
f 408/451/408 407/450/407 375/417/375 376/418/376 
f 409/452/409 408/451/408 376/418/376 377/419/377 
f 410/453/410 409/452/409 377/419/377 378/420/378 
f 411/454/411 410/453/410 378/420/378 379/421/379 
f 412/455/412 411/454/411 379/421/379 380/422/380 
f 413/456/413 412/455/412 380/422/380 381/423/381 
f 414/457/414 413/456/413 381/423/381 382/424/382 
f 415/458/415 414/457/414 382/424/382 383/425/383 
f 416/459/416 415/458/415 383/425/383 384/426/384 
f 417/460/417 416/459/416 384/426/384 385/427/385 
f 387/461/387 417/460/417 385/427/385 355/428/355 
f 418/462/418 419/463/419 387/430/387 386/429/386 
f 420/464/420 418/462/418 386/429/386 388/431/388 
f 421/465/421 420/464/420 388/431/388 389/432/389 
f 422/466/422 421/465/421 389/432/389 390/433/390 
f 423/467/423 422/466/422 390/433/390 391/434/391 
f 424/468/424 423/467/423 391/434/391 392/435/392 
f 425/469/425 424/468/424 392/435/392 393/436/393 
f 426/470/426 425/469/425 393/436/393 394/437/394 
f 427/471/427 426/470/426 394/437/394 395/438/395 
f 428/472/428 427/471/427 395/438/395 396/439/396 
f 429/473/429 428/472/428 396/439/396 397/440/397 
f 430/474/430 429/473/429 397/440/397 398/441/398 
f 431/475/431 430/474/430 398/441/398 399/442/399 
f 432/476/432 431/475/431 399/442/399 400/443/400 
f 433/477/433 432/476/432 400/443/400 401/444/401 
f 434/478/434 433/477/433 401/444/401 402/445/402 
f 435/479/435 434/478/434 402/445/402 403/446/403 
f 436/480/436 435/479/435 403/446/403 404/447/404 
f 437/481/437 436/480/436 404/447/404 405/448/405 
f 438/482/438 437/481/437 405/448/405 406/449/406 
f 439/483/439 438/482/438 406/449/406 407/450/407 
f 440/484/440 439/483/439 407/450/407 408/451/408 
f 441/485/441 440/484/440 408/451/408 409/452/409 
f 442/486/442 441/485/441 409/452/409 410/453/410 
f 443/487/443 442/486/442 410/453/410 411/454/411 
f 444/488/444 443/487/443 411/454/411 412/455/412 
f 445/489/445 444/488/444 412/455/412 413/456/413 
f 446/490/446 445/489/445 413/456/413 414/457/414 
f 447/491/447 446/490/446 414/457/414 415/458/415 
f 448/492/448 447/491/447 415/458/415 416/459/416 
f 449/493/449 448/492/448 416/459/416 417/460/417 
f 419/494/419 449/493/449 417/460/417 387/461/387 
f 450/495/450 451/496/451 419/463/419 418/462/418 
f 452/497/452 450/495/450 418/462/418 420/464/420 
f 453/498/453 452/497/452 420/464/420 421/465/421 
f 454/499/454 453/498/453 421/465/421 422/466/422 
f 455/500/455 454/499/454 422/466/422 423/467/423 
f 456/501/456 455/500/455 423/467/423 424/468/424 
f 457/502/457 456/501/456 424/468/424 425/469/425 
f 458/503/458 457/502/457 425/469/425 426/470/426 
f 459/504/459 458/503/458 426/470/426 427/471/427 
f 460/505/460 459/504/459 427/471/427 428/472/428 
f 461/506/461 460/505/460 428/472/428 429/473/429 
f 462/507/462 461/506/461 429/473/429 430/474/430 
f 463/508/463 462/507/462 430/474/430 431/475/431 
f 464/509/464 463/508/463 431/475/431 432/476/432 
f 465/510/465 464/509/464 432/476/432 433/477/433 
f 466/511/466 465/510/465 433/477/433 434/478/434 
f 467/512/467 466/511/466 434/478/434 435/479/435 
f 468/513/468 467/512/467 435/479/435 436/480/436 
f 469/514/469 468/513/468 436/480/436 437/481/437 
f 470/515/470 469/514/469 437/481/437 438/482/438 
f 471/516/471 470/515/470 438/482/438 439/483/439 
f 472/517/472 471/516/471 439/483/439 440/484/440 
f 473/518/473 472/517/472 440/484/440 441/485/441 
f 474/519/474 473/518/473 441/485/441 442/486/442 
f 475/520/475 474/519/474 442/486/442 443/487/443 
f 476/521/476 475/520/475 443/487/443 444/488/444 
f 477/522/477 476/521/476 444/488/444 445/489/445 
f 478/523/478 477/522/477 445/489/445 446/490/446 
f 479/524/479 478/523/478 446/490/446 447/491/447 
f 480/525/480 479/524/479 447/491/447 448/492/448 
f 481/526/481 480/525/480 448/492/448 449/493/449 
f 451/527/451 481/526/481 449/493/449 419/494/419 
f 482/528/482 451/496/451 450/495/450 
f 482/529/482 450/495/450 452/497/452 
f 482/530/482 452/497/452 453/498/453 
f 482/531/482 453/498/453 454/499/454 
f 482/532/482 454/499/454 455/500/455 
f 482/533/482 455/500/455 456/501/456 
f 482/534/482 456/501/456 457/502/457 
f 482/535/482 457/502/457 458/503/458 
f 482/536/482 458/503/458 459/504/459 
f 482/537/482 459/504/459 460/505/460 
f 482/538/482 460/505/460 461/506/461 
f 482/539/482 461/506/461 462/507/462 
f 482/540/482 462/507/462 463/508/463 
f 482/541/482 463/508/463 464/509/464 
f 482/542/482 464/509/464 465/510/465 
f 482/543/482 465/510/465 466/511/466 
f 482/544/482 466/511/466 467/512/467 
f 482/545/482 467/512/467 468/513/468 
f 482/546/482 468/513/468 469/514/469 
f 482/547/482 469/514/469 470/515/470 
f 482/548/482 470/515/470 471/516/471 
f 482/549/482 471/516/471 472/517/472 
f 482/550/482 472/517/472 473/518/473 
f 482/551/482 473/518/473 474/519/474 
f 482/552/482 474/519/474 475/520/475 
f 482/553/482 475/520/475 476/521/476 
f 482/554/482 476/521/476 477/522/477 
f 482/555/482 477/522/477 478/523/478 
f 482/556/482 478/523/478 479/524/479 
f 482/557/482 479/524/479 480/525/480 
f 482/558/482 480/525/480 481/526/481 
f 482/559/482 481/526/481 451/527/451 
# 448 polygons - 64 triangles

