# 3ds Max Wavefront OBJ Exporter v0.97b - (c)2007 guruware
# File Created: 07.05.2016 13:30:25

mtllib transbordador.mtl

#
# object Cylinder003
#

v  -3.2029 1.4191 -0.3748
v  -3.2029 15.4019 -0.3748
v  -2.6027 15.3685 -1.0928
v  -2.6027 1.4152 -1.0928
v  -3.2029 1.4191 1.4795
v  -3.2029 15.3640 1.4795
v  -3.3406 15.3685 0.3380
v  -3.3406 1.4152 0.3380
v  -0.1990 1.4152 3.5278
v  -0.1990 15.3685 3.5278
v  -2.6027 15.3685 2.6414
v  -2.6027 1.4152 2.6414
v  -2.5376 17.5522 -0.3748
v  -1.9293 17.5351 -1.0950
v  -2.5376 17.5522 1.3260
v  -2.7560 17.5997 0.3380
v  -0.1443 17.5028 3.0934
v  -1.9650 17.5179 2.1376
v  -2.4706 17.8500 -0.3613
v  -1.8552 17.8288 -1.0961
v  -2.4706 17.8500 1.2833
v  -2.6863 17.8917 0.3380
v  -0.1387 17.7957 2.9954
v  -1.8948 17.8126 2.0123
v  -1.1661 20.3972 -1.0719
v  -1.6576 20.3885 -0.4761
v  -1.0136 21.6912 -0.3752
v  -0.5025 21.8943 -0.7778
v  -1.6576 20.3885 0.6894
v  -1.0136 21.6912 0.4302
v  -1.1090 21.7161 0.0443
v  -1.8504 20.3810 0.1084
v  -0.0042 20.3891 1.6212
v  -0.0042 21.8943 0.8968
v  -0.5025 21.8943 0.7798
v  -1.1661 20.3891 1.1110
v  -0.0042 22.2888 -0.0494
v  -0.5025 22.2157 -0.0431
v  -1.3481 19.6765 -1.0904
v  -0.0042 19.6765 -1.2618
v  -0.0042 17.7966 -1.2677
v  -1.8947 19.6368 -0.4200
v  -1.8947 19.6368 0.8874
v  -2.0868 19.6567 0.1985
v  -1.3470 19.6749 1.4057
v  -0.0042 20.3972 -1.2431
v  -0.0042 1.4152 3.5982
v  -0.0042 15.3685 3.5982
v  -0.0042 17.5028 3.1500
v  -0.0042 17.7957 3.0500
v  -1.8709 17.7915 1.9650
v  -1.3231 19.6537 1.3584
v  -0.1148 17.7745 2.9481
v  -0.1049 19.6749 1.9424
v  -0.0042 19.6545 1.8967
v  -0.0042 19.6333 1.9569
v  -0.0042 19.6537 1.8935
v  -5.9043 1.4181 -2.2223
v  -5.9043 4.9376 -2.2223
v  -1.9675 11.8351 -0.6811
v  -1.9675 1.4181 -0.6811
v  -6.0340 1.4181 -1.8903
v  -2.3318 1.4181 0.2516
v  -2.3318 11.8351 0.2516
v  -6.0340 4.9376 -1.8903
v  -6.4446 1.4181 -2.4282
v  -6.4446 4.4354 -2.4282
v  -6.5419 4.4354 -2.1790
v  -6.5419 1.4181 -2.1790
v  -6.9526 1.4181 -2.6267
v  -6.9526 4.4354 -2.6267
v  -7.0234 4.4354 -2.4455
v  -7.0234 1.4181 -2.4455
v  -7.2949 1.4181 -2.7604
v  -7.2949 5.1126 -2.7604
v  -7.3657 5.1126 -2.5792
v  -7.3657 1.4181 -2.5792
v  -0.7436 0.0357 -0.2296
v  -1.1447 0.0357 -1.1981
v  -1.7803 1.6474 -0.5625
v  -1.6425 1.6474 -0.2296
v  -2.1132 0.0357 -1.5993
v  -2.1132 1.6474 -0.7003
v  -3.0816 0.0357 -1.1981
v  -2.4460 1.6474 -0.5625
v  -3.4828 0.0357 -0.2296
v  -2.5838 1.6474 -0.2296
v  -3.0816 0.0357 0.7388
v  -2.4460 1.6474 0.1032
v  -2.1132 0.0357 1.1400
v  -2.1132 1.6474 0.2410
v  -1.1447 0.0357 0.7388
v  -1.7803 1.6474 0.1032
v  -0.9069 0.0357 -0.2296
v  -1.2602 0.0357 -1.0826
v  -2.1132 0.0357 -1.4359
v  -2.9661 0.0357 -1.0826
v  -3.3194 0.0357 -0.2296
v  -2.9661 0.0357 0.6233
v  -2.1132 0.0357 0.9766
v  -1.2602 0.0357 0.6233
v  -1.7403 1.5209 -0.2296
v  -1.8495 1.5209 -0.4933
v  -2.1132 1.5209 -0.6025
v  -2.3768 1.5209 -0.4933
v  -2.4860 1.5209 -0.2296
v  -2.3768 1.5209 0.0340
v  -2.1132 1.5209 0.1432
v  -1.8495 1.5209 0.0340
v  -0.0042 1.4152 -1.2644
v  -0.0042 1.1198 -1.1145
v  -2.4361 1.1198 -0.9538
v  -2.9983 1.1235 -0.2813
v  -3.1272 1.1198 0.3863
v  -2.9983 1.1235 1.4553
v  -2.4361 1.1198 2.5435
v  -0.1850 1.1198 3.3737
v  -0.0042 1.1199 -0.9742
v  -2.4101 1.1199 -0.8236
v  -2.9367 1.1234 -0.1938
v  -3.0574 1.1199 0.4314
v  -2.9367 1.1234 1.4326
v  -2.4101 1.1199 2.4518
v  -0.3018 1.1199 3.2294
v  -0.0042 1.3887 -0.9742
v  -2.4101 1.3887 -0.8236
v  -2.9367 1.3922 -0.1938
v  -3.0574 1.3887 0.4314
v  -2.9367 1.3922 1.4326
v  -2.4101 1.3887 2.4518
v  -0.3018 1.3887 3.2294
v  -0.0042 1.3893 0.3531
v  -0.4967 1.3893 0.4069
v  -1.0556 1.3906 0.6334
v  -1.3930 1.3893 0.8583
v  -1.4158 1.3906 1.2184
v  -1.1403 1.3893 1.5850
v  -0.5839 1.3893 1.8647
v  -1.5852 -3.5816 -4.9541
v  -2.2386 -3.5816 -3.3766
v  -0.7744 -0.2265 -3.3766
v  -0.5498 -0.2265 -3.9187
v  -1.5852 -3.5816 -1.7990
v  -0.5498 -0.2265 -2.8344
v  -0.0042 -3.5816 -1.1473
v  -0.0042 -0.2265 -2.6116
v  -0.0042 -3.5816 -5.6058
v  -0.0042 -3.5816 -5.3396
v  -1.3970 -3.5816 -4.7659
v  -1.9725 -3.5816 -3.3766
v  -1.3970 -3.5816 -1.9872
v  -0.0042 -0.4325 -3.9822
v  -0.4372 -0.4325 -3.8060
v  -0.6151 -0.4325 -3.3766
v  -0.4372 -0.4325 -2.9471
v  -2.7597 -2.5093 -5.7901
v  -2.7597 -1.1363 -5.7901
v  -1.4738 1.5546 -4.7572
v  -1.4738 -2.5093 -4.7572
v  -2.8467 -2.5093 -5.6817
v  -1.7182 -2.5093 -4.4525
v  -1.7182 1.5546 -4.4525
v  -2.8467 -1.1363 -5.6817
v  -2.9368 -2.5093 -5.9298
v  -2.9368 -1.3322 -5.9298
v  -3.0021 -1.3322 -5.8484
v  -3.0021 -2.5093 -5.8484
v  -3.1028 -2.5093 -6.0629
v  -3.1028 -1.3322 -6.0629
v  -3.1502 -1.3322 -6.0037
v  -3.1502 -2.5093 -6.0037
v  -3.2146 -2.5093 -6.1526
v  -3.2146 -1.0680 -6.1526
v  -3.2621 -1.0680 -6.0934
v  -3.2621 -2.5093 -6.0934
v  -1.9403 -2.3846 -5.0193
v  -2.7435 -2.3846 -3.0801
v  -2.7435 25.0876 -3.0801
v  -1.9403 25.0876 -5.0193
v  -1.9403 -2.3846 -1.1410
v  -1.9403 25.0876 -1.1410
v  -0.0042 -2.3846 -1.1967
v  -0.0042 25.0876 -1.1967
v  -1.7257 28.6044 -3.0801
v  -1.2206 28.6044 -4.2996
v  -1.2206 28.6044 -1.8607
v  -0.0042 28.6044 -1.6073
v  -0.8250 31.2450 -3.0801
v  -0.5837 31.2450 -3.6627
v  -0.5837 31.2450 -2.4976
v  -0.0042 31.2450 -2.3362
v  -0.2944 32.8086 -3.0801
v  -0.2085 32.8086 -3.2875
v  -0.2085 32.8086 -2.8728
v  -0.0042 32.8086 -2.7898
v  -0.0042 32.9420 -3.0801
v  -0.2085 32.9420 -3.0801
v  -0.0042 -2.3846 -5.8195
v  -0.0042 -2.3846 -5.4126
v  -1.6413 -2.3846 -4.7362
v  -2.3204 -2.3846 -3.0967
v  -1.6413 -2.3846 -1.4572
v  -0.0042 -0.4676 -3.9766
v  -1.2954 -0.4676 -3.7366
v  -1.5362 -0.4676 -3.1553
v  -1.2954 -0.4676 -2.5741
v  -0.0042 -0.4676 -3.2837
v  -3.2741 -2.5093 -1.4955
v  -3.2741 -1.1363 -1.4955
v  -1.9498 1.5546 -2.4787
v  -1.9498 -2.5093 -2.4787
v  -3.1911 -2.5093 -1.3839
v  -1.7167 -2.5093 -2.1653
v  -1.7167 1.5546 -2.1653
v  -3.1911 -1.1363 -1.3839
v  -3.4539 -2.5093 -1.3594
v  -3.4539 -1.3322 -1.3594
v  -3.3917 -1.3322 -1.2757
v  -3.3917 -2.5093 -1.2757
v  -3.6247 -2.5093 -1.2324
v  -3.6247 -1.3322 -1.2324
v  -3.5794 -1.3322 -1.1715
v  -3.5794 -2.5093 -1.1715
v  -3.7397 -2.5093 -1.1469
v  -3.7397 -1.0680 -1.1469
v  -3.6944 -1.0680 -1.0860
v  -3.6944 -2.5093 -1.0860
v  -5.9652 0.5044 -3.4388
v  -5.9652 1.4420 -3.4388
v  -4.9699 3.2795 -3.9659
v  -4.9699 0.5044 -3.9659
v  -5.9207 0.5044 -3.3549
v  -4.8449 0.5044 -3.7303
v  -4.8449 3.2795 -3.7303
v  -5.9207 1.4420 -3.3549
v  -6.1007 0.5044 -3.3655
v  -6.1007 1.3082 -3.3655
v  -6.0673 1.3082 -3.3026
v  -6.0673 0.5044 -3.3026
v  -6.2290 0.5044 -3.2974
v  -6.2290 1.3082 -3.2974
v  -6.2048 1.3082 -3.2517
v  -6.2048 0.5044 -3.2517
v  -6.3155 0.5044 -3.2516
v  -6.3155 1.4886 -3.2516
v  -6.2912 1.4886 -3.2058
v  -6.2912 0.5044 -3.2058
v  -5.2603 0.5895 -3.7442
v  -4.2615 0.5895 -2.7162
v  -4.2615 19.3496 -2.7162
v  -5.2603 19.3496 -3.7442
v  -2.8284 0.5895 -2.6956
v  -2.8284 19.3496 -2.6956
v  -2.3399 0.5895 -3.9248
v  -2.3399 19.3496 -3.9248
v  -3.9863 21.7511 -3.3545
v  -4.6144 21.7511 -4.0009
v  -3.0851 21.7511 -3.3415
v  -2.5968 21.7511 -4.0356
v  -3.7428 23.5543 -3.9193
v  -4.0428 23.5543 -4.2281
v  -3.3122 23.5543 -3.9131
v  -3.0536 23.5543 -4.2326
v  -3.5993 24.6221 -4.2520
v  -3.7061 24.6221 -4.3619
v  -3.4461 24.6221 -4.2498
v  -3.3377 24.6221 -4.3550
v  -3.5208 24.7132 -4.4340
v  -3.5761 24.7132 -4.3059
v  -5.2397 0.5895 -5.1751
v  -4.9845 0.5895 -5.0651
v  -5.0020 0.5895 -3.8552
v  -4.1575 0.5895 -2.9860
v  -2.9458 0.5895 -2.9686
v  -4.7662 0.9074 -4.9710
v  -4.0854 1.8986 -4.6721
v  -4.2816 1.8986 -3.8018
v  -3.9822 1.8986 -3.4937
v  -3.5526 1.8986 -3.4875
v  -3.2160 1.8986 -4.2972
v  -3.6507 1.8986 -4.4846
v  -3.4113 0.5044 -1.9551
v  -3.4113 1.4420 -1.9551
v  -3.6698 3.2795 -3.0513
v  -3.6698 0.5044 -3.0513
v  -3.3189 0.5044 -1.9770
v  -3.4102 0.5044 -3.1127
v  -3.4102 3.2795 -3.1127
v  -3.3189 1.4420 -1.9770
v  -3.3746 0.5044 -1.8055
v  -3.3746 1.3082 -1.8055
v  -3.3052 1.3082 -1.8219
v  -3.3052 0.5044 -1.8219
v  -3.3411 0.5044 -1.6641
v  -3.3411 1.3082 -1.6641
v  -3.2907 1.3082 -1.6760
v  -3.2907 0.5044 -1.6760
v  -3.3186 0.5044 -1.5688
v  -3.3186 1.4886 -1.5688
v  -3.2682 1.4886 -1.5808
v  -3.2682 0.5044 -1.5808
v  -5.2397 19.3496 -5.1751
v  -4.6015 21.7511 -4.8999
v  -4.0367 23.5543 -4.6564
v  -3.7040 24.6221 -4.5130
v  -2.5328 0.5895 -4.0080
v  -2.6983 0.9075 -4.0793
v  -4.4752 0.5044 -6.8946
v  -4.1752 0.5044 -5.8090
v  -4.1752 3.2795 -5.8090
v  -4.4752 1.4420 -6.8946
v  -4.3836 0.5044 -6.9198
v  -4.3836 1.4420 -6.9198
v  -3.9180 3.2795 -5.8799
v  -3.9180 0.5044 -5.8799
v  -4.5149 1.3082 -7.0434
v  -4.5149 0.5044 -7.0434
v  -4.4462 0.5044 -7.0624
v  -4.4462 1.3082 -7.0624
v  -4.5535 1.3082 -7.1835
v  -4.5535 0.5044 -7.1835
v  -4.5035 0.5044 -7.1973
v  -4.5035 1.3082 -7.1973
v  -4.5795 1.4886 -7.2779
v  -4.5795 0.5044 -7.2779
v  -4.5295 0.5044 -7.2917
v  -4.5295 1.4886 -7.2917
v  -4.2133 0.5895 -6.1724
v  -4.2133 19.3496 -6.1724
v  -2.7802 19.3496 -6.1518
v  -2.7802 0.5895 -6.1518
v  -1.7814 19.3496 -5.1238
v  -1.7814 0.5895 -5.1238
v  -3.9566 21.7511 -5.5265
v  -3.0554 21.7511 -5.5135
v  -2.4273 21.7511 -4.8671
v  -3.7295 23.5543 -4.9549
v  -3.2989 23.5543 -4.9487
v  -2.9988 23.5543 -4.6399
v  -3.5956 24.6221 -4.6182
v  -3.4424 24.6221 -4.6160
v  -3.3356 24.6221 -4.5061
v  -3.4656 24.7132 -4.5621
v  -4.1167 0.5895 -5.9084
v  -2.9050 0.5895 -5.8909
v  -2.0605 0.5895 -5.0218
v  -3.5834 1.8986 -5.4212
v  -4.0815 1.8986 -4.6811
v  -3.1538 1.8986 -5.4150
v  -2.8544 1.8986 -5.1069
v  -3.2121 1.8986 -4.3062
v  -3.6468 1.8986 -4.4937
v  -1.6431 0.5044 -6.0560
v  -2.6177 0.5044 -5.4915
v  -2.6177 3.2795 -5.4915
v  -1.6431 1.4420 -6.0560
v  -1.5955 0.5044 -5.9738
v  -1.5955 1.4420 -5.9738
v  -2.4841 3.2795 -5.2606
v  -2.4841 0.5044 -5.2606
v  -1.5091 1.3082 -6.1320
v  -1.5091 0.5044 -6.1320
v  -1.4734 0.5044 -6.0703
v  -1.4734 1.3082 -6.0703
v  -1.3833 1.3082 -6.2048
v  -1.3833 0.5044 -6.2048
v  -1.3574 0.5044 -6.1599
v  -1.3574 1.3082 -6.1599
v  -1.2986 1.4886 -6.2538
v  -1.2986 0.5044 -6.2538
v  -1.2726 0.5044 -6.2089
v  -1.2726 1.4886 -6.2089
v  -2.2594 0.2065 -4.5135
v  -2.6932 0.2065 -5.5609
v  -3.3807 1.9496 -4.8734
v  -3.2316 1.9496 -4.5135
v  -3.7407 0.2065 -5.9948
v  -3.7407 1.9496 -5.0225
v  -4.7881 0.2065 -5.5609
v  -4.1006 1.9496 -4.8734
v  -5.2220 0.2065 -4.5135
v  -4.2497 1.9496 -4.5135
v  -4.7881 0.2065 -3.4660
v  -4.1006 1.9496 -4.1535
v  -3.7407 0.2065 -3.0321
v  -3.7407 1.9496 -4.0044
v  -2.6932 0.2065 -3.4660
v  -3.3807 1.9496 -4.1535
v  -2.4361 0.2065 -4.5135
v  -2.8182 0.2065 -5.4359
v  -3.7407 0.2065 -5.8181
v  -4.6632 0.2065 -5.4359
v  -5.0453 0.2065 -4.5135
v  -4.6632 0.2065 -3.5910
v  -3.7407 0.2065 -3.2089
v  -2.8182 0.2065 -3.5910
v  -3.3374 1.8128 -4.5135
v  -3.4555 1.8128 -4.7986
v  -3.7407 1.8128 -4.9167
v  -4.0258 1.8128 -4.7986
v  -4.1440 1.8128 -4.5135
v  -4.0258 1.8128 -4.2283
v  -3.7407 1.8128 -4.1102
v  -3.4555 1.8128 -4.2283
v  -0.9686 0.0357 0.7997
v  -1.3697 0.0357 1.7682
v  -0.4708 1.6474 1.7682
v  -0.3329 1.6474 1.4354
v  -0.9686 0.0357 2.7367
v  -0.3329 1.6474 2.1010
v  -0.0042 0.0357 3.1361
v  -0.0042 1.6474 2.2371
v  -0.0042 0.0357 0.4003
v  -0.0042 0.0357 0.5637
v  -0.8530 0.0357 0.9153
v  -1.2063 0.0357 1.7682
v  -0.8530 0.0357 2.6211
v  -0.0042 1.5209 1.3971
v  -0.2637 1.5209 1.5045
v  -0.3730 1.5209 1.7682
v  -0.2637 1.5209 2.0319
v  -0.0042 15.3685 -1.2644
v  -0.0042 17.5029 -1.2665
v  -0.0042 21.8943 -0.9483
v  -0.0042 20.3607 1.6357
v  -0.0042 1.1198 3.4395
v  -0.0042 1.1199 3.2915
v  -0.0042 1.3887 3.2915
v  -0.0042 1.3893 1.8872
v  -0.0042 -0.2266 -4.1415
v  -0.0042 -3.5816 -1.4135
v  -0.0042 -0.4325 -2.7709
v  -0.0042 -0.4676 -2.5908
v  -0.0042 25.0876 -5.8195
v  -0.0042 28.6044 -4.8017
v  -0.0042 31.2450 -3.9010
v  -0.0042 32.8086 -3.3705
v  -0.0042 -2.3846 -1.5043
v  -0.0042 1.6474 1.2992
v  -0.0042 0.0357 2.9727
v  -0.0042 1.5209 2.1393
v  3.1946 1.4191 -0.3748
v  2.5944 1.4152 -1.0928
v  2.5944 15.3685 -1.0928
v  3.1946 15.4019 -0.3748
v  3.1946 1.4191 1.4795
v  3.3323 1.4152 0.3380
v  3.3323 15.3685 0.3380
v  3.1946 15.3640 1.4795
v  0.1907 1.4152 3.5278
v  2.5944 1.4152 2.6414
v  2.5944 15.3685 2.6414
v  0.1907 15.3685 3.5278
v  1.9210 17.5351 -1.0950
v  2.5293 17.5522 -0.3748
v  2.7477 17.5997 0.3380
v  2.5293 17.5522 1.3260
v  1.9567 17.5179 2.1376
v  0.1360 17.5028 3.0934
v  1.8469 17.8288 -1.0961
v  2.4623 17.8500 -0.3613
v  2.6780 17.8917 0.3380
v  2.4623 17.8500 1.2833
v  1.8865 17.8126 2.0123
v  0.1304 17.7957 2.9954
v  1.1578 20.3972 -1.0719
v  0.4942 21.8943 -0.7778
v  1.0053 21.6912 -0.3752
v  1.6493 20.3885 -0.4761
v  1.6493 20.3885 0.6894
v  1.8421 20.3810 0.1084
v  1.1007 21.7161 0.0443
v  1.0053 21.6912 0.4302
v  1.1578 20.3891 1.1110
v  0.4942 21.8943 0.7798
v  0.4942 22.2157 -0.0431
v  1.3398 19.6765 -1.0904
v  1.8864 19.6368 -0.4200
v  1.8864 19.6368 0.8874
v  2.0785 19.6567 0.1985
v  1.3387 19.6749 1.4057
v  1.3148 19.6537 1.3584
v  1.8626 17.7915 1.9650
v  0.1065 17.7745 2.9481
v  0.0966 19.6749 1.9424
v  5.8960 1.4181 -2.2223
v  1.9592 1.4181 -0.6811
v  1.9592 11.8351 -0.6811
v  5.8960 4.9376 -2.2223
v  6.0257 1.4181 -1.8903
v  6.0257 4.9376 -1.8903
v  2.3235 11.8351 0.2516
v  2.3235 1.4181 0.2516
v  6.4363 4.4354 -2.4282
v  6.4363 1.4181 -2.4282
v  6.5336 1.4181 -2.1790
v  6.5336 4.4354 -2.1790
v  6.9443 4.4354 -2.6267
v  6.9443 1.4181 -2.6267
v  7.0151 1.4181 -2.4455
v  7.0151 4.4354 -2.4455
v  7.2866 5.1126 -2.7604
v  7.2866 1.4181 -2.7604
v  7.3574 1.4181 -2.5792
v  7.3574 5.1126 -2.5792
v  0.7353 0.0357 -0.2296
v  1.6342 1.6474 -0.2296
v  1.7720 1.6474 -0.5625
v  1.1364 0.0357 -1.1981
v  2.1049 1.6474 -0.7003
v  2.1049 0.0357 -1.5993
v  2.4377 1.6474 -0.5625
v  3.0733 0.0357 -1.1981
v  2.5755 1.6474 -0.2296
v  3.4745 0.0357 -0.2296
v  2.4377 1.6474 0.1032
v  3.0733 0.0357 0.7388
v  2.1049 1.6474 0.2410
v  2.1049 0.0357 1.1400
v  1.7720 1.6474 0.1032
v  1.1364 0.0357 0.7388
v  1.2519 0.0357 -1.0826
v  0.8986 0.0357 -0.2296
v  2.1049 0.0357 -1.4359
v  2.9578 0.0357 -1.0826
v  3.3111 0.0357 -0.2296
v  2.9578 0.0357 0.6233
v  2.1049 0.0357 0.9766
v  1.2519 0.0357 0.6233
v  1.8412 1.5209 -0.4933
v  1.7320 1.5209 -0.2296
v  2.1049 1.5209 -0.6025
v  2.3685 1.5209 -0.4933
v  2.4777 1.5209 -0.2296
v  2.3685 1.5209 0.0340
v  2.1049 1.5209 0.1432
v  1.8412 1.5209 0.0340
v  2.4278 1.1198 -0.9538
v  2.9900 1.1235 -0.2813
v  2.9900 1.1235 1.4553
v  3.1189 1.1198 0.3863
v  0.1767 1.1198 3.3737
v  2.4278 1.1198 2.5435
v  2.4018 1.1199 -0.8236
v  2.9284 1.1234 -0.1938
v  2.9284 1.1234 1.4326
v  3.0491 1.1199 0.4314
v  0.2935 1.1199 3.2294
v  2.4018 1.1199 2.4518
v  2.4018 1.3887 -0.8236
v  2.9284 1.3922 -0.1938
v  2.9284 1.3922 1.4326
v  3.0491 1.3887 0.4314
v  0.2935 1.3887 3.2294
v  2.4018 1.3887 2.4518
v  0.4884 1.3893 0.4069
v  1.0473 1.3906 0.6334
v  1.4075 1.3906 1.2184
v  1.3847 1.3893 0.8583
v  0.5756 1.3893 1.8647
v  1.1320 1.3893 1.5850
v  1.5769 -3.5816 -4.9541
v  0.5415 -0.2265 -3.9187
v  0.7661 -0.2265 -3.3766
v  2.2303 -3.5816 -3.3766
v  0.5415 -0.2265 -2.8344
v  1.5769 -3.5816 -1.7990
v  1.3887 -3.5816 -4.7659
v  1.9642 -3.5816 -3.3766
v  1.3887 -3.5816 -1.9872
v  0.4289 -0.4325 -3.8060
v  0.6068 -0.4325 -3.3766
v  0.4289 -0.4325 -2.9471
v  2.7514 -2.5093 -5.7901
v  1.4655 -2.5093 -4.7572
v  1.4655 1.5546 -4.7572
v  2.7514 -1.1363 -5.7901
v  2.8384 -2.5093 -5.6817
v  2.8384 -1.1363 -5.6817
v  1.7099 1.5546 -4.4525
v  1.7099 -2.5093 -4.4525
v  2.9285 -1.3322 -5.9298
v  2.9285 -2.5093 -5.9298
v  2.9938 -2.5093 -5.8484
v  2.9938 -1.3322 -5.8484
v  3.0945 -1.3322 -6.0629
v  3.0945 -2.5093 -6.0629
v  3.1419 -2.5093 -6.0037
v  3.1419 -1.3322 -6.0037
v  3.2063 -1.0680 -6.1526
v  3.2063 -2.5093 -6.1526
v  3.2538 -2.5093 -6.0934
v  3.2538 -1.0680 -6.0934
v  1.9320 -2.3846 -5.0193
v  1.9320 25.0876 -5.0193
v  2.7352 25.0876 -3.0801
v  2.7352 -2.3846 -3.0801
v  1.9320 25.0876 -1.1410
v  1.9320 -2.3846 -1.1410
v  1.2123 28.6044 -4.2996
v  1.7174 28.6044 -3.0801
v  1.2123 28.6044 -1.8607
v  0.5754 31.2450 -3.6627
v  0.8167 31.2450 -3.0801
v  0.5754 31.2450 -2.4976
v  0.2002 32.8086 -3.2875
v  0.2861 32.8086 -3.0801
v  0.2002 32.8086 -2.8728
v  0.2002 32.9420 -3.0801
v  1.6330 -2.3846 -4.7362
v  2.3121 -2.3846 -3.0967
v  1.6330 -2.3846 -1.4572
v  1.2871 -0.4676 -3.7366
v  1.5279 -0.4676 -3.1553
v  1.2871 -0.4676 -2.5741
v  3.2658 -2.5093 -1.4955
v  1.9415 -2.5093 -2.4787
v  1.9415 1.5546 -2.4787
v  3.2658 -1.1363 -1.4955
v  3.1828 -2.5093 -1.3839
v  3.1828 -1.1363 -1.3839
v  1.7084 1.5546 -2.1653
v  1.7084 -2.5093 -2.1653
v  3.4456 -1.3322 -1.3594
v  3.4456 -2.5093 -1.3594
v  3.3834 -2.5093 -1.2757
v  3.3834 -1.3322 -1.2757
v  3.6164 -1.3322 -1.2324
v  3.6164 -2.5093 -1.2324
v  3.5711 -2.5093 -1.1715
v  3.5711 -1.3322 -1.1715
v  3.7314 -1.0680 -1.1469
v  3.7314 -2.5093 -1.1469
v  3.6861 -2.5093 -1.0860
v  3.6861 -1.0680 -1.0860
v  5.9569 0.5044 -3.4388
v  4.9616 0.5044 -3.9659
v  4.9616 3.2795 -3.9659
v  5.9569 1.4420 -3.4388
v  5.9124 0.5044 -3.3549
v  5.9124 1.4420 -3.3549
v  4.8366 3.2795 -3.7303
v  4.8366 0.5044 -3.7303
v  6.0924 1.3082 -3.3655
v  6.0924 0.5044 -3.3655
v  6.0590 0.5044 -3.3026
v  6.0590 1.3082 -3.3026
v  6.2207 1.3082 -3.2974
v  6.2207 0.5044 -3.2974
v  6.1965 0.5044 -3.2517
v  6.1965 1.3082 -3.2517
v  6.3072 1.4886 -3.2516
v  6.3072 0.5044 -3.2516
v  6.2829 0.5044 -3.2058
v  6.2829 1.4886 -3.2058
v  5.2520 0.5895 -3.7442
v  5.2520 19.3496 -3.7442
v  4.2532 19.3496 -2.7162
v  4.2532 0.5895 -2.7162
v  2.8201 19.3496 -2.6956
v  2.8201 0.5895 -2.6956
v  2.3316 0.5895 -3.9248
v  2.3316 19.3496 -3.9248
v  4.6061 21.7511 -4.0009
v  3.9780 21.7511 -3.3545
v  3.0768 21.7511 -3.3415
v  2.5885 21.7511 -4.0356
v  4.0345 23.5543 -4.2281
v  3.7345 23.5543 -3.9193
v  3.3039 23.5543 -3.9131
v  3.0453 23.5543 -4.2326
v  3.6978 24.6221 -4.3619
v  3.5910 24.6221 -4.2520
v  3.4378 24.6221 -4.2498
v  3.3294 24.6221 -4.3550
v  3.5678 24.7132 -4.3059
v  3.5125 24.7132 -4.4340
v  5.2314 0.5895 -5.1751
v  4.9937 0.5895 -3.8552
v  4.9762 0.5895 -5.0651
v  4.1492 0.5895 -2.9860
v  2.9375 0.5895 -2.9686
v  4.2733 1.8986 -3.8018
v  4.0771 1.8986 -4.6721
v  4.7579 0.9074 -4.9710
v  3.9739 1.8986 -3.4937
v  3.5443 1.8986 -3.4875
v  3.2077 1.8986 -4.2972
v  3.6424 1.8986 -4.4846
v  3.4030 0.5044 -1.9551
v  3.6615 0.5044 -3.0513
v  3.6615 3.2795 -3.0513
v  3.4030 1.4420 -1.9551
v  3.3106 0.5044 -1.9770
v  3.3106 1.4420 -1.9770
v  3.4019 3.2795 -3.1127
v  3.4019 0.5044 -3.1127
v  3.3663 1.3082 -1.8055
v  3.3663 0.5044 -1.8055
v  3.2969 0.5044 -1.8219
v  3.2969 1.3082 -1.8219
v  3.3328 1.3082 -1.6641
v  3.3328 0.5044 -1.6641
v  3.2824 0.5044 -1.6760
v  3.2824 1.3082 -1.6760
v  3.3103 1.4886 -1.5688
v  3.3103 0.5044 -1.5688
v  3.2598 0.5044 -1.5808
v  3.2598 1.4886 -1.5808
v  5.2314 19.3496 -5.1751
v  4.5932 21.7511 -4.8999
v  4.0284 23.5543 -4.6564
v  3.6957 24.6221 -4.5130
v  2.5245 0.5895 -4.0080
v  2.6900 0.9075 -4.0793
v  4.4669 0.5044 -6.8946
v  4.4669 1.4420 -6.8946
v  4.1669 3.2795 -5.8090
v  4.1669 0.5044 -5.8090
v  4.3753 0.5044 -6.9198
v  3.9097 0.5044 -5.8799
v  3.9097 3.2795 -5.8799
v  4.3753 1.4420 -6.9198
v  4.5066 0.5044 -7.0434
v  4.5066 1.3082 -7.0434
v  4.4379 1.3082 -7.0624
v  4.4379 0.5044 -7.0624
v  4.5452 0.5044 -7.1835
v  4.5452 1.3082 -7.1835
v  4.4952 1.3082 -7.1973
v  4.4952 0.5044 -7.1973
v  4.5712 0.5044 -7.2779
v  4.5712 1.4886 -7.2779
v  4.5212 1.4886 -7.2917
v  4.5212 0.5044 -7.2917
v  4.2050 0.5895 -6.1724
v  2.7719 0.5895 -6.1518
v  2.7719 19.3496 -6.1518
v  4.2050 19.3496 -6.1724
v  1.7731 0.5895 -5.1238
v  1.7731 19.3496 -5.1238
v  3.0471 21.7511 -5.5135
v  3.9483 21.7511 -5.5265
v  2.4190 21.7511 -4.8671
v  3.2906 23.5543 -4.9487
v  3.7212 23.5543 -4.9549
v  2.9905 23.5543 -4.6399
v  3.4341 24.6221 -4.6160
v  3.5873 24.6221 -4.6182
v  3.3273 24.6221 -4.5061
v  3.4573 24.7132 -4.5621
v  4.1084 0.5895 -5.9084
v  2.8967 0.5895 -5.8909
v  2.0522 0.5895 -5.0218
v  4.0732 1.8986 -4.6811
v  3.5751 1.8986 -5.4212
v  3.1455 1.8986 -5.4150
v  2.8461 1.8986 -5.1069
v  3.2038 1.8986 -4.3062
v  3.6385 1.8986 -4.4937
v  1.6348 0.5044 -6.0560
v  1.6348 1.4420 -6.0560
v  2.6094 3.2795 -5.4915
v  2.6094 0.5044 -5.4915
v  1.5872 0.5044 -5.9738
v  2.4758 0.5044 -5.2606
v  2.4758 3.2795 -5.2606
v  1.5872 1.4420 -5.9738
v  1.5008 0.5044 -6.1320
v  1.5008 1.3082 -6.1320
v  1.4651 1.3082 -6.0703
v  1.4651 0.5044 -6.0703
v  1.3750 0.5044 -6.2048
v  1.3750 1.3082 -6.2048
v  1.3491 1.3082 -6.1599
v  1.3491 0.5044 -6.1599
v  1.2903 0.5044 -6.2538
v  1.2903 1.4886 -6.2538
v  1.2643 1.4886 -6.2089
v  1.2643 0.5044 -6.2089
v  2.2511 0.2065 -4.5135
v  3.2233 1.9496 -4.5135
v  3.3724 1.9496 -4.8734
v  2.6849 0.2065 -5.5609
v  3.7324 1.9496 -5.0225
v  3.7324 0.2065 -5.9948
v  4.0923 1.9496 -4.8734
v  4.7798 0.2065 -5.5609
v  4.2414 1.9496 -4.5135
v  5.2137 0.2065 -4.5135
v  4.0923 1.9496 -4.1535
v  4.7798 0.2065 -3.4660
v  3.7324 1.9496 -4.0044
v  3.7324 0.2065 -3.0321
v  3.3724 1.9496 -4.1535
v  2.6849 0.2065 -3.4660
v  2.8099 0.2065 -5.4359
v  2.4278 0.2065 -4.5135
v  3.7324 0.2065 -5.8181
v  4.6549 0.2065 -5.4359
v  5.0370 0.2065 -4.5135
v  4.6549 0.2065 -3.5910
v  3.7324 0.2065 -3.2089
v  2.8099 0.2065 -3.5910
v  3.4472 1.8128 -4.7986
v  3.3291 1.8128 -4.5135
v  3.7324 1.8128 -4.9167
v  4.0175 1.8128 -4.7986
v  4.1357 1.8128 -4.5135
v  4.0175 1.8128 -4.2283
v  3.7324 1.8128 -4.1102
v  3.4472 1.8128 -4.2283
v  0.9603 0.0357 0.7997
v  0.3246 1.6474 1.4354
v  0.4625 1.6474 1.7682
v  1.3614 0.0357 1.7682
v  0.3246 1.6474 2.1010
v  0.9603 0.0357 2.7367
v  0.8447 0.0357 0.9153
v  1.1980 0.0357 1.7682
v  0.8447 0.0357 2.6211
v  0.2554 1.5209 1.5045
v  0.3647 1.5209 1.7682
v  0.2554 1.5209 2.0319
# 824 vertices

vn -0.7672 0.0000 -0.6414
vn -0.9928 -0.0000 0.1197
vn -0.3460 -0.0000 0.9382
vn -0.7412 0.2295 -0.6309
vn -0.9475 0.2737 0.1651
vn -0.3856 0.2565 0.8863
vn -0.7486 0.1919 -0.6346
vn -0.9459 0.2354 0.2233
vn -0.4406 0.3678 0.8189
vn -0.6865 0.4057 -0.6034
vn -0.8416 0.4738 0.2593
vn -0.3274 0.3761 0.8668
vn -0.1090 0.9214 0.3729
vn -0.9819 0.0000 -0.1896
vn -0.8884 -0.0000 0.4590
vn -0.9345 0.2666 -0.2360
vn -0.8129 0.3181 0.4879
vn -0.9280 0.2219 -0.2993
vn -0.7477 0.3356 0.5729
vn -0.8550 0.4526 -0.2532
vn -0.6048 0.4234 0.6745
vn -0.5954 0.7547 -0.2756
vn -0.5572 0.7856 0.2691
vn -0.1065 0.0176 -0.9942
vn -0.7539 0.2156 -0.6206
vn -0.9103 0.3374 0.2399
vn -0.9118 0.2853 -0.2955
vn -0.6870 0.3815 0.6185
vn -0.1354 0.0426 -0.9899
vn -0.7613 0.2010 -0.6164
vn -0.8984 0.3420 0.2756
vn -0.9176 0.2650 -0.2963
vn -0.6221 0.4030 0.6713
vn -0.3396 0.0000 0.9406
vn -0.3478 0.1941 0.9172
vn -0.3579 0.3020 0.8836
vn 0.8701 -0.0986 0.4830
vn 0.1883 0.9284 -0.3204
vn -0.0733 -0.4835 -0.8723
vn -0.9081 -0.1921 -0.3721
vn -0.1142 -0.9553 0.2728
vn -0.0928 -0.9691 0.2287
vn 0.3645 0.0000 -0.9312
vn -0.5008 -0.0000 0.8656
vn 0.0000 -1.0000 -0.0000
vn -0.7941 0.5226 -0.3102
vn 0.3562 0.0000 -0.9344
vn -0.4942 -0.0000 0.8693
vn -0.6109 0.7549 -0.2386
vn 0.3639 0.0000 -0.9315
vn -0.4842 -0.0000 0.8749
vn 0.0000 1.0000 -0.0000
vn -0.3639 -0.0000 0.9315
vn 0.8187 0.4769 0.3198
vn -0.9315 0.0000 -0.3639
vn 0.8213 0.4581 -0.3402
vn 0.3402 0.4581 -0.8213
vn -0.3402 0.4581 -0.8213
vn -0.8213 0.4581 -0.3402
vn -0.8213 0.4581 0.3402
vn -0.3402 0.4581 0.8213
vn 0.3402 0.4581 0.8213
vn 0.8213 0.4581 0.3402
vn -0.8202 -0.4602 0.3397
vn -0.3397 -0.4602 0.8202
vn 0.3397 -0.4602 0.8202
vn 0.8202 -0.4602 0.3397
vn 0.8202 -0.4602 -0.3397
vn 0.3397 -0.4602 -0.8202
vn -0.3397 -0.4602 -0.8202
vn -0.8202 -0.4602 -0.3397
vn -0.0588 -0.4519 -0.8902
vn -0.6200 -0.5919 -0.5151
vn -0.8143 -0.5718 0.1002
vn -0.3087 -0.4515 0.8371
vn -0.7886 -0.5950 -0.1555
vn -0.7446 -0.5468 0.3828
vn 0.0000 -1.0000 0.0005
vn -0.0048 -1.0000 0.0015
vn -0.0014 -1.0000 0.0036
vn 0.0002 -1.0000 -0.0007
vn 0.0040 -1.0000 -0.0047
vn -0.0033 -1.0000 -0.0017
vn 0.0624 0.0000 0.9980
vn 0.7672 0.0000 0.6414
vn 0.9928 0.0000 -0.1197
vn 0.3460 0.0000 -0.9382
vn 0.9819 0.0000 0.1896
vn 0.8884 0.0000 -0.4590
vn -0.0019 -1.0000 0.0031
vn -0.0005 -1.0000 0.0035
vn 0.0002 -1.0000 -0.0005
vn 0.0014 -1.0000 -0.0047
vn -0.0013 -1.0000 -0.0026
vn 0.0000 -1.0000 0.0000
vn -0.0011 -1.0000 -0.0006
vn -0.8568 0.3740 -0.3549
vn -0.8568 0.3740 0.3549
vn -0.3527 0.3740 0.8577
vn -0.0000 -1.0000 -0.0000
vn -0.0000 -1.0000 0.0000
vn 0.3530 -0.3700 0.8594
vn 0.8583 -0.3700 0.3555
vn 0.8583 -0.3700 -0.3555
vn 0.6262 0.0000 -0.7796
vn -0.7366 -0.0000 0.6763
vn -0.6651 0.5226 -0.5334
vn 0.6192 0.0000 -0.7852
vn -0.7315 -0.0000 0.6818
vn -0.5116 0.7549 -0.4103
vn 0.6257 0.0000 -0.7801
vn -0.7236 0.0000 0.6902
vn -0.6257 -0.0000 0.7801
vn 0.6857 0.4769 0.5499
vn -0.7801 -0.0000 -0.6257
vn -0.9239 0.0000 -0.3827
vn -0.9239 0.0000 0.3827
vn 0.0288 0.0000 0.9996
vn -0.8925 0.2583 -0.3697
vn -0.8925 0.2583 0.3697
vn -0.0617 0.1645 0.9844
vn -0.8812 0.3006 -0.3650
vn -0.8812 0.3006 0.3650
vn -0.2167 0.2688 0.9385
vn -0.8816 0.2991 -0.3652
vn -0.8816 0.2991 0.3652
vn -0.2859 0.2774 0.9172
vn -0.0955 0.8773 0.4704
vn -0.7940 0.5112 0.3289
vn -0.7940 0.5112 -0.3289
vn 0.2523 -0.5350 0.8063
vn 0.8675 -0.3439 0.3593
vn 0.8608 -0.3631 -0.3566
vn -0.5961 0.0000 -0.8029
vn 0.4683 -0.0000 0.8836
vn -0.6842 0.5226 0.5088
vn -0.6033 0.0000 -0.7975
vn 0.4749 -0.0000 0.8800
vn -0.5263 0.7549 0.3914
vn -0.5967 0.0000 -0.8024
vn 0.4850 0.0000 0.8745
vn 0.5967 0.0000 0.8024
vn 0.7053 0.4769 -0.5245
vn -0.8024 -0.0000 0.5967
vn -0.4680 0.0000 -0.8837
vn 0.3294 -0.0000 0.9442
vn -0.7532 0.5226 0.3995
vn -0.4759 0.0000 -0.8795
vn 0.3365 -0.0000 0.9417
vn -0.5794 0.7549 0.3073
vn -0.4686 0.0000 -0.8834
vn 0.3473 0.0000 0.9378
vn 0.4686 0.0000 0.8834
vn 0.7765 0.4769 -0.4119
vn -0.8834 0.0000 0.4686
vn -0.7172 0.0000 0.6969
vn -0.0144 0.0000 0.9999
vn 0.9293 0.0000 0.3693
vn -0.6929 0.2583 0.6732
vn -0.0139 0.2583 0.9660
vn 0.8795 0.1644 0.4467
vn -0.6840 0.3006 0.6646
vn -0.0137 0.3006 0.9537
vn 0.7754 0.2688 0.5714
vn -0.6844 0.2991 0.6649
vn -0.0137 0.2991 0.9541
vn 0.7270 0.2773 0.6281
vn 0.3923 0.8778 0.2749
vn -0.0124 0.5112 0.8594
vn -0.6164 0.5112 0.5989
vn 0.8226 -0.5685 0.0118
vn 0.8563 -0.4791 0.1930
vn 0.6735 -0.3439 -0.6544
vn 0.0134 -0.3631 -0.9317
vn -0.9733 0.0000 0.2295
vn 0.9968 -0.0000 -0.0802
vn 0.1963 0.5226 0.8297
vn -0.9712 -0.0000 0.2382
vn 0.9962 -0.0000 -0.0877
vn 0.1510 0.7549 0.6382
vn -0.9731 -0.0000 0.2302
vn 0.9951 0.0000 -0.0991
vn -0.9731 0.0000 0.2302
vn 0.9731 0.0000 -0.2303
vn -0.2024 0.4769 -0.8554
vn 0.2302 -0.0000 0.9731
vn -0.9999 0.0000 -0.0144
vn -0.9660 0.2583 -0.0139
vn -0.9537 0.3006 -0.0137
vn -0.9541 0.2991 -0.0137
vn -0.4692 0.8778 -0.0965
vn -0.8035 -0.4975 -0.3268
vn -0.8085 -0.4930 -0.3213
vn -0.9639 0.0000 0.2664
vn 0.9127 -0.0000 -0.4086
vn -0.2265 0.5226 -0.8219
vn -0.9662 0.0000 0.2577
vn 0.9157 -0.0000 -0.4018
vn -0.1742 0.7549 -0.6323
vn -0.9641 0.0000 0.2657
vn 0.9203 0.0000 -0.3912
vn 0.9641 0.0000 -0.2657
vn 0.2335 0.4769 0.8474
vn -0.2657 0.0000 -0.9641
vn 0.0144 0.0000 -0.9999
vn 0.7172 0.0000 -0.6969
vn 0.9065 0.0000 0.4222
vn 0.0139 0.2583 -0.9660
vn 0.6929 0.2583 -0.6732
vn 0.9285 0.1644 0.3329
vn 0.0137 0.3006 -0.9537
vn 0.6840 0.3006 -0.6646
vn 0.9478 0.2688 0.1716
vn 0.0137 0.2991 -0.9541
vn 0.6844 0.2991 -0.6649
vn 0.9558 0.2773 0.0975
vn 0.4692 0.8778 0.0965
vn 0.6164 0.5112 -0.5989
vn 0.0124 0.5112 -0.8594
vn 0.6398 -0.5347 0.5520
vn 0.5739 -0.5687 0.5892
vn -0.0135 -0.3439 0.9389
vn -0.6683 -0.3631 0.6493
vn -0.5012 0.0000 -0.8653
vn 0.6260 -0.0000 0.7799
vn 0.7381 0.5226 -0.4268
vn -0.4935 0.0000 -0.8698
vn 0.6201 -0.0000 0.7845
vn 0.5677 0.7549 -0.3283
vn -0.5006 0.0000 -0.8657
vn 0.6110 0.0000 0.7916
vn 0.5006 0.0000 0.8657
vn -0.7609 0.4769 0.4400
vn 0.8657 -0.0000 -0.5006
vn -0.6969 0.0000 -0.7172
vn -0.6732 0.2583 -0.6929
vn -0.6646 0.3006 -0.6840
vn -0.6649 0.2991 -0.6844
vn -0.3923 0.8778 -0.2749
vn -0.7893 -0.4975 -0.3600
vn -0.7887 -0.4930 -0.3674
vn -0.3401 0.4581 0.8213
vn -0.0659 0.0000 -0.9978
vn -0.0756 0.0108 -0.9971
vn -0.0903 0.0076 -0.9959
vn -0.1962 0.2309 -0.9530
vn -0.1370 0.9073 -0.3976
vn 0.0748 0.4865 0.8705
vn -0.3292 0.4827 0.8116
vn 0.0343 0.4038 0.9142
vn -0.4110 0.4201 0.8090
vn -0.1232 0.9448 0.3035
vn -0.3607 0.4284 0.8285
vn -0.3639 0.4243 0.8292
vn -0.3040 -0.4515 0.8389
vn 0.0001 -1.0000 -0.0005
vn 0.2045 -0.0000 -0.9789
vn 0.0000 -1.0000 -0.0005
vn -0.3527 0.3740 -0.8577
vn 0.3530 -0.3700 -0.8594
vn -0.3820 0.0000 -0.9242
vn -0.3689 0.2583 -0.8929
vn -0.3636 0.3006 -0.8818
vn -0.3619 0.2991 -0.8829
vn -0.0955 0.8773 -0.4704
vn -0.0189 -0.4969 -0.8676
vn -0.3401 0.4581 -0.8213
vn 0.7672 0.0000 -0.6414
vn 0.9928 -0.0000 0.1197
vn 0.3460 -0.0000 0.9382
vn 0.7412 0.2295 -0.6309
vn 0.9475 0.2737 0.1651
vn 0.3856 0.2565 0.8863
vn 0.7486 0.1919 -0.6346
vn 0.9459 0.2354 0.2233
vn 0.4406 0.3678 0.8189
vn 0.6865 0.4057 -0.6034
vn 0.8416 0.4738 0.2593
vn 0.3274 0.3761 0.8668
vn 0.1090 0.9214 0.3729
vn 0.9819 0.0000 -0.1896
vn 0.8884 -0.0000 0.4590
vn 0.9345 0.2666 -0.2360
vn 0.8129 0.3181 0.4879
vn 0.9280 0.2219 -0.2993
vn 0.7477 0.3356 0.5729
vn 0.8550 0.4526 -0.2532
vn 0.6048 0.4234 0.6745
vn 0.5954 0.7547 -0.2756
vn 0.5572 0.7856 0.2691
vn 0.1065 0.0176 -0.9942
vn 0.7539 0.2156 -0.6206
vn 0.9103 0.3374 0.2399
vn 0.9118 0.2853 -0.2955
vn 0.6870 0.3815 0.6185
vn 0.1354 0.0426 -0.9899
vn 0.7613 0.2010 -0.6164
vn 0.8984 0.3420 0.2756
vn 0.9176 0.2650 -0.2963
vn 0.6221 0.4030 0.6713
vn 0.3396 0.0000 0.9406
vn 0.3478 0.1941 0.9172
vn 0.3579 0.3020 0.8836
vn -0.8701 -0.0986 0.4830
vn -0.1883 0.9284 -0.3204
vn 0.0733 -0.4835 -0.8723
vn 0.9081 -0.1921 -0.3721
vn 0.0928 -0.9691 0.2288
vn 0.1474 -0.9284 0.3411
vn -0.3645 0.0000 -0.9312
vn 0.5008 -0.0000 0.8656
vn 0.7941 0.5226 -0.3102
vn -0.3562 0.0000 -0.9344
vn 0.4942 -0.0000 0.8693
vn 0.6109 0.7549 -0.2386
vn -0.3639 0.0000 -0.9315
vn 0.4842 -0.0000 0.8749
vn 0.3639 -0.0000 0.9315
vn -0.8187 0.4769 0.3198
vn 0.9315 0.0000 -0.3639
vn 0.0588 -0.4519 -0.8902
vn 0.6200 -0.5919 -0.5151
vn 0.8143 -0.5718 0.1002
vn 0.3087 -0.4515 0.8371
vn 0.7886 -0.5950 -0.1555
vn 0.7446 -0.5468 0.3828
vn -0.0000 -1.0000 0.0005
vn 0.0048 -1.0000 0.0015
vn 0.0014 -1.0000 0.0036
vn -0.0002 -1.0000 -0.0007
vn -0.0040 -1.0000 -0.0047
vn 0.0033 -1.0000 -0.0017
vn -0.0624 0.0000 0.9980
vn -0.7672 0.0000 0.6414
vn -0.9928 0.0000 -0.1197
vn -0.3460 0.0000 -0.9382
vn -0.9819 0.0000 0.1896
vn -0.8884 0.0000 -0.4590
vn 0.0019 -1.0000 0.0031
vn 0.0005 -1.0000 0.0035
vn -0.0002 -1.0000 -0.0005
vn -0.0014 -1.0000 -0.0047
vn 0.0013 -1.0000 -0.0026
vn 0.0011 -1.0000 -0.0006
vn 0.8568 0.3740 -0.3549
vn 0.8568 0.3740 0.3549
vn 0.3527 0.3740 0.8577
vn -0.3530 -0.3700 0.8594
vn -0.8583 -0.3700 0.3555
vn -0.8583 -0.3700 -0.3555
vn -0.6262 0.0000 -0.7796
vn 0.7366 -0.0000 0.6763
vn 0.6651 0.5226 -0.5334
vn -0.6192 0.0000 -0.7852
vn 0.7315 -0.0000 0.6818
vn 0.5116 0.7549 -0.4103
vn -0.6257 0.0000 -0.7801
vn 0.7236 0.0000 0.6902
vn 0.6257 -0.0000 0.7801
vn -0.6857 0.4769 0.5499
vn 0.7801 -0.0000 -0.6257
vn 0.9239 0.0000 -0.3827
vn 0.9239 0.0000 0.3827
vn -0.0288 0.0000 0.9996
vn 0.8925 0.2583 -0.3697
vn 0.8925 0.2583 0.3697
vn 0.0617 0.1645 0.9844
vn 0.8812 0.3006 -0.3650
vn 0.8812 0.3006 0.3650
vn 0.2167 0.2688 0.9385
vn 0.8816 0.2991 -0.3652
vn 0.8816 0.2991 0.3652
vn 0.2859 0.2774 0.9172
vn 0.0955 0.8773 0.4704
vn 0.7940 0.5112 0.3289
vn 0.7940 0.5112 -0.3289
vn -0.2523 -0.5350 0.8063
vn -0.8675 -0.3439 0.3593
vn -0.8608 -0.3631 -0.3566
vn 0.5961 0.0000 -0.8029
vn -0.4683 -0.0000 0.8836
vn 0.6842 0.5226 0.5088
vn 0.6033 0.0000 -0.7975
vn -0.4749 -0.0000 0.8800
vn 0.5263 0.7549 0.3914
vn 0.5967 0.0000 -0.8024
vn -0.4850 0.0000 0.8745
vn -0.5967 0.0000 0.8024
vn -0.7053 0.4769 -0.5245
vn 0.8024 -0.0000 0.5967
vn 0.4680 0.0000 -0.8837
vn -0.3294 -0.0000 0.9442
vn 0.7532 0.5226 0.3995
vn 0.4759 0.0000 -0.8795
vn -0.3365 -0.0000 0.9417
vn 0.5794 0.7549 0.3073
vn 0.4686 0.0000 -0.8834
vn -0.3473 0.0000 0.9378
vn -0.4686 0.0000 0.8834
vn -0.7765 0.4769 -0.4119
vn 0.8834 0.0000 0.4686
vn 0.7172 0.0000 0.6969
vn 0.0144 0.0000 0.9999
vn -0.9293 0.0000 0.3693
vn 0.6929 0.2583 0.6732
vn 0.0139 0.2583 0.9660
vn -0.8795 0.1644 0.4467
vn 0.6840 0.3006 0.6646
vn 0.0137 0.3006 0.9537
vn -0.7754 0.2688 0.5714
vn 0.6844 0.2991 0.6649
vn 0.0137 0.2991 0.9541
vn -0.7270 0.2773 0.6281
vn -0.3923 0.8778 0.2749
vn 0.0124 0.5112 0.8594
vn 0.6164 0.5112 0.5989
vn -0.8406 -0.5347 0.0863
vn -0.8225 -0.5686 0.0124
vn -0.6735 -0.3439 -0.6544
vn -0.0134 -0.3631 -0.9317
vn 0.9733 0.0000 0.2295
vn -0.9968 -0.0000 -0.0802
vn -0.1963 0.5226 0.8297
vn 0.9712 -0.0000 0.2382
vn -0.9962 -0.0000 -0.0877
vn -0.1510 0.7549 0.6382
vn 0.9731 -0.0000 0.2302
vn -0.9951 0.0000 -0.0991
vn 0.9731 0.0000 0.2302
vn -0.9731 0.0000 -0.2303
vn 0.2024 0.4769 -0.8554
vn -0.2302 -0.0000 0.9731
vn 0.9999 0.0000 -0.0144
vn 0.9660 0.2583 -0.0139
vn 0.9537 0.3006 -0.0137
vn 0.9541 0.2991 -0.0137
vn 0.4692 0.8778 -0.0965
vn 0.8035 -0.4975 -0.3268
vn 0.8085 -0.4930 -0.3213
vn 0.9639 0.0000 0.2664
vn -0.9127 -0.0000 -0.4086
vn 0.2265 0.5226 -0.8219
vn 0.9662 0.0000 0.2577
vn -0.9157 -0.0000 -0.4018
vn 0.1742 0.7549 -0.6323
vn 0.9641 0.0000 0.2657
vn -0.9203 0.0000 -0.3912
vn -0.9641 0.0000 -0.2657
vn -0.2335 0.4769 0.8474
vn 0.2657 0.0000 -0.9641
vn -0.0144 0.0000 -0.9999
vn -0.7172 0.0000 -0.6969
vn -0.9065 0.0000 0.4222
vn -0.0139 0.2583 -0.9660
vn -0.6929 0.2583 -0.6732
vn -0.9285 0.1644 0.3329
vn -0.0137 0.3006 -0.9537
vn -0.6840 0.3006 -0.6646
vn -0.9478 0.2688 0.1716
vn -0.0137 0.2991 -0.9541
vn -0.6844 0.2991 -0.6649
vn -0.9558 0.2773 0.0975
vn -0.4692 0.8778 0.0965
vn -0.6164 0.5112 -0.5989
vn -0.0124 0.5112 -0.8594
vn -0.5733 -0.5685 0.5900
vn -0.7282 -0.4791 0.4901
vn 0.0135 -0.3439 0.9389
vn 0.6683 -0.3631 0.6493
vn 0.5012 0.0000 -0.8653
vn -0.6260 -0.0000 0.7799
vn -0.7381 0.5226 -0.4268
vn 0.4935 0.0000 -0.8698
vn -0.6201 -0.0000 0.7845
vn -0.5677 0.7549 -0.3283
vn 0.5006 0.0000 -0.8657
vn -0.6110 0.0000 0.7916
vn -0.5006 0.0000 0.8657
vn 0.7609 0.4769 0.4400
vn -0.8657 -0.0000 -0.5006
vn 0.6969 0.0000 -0.7172
vn 0.6732 0.2583 -0.6929
vn 0.6646 0.3006 -0.6840
vn 0.6649 0.2991 -0.6844
vn 0.3923 0.8778 -0.2749
vn 0.7893 -0.4975 -0.3600
vn 0.7887 -0.4930 -0.3674
vn 0.3401 0.4581 0.8213
vn 0.0659 0.0000 -0.9978
vn 0.0756 0.0108 -0.9971
vn 0.0903 0.0076 -0.9959
vn 0.1962 0.2309 -0.9530
vn 0.1370 0.9073 -0.3976
vn 0.3292 0.4827 0.8116
vn -0.0748 0.4865 0.8705
vn -0.0343 0.4038 0.9142
vn 0.4110 0.4201 0.8090
vn 0.1232 0.9448 0.3035
vn 0.3640 0.4243 0.8291
vn 0.3577 0.4322 0.8278
vn 0.3040 -0.4515 0.8389
vn -0.0001 -1.0000 -0.0005
vn -0.2045 -0.0000 -0.9789
vn -0.0000 -1.0000 -0.0005
vn 0.3527 0.3740 -0.8577
vn -0.3530 -0.3700 -0.8594
vn 0.3820 0.0000 -0.9242
vn 0.3689 0.2583 -0.8929
vn 0.3636 0.3006 -0.8818
vn 0.3619 0.2991 -0.8829
vn 0.0955 0.8773 -0.4704
vn 0.0189 -0.4969 -0.8676
vn 0.3401 0.4581 -0.8213
# 513 vertex normals

vt 0.7009 0.4297 0.0000
vt 0.7945 0.6777 0.0000
vt 0.7777 0.6828 0.0000
vt 0.6865 0.4368 0.0000
vt 0.3155 0.8035 0.0000
vt 0.4016 0.5566 0.0000
vt 0.4229 0.5618 0.0000
vt 0.3351 0.8128 0.0000
vt 0.2492 0.7808 0.0000
vt 0.3339 0.5329 0.0000
vt 0.3786 0.5500 0.0000
vt 0.2943 0.7945 0.0000
vt 0.7994 0.7209 0.0000
vt 0.7815 0.7259 0.0000
vt 0.4086 0.5129 0.0000
vt 0.4290 0.5156 0.0000
vt 0.3515 0.4943 0.0000
vt 0.3889 0.5082 0.0000
vt 0.8005 0.7268 0.0000
vt 0.7823 0.7318 0.0000
vt 0.4101 0.5069 0.0000
vt 0.4299 0.5093 0.0000
vt 0.3545 0.4888 0.0000
vt 0.3915 0.5021 0.0000
vt 0.7886 0.7827 0.0000
vt 0.8027 0.7790 0.0000
vt 0.8025 0.8068 0.0000
vt 0.7916 0.8137 0.0000
vt 0.4262 0.4530 0.0000
vt 0.4314 0.4239 0.0000
vt 0.4394 0.4236 0.0000
vt 0.4386 0.4551 0.0000
vt 0.3918 0.4347 0.0000
vt 0.4142 0.4091 0.0000
vt 0.4218 0.4157 0.0000
vt 0.4141 0.4480 0.0000
vt 0.4321 0.3980 0.0000
vt 0.4370 0.4073 0.0000
vt 0.7127 0.4224 0.0000
vt 0.8078 0.6734 0.0000
vt 0.8141 0.7188 0.0000
vt 0.8149 0.7249 0.0000
vt 0.8146 0.7776 0.0000
vt 0.8108 0.8077 0.0000
vt 0.8043 0.8224 0.0000
vt 0.7867 0.7689 0.0000
vt 0.7624 0.7792 0.0000
vt 0.7484 0.7448 0.0000
vt 0.8027 0.7637 0.0000
vt 0.4211 0.4688 0.0000
vt 0.4358 0.4708 0.0000
vt 0.8155 0.7620 0.0000
vt 0.4067 0.4626 0.0000
vt 0.7685 0.7924 0.0000
vt 0.2451 0.7796 0.0000
vt 0.3302 0.5315 0.0000
vt 0.3487 0.4932 0.0000
vt 0.3517 0.4875 0.0000
vt 0.3912 0.5014 0.0000
vt 0.4058 0.4628 0.0000
vt 0.3553 0.4886 0.0000
vt 0.3829 0.4486 0.0000
vt 0.3831 0.4497 0.0000
vt 0.3822 0.4510 0.0000
vt 0.1068 0.7760 -0.1482
vt 0.1072 0.8430 -0.1482
vt 0.0267 0.9758 -0.1482
vt 0.0254 0.7764 0.1482
vt 0.8699 0.3541 -0.1506
vt 0.9508 0.3522 0.1506
vt 0.9555 0.5493 -0.1506
vt 0.8715 0.4207 -0.1506
vt 0.0254 0.7571 -0.1482
vt 0.1069 0.7691 -0.1482
vt 0.1123 0.8470 -0.1482
vt 0.0430 0.9857 -0.1482
vt 0.1180 0.7765 -0.1482
vt 0.1181 0.8330 -0.1482
vt 0.8602 0.4115 -0.1506
vt 0.8588 0.3544 -0.1506
vt 0.1184 0.7711 -0.1482
vt 0.1200 0.8369 -0.1482
vt 0.1283 0.7773 -0.1482
vt 0.1280 0.8322 -0.1482
vt 0.8498 0.4117 -0.1506
vt 0.8484 0.3546 0.1506
vt 0.1295 0.7737 0.1482
vt 0.1270 0.8349 -0.1482
vt 0.1341 0.7783 -0.1482
vt 0.1345 0.8424 -0.1482
vt 0.8431 0.4247 -0.1506
vt 0.8415 0.3548 -0.1506
vt 0.1362 0.7769 -0.1482
vt 0.1351 0.8431 -0.1482
vt 0.8267 0.0267 0.0000
vt 0.8293 0.0490 0.0000
vt 0.7950 0.0573 0.0000
vt 0.7919 0.0498 0.0000
vt 0.8284 0.0657 0.0000
vt 0.7976 0.0673 0.0000
vt 0.8277 0.0795 0.0000
vt 0.7991 0.0785 0.0000
vt 0.8275 0.0923 0.0000
vt 0.7997 0.0902 0.0000
vt 0.8277 0.1050 0.0000
vt 0.7995 0.1020 0.0000
vt 0.8285 0.1189 0.0000
vt 0.7984 0.1137 0.0000
vt 0.8293 0.1356 0.0000
vt 0.7960 0.1251 0.0000
vt 0.8267 0.1579 0.0000
vt 0.7918 0.1347 0.0000
vt 0.8351 0.0307 0.0000
vt 0.8309 0.0494 0.0000
vt 0.8298 0.0656 0.0000
vt 0.8294 0.0795 0.0000
vt 0.8293 0.0923 0.0000
vt 0.8294 0.1051 0.0000
vt 0.8298 0.1190 0.0000
vt 0.8309 0.1352 0.0000
vt 0.8352 0.1538 0.0000
vt 0.8659 0.0556 0.0000
vt 0.8621 0.0635 0.0000
vt 0.8596 0.0732 0.0000
vt 0.8583 0.0837 0.0000
vt 0.8580 0.0942 0.0000
vt 0.8587 0.1047 0.0000
vt 0.8604 0.1146 0.0000
vt 0.8628 0.1230 0.0000
vt 0.8660 0.1289 0.0000
vt 0.6407 0.4524 0.0000
vt 0.6393 0.4451 0.0000
vt 0.6835 0.4327 0.0000
vt 0.6968 0.4244 0.0000
vt 0.3294 0.8201 0.0000
vt 0.3116 0.8087 0.0000
vt 0.2919 0.7987 0.0000
vt 0.2484 0.7884 0.0000
vt 0.7068 0.4146 0.0000
vt 0.6390 0.4413 0.0000
vt 0.6838 0.4315 0.0000
vt 0.6964 0.4224 0.0000
vt 0.3264 0.8223 0.0000
vt 0.3109 0.8094 0.0000
vt 0.2928 0.7992 0.0000
vt 0.2514 0.7919 0.0000
vt 0.7044 0.4116 0.0000
vt 0.6382 0.4351 0.0000
vt 0.6824 0.4284 0.0000
vt 0.6929 0.4190 0.0000
vt 0.3211 0.8278 0.0000
vt 0.3080 0.8132 0.0000
vt 0.2918 0.8023 0.0000
vt 0.2508 0.7981 0.0000
vt 0.6978 0.4079 0.0000
vt 0.6368 0.4094 0.0000
vt 0.6467 0.4069 0.0000
vt 0.6577 0.4021 0.0000
vt 0.2870 0.8370 0.0000
vt 0.2842 0.8296 0.0000
vt 0.2756 0.8246 0.0000
vt 0.2633 0.8228 0.0000
vt 0.6647 0.3979 0.0000
vt 0.2814 0.8441 0.0000
vt 0.2715 0.8524 0.0000
vt 0.3172 0.9569 0.0000
vt 0.3169 0.9303 0.0000
vt 0.3819 0.9318 0.0000
vt 0.3823 0.9452 0.0000
vt 0.3171 0.9039 0.0000
vt 0.3817 0.9176 0.0000
vt 0.3211 0.8743 0.0000
vt 0.3849 0.9049 0.0000
vt 0.3211 0.9866 0.0000
vt 0.3106 0.9849 0.0000
vt 0.3144 0.9567 0.0000
vt 0.3148 0.9304 0.0000
vt 0.3143 0.9040 0.0000
vt 0.2448 0.9531 0.0000
vt 0.2475 0.9418 0.0000
vt 0.2472 0.9291 0.0000
vt 0.2469 0.9171 0.0000
vt 0.8839 0.6157 -0.1272
vt 0.8843 0.6418 -0.1272
vt 0.8533 0.6939 -0.1272
vt 0.8521 0.6161 0.1272
vt 0.8566 0.8266 -0.1334
vt 0.8882 0.8272 0.1334
vt 0.8867 0.9041 -0.1334
vt 0.8561 0.8526 -0.1334
vt 0.8520 0.6085 -0.1272
vt 0.8840 0.6129 -0.1272
vt 0.8863 0.6433 -0.1272
vt 0.8597 0.6977 -0.1272
vt 0.8883 0.6158 -0.1272
vt 0.8885 0.6378 -0.1272
vt 0.8519 0.8488 -0.1334
vt 0.8523 0.8265 0.1334
vt 0.8885 0.6138 0.1272
vt 0.8893 0.6393 -0.1272
vt 0.8922 0.6161 -0.1272
vt 0.8923 0.6375 -0.1272
vt 0.8478 0.8487 -0.1334
vt 0.8482 0.8264 -0.1334
vt 0.8925 0.6148 -0.1272
vt 0.8920 0.6385 -0.1272
vt 0.8944 0.6165 -0.1272
vt 0.8949 0.6414 -0.1272
vt 0.8450 0.8537 -0.1334
vt 0.8455 0.8264 -0.1334
vt 0.8952 0.6159 -0.1272
vt 0.8952 0.6416 -0.1272
vt 0.0691 0.0398 0.0000
vt 0.0787 0.0020 0.0000
vt 0.5772 0.1514 0.0000
vt 0.5641 0.1888 0.0000
vt 0.3165 0.3804 0.0000
vt 0.3153 0.3419 0.0000
vt 0.8286 0.2927 0.0000
vt 0.8350 0.3318 0.0000
vt 0.3092 0.3071 0.0000
vt 0.8279 0.2561 0.0000
vt 0.6400 0.1847 0.0000
vt 0.6300 0.2086 0.0000
vt 0.8973 0.2832 0.0000
vt 0.9035 0.3088 0.0000
vt 0.8980 0.2585 0.0000
vt 0.6878 0.2130 0.0000
vt 0.6826 0.2245 0.0000
vt 0.9531 0.2760 0.0000
vt 0.9563 0.2886 0.0000
vt 0.9534 0.2635 0.0000
vt 0.7160 0.2302 0.0000
vt 0.7139 0.2341 0.0000
vt 0.9874 0.2714 0.0000
vt 0.9890 0.2759 0.0000
vt 0.9876 0.2668 0.0000
vt 0.9939 0.2698 0.0000
vt 0.9920 0.2738 0.0000
vt 0.7185 0.2325 0.0000
vt 0.0562 0.0767 0.0000
vt 0.0491 0.0702 0.0000
vt 0.0634 0.0383 0.0000
vt 0.0691 0.0040 0.0000
vt 0.3066 0.3765 0.0000
vt 0.3106 0.3409 0.0000
vt 0.0118 0.0393 0.0000
vt 0.0267 0.0181 0.0000
vt 0.0258 0.0061 0.0000
vt 0.2647 0.3641 0.0000
vt 0.2689 0.3522 0.0000
vt 0.0021 0.0283 0.0000
vt 0.9565 0.6651 -0.1248
vt 0.9593 0.6910 -0.1248
vt 0.9338 0.7450 -0.1248
vt 0.9254 0.6685 0.1248
vt 0.7840 0.9077 -0.3296
vt 0.8160 0.9085 -0.3296
vt 0.8141 0.9865 0.3296
vt 0.7833 0.9338 -0.3296
vt 0.7836 0.9051 -0.3296
vt 0.8151 0.9011 -0.3296
vt 0.8073 0.9897 -0.3296
vt 0.7811 0.9352 -0.3296
vt 0.9607 0.6647 -0.1248
vt 0.9631 0.6868 -0.1248
vt 0.7791 0.9298 -0.3296
vt 0.7797 0.9078 -0.3296
vt 0.7794 0.9058 -0.3296
vt 0.7781 0.9312 -0.3296
vt 0.9647 0.6642 0.1248
vt 0.9671 0.6864 -0.1248
vt 0.7752 0.9294 -0.3296
vt 0.7757 0.9079 -0.3296
vt 0.7753 0.9065 0.1944
vt 0.7755 0.9304 -0.3296
vt 0.9674 0.6639 -0.1248
vt 0.9704 0.6911 -0.1248
vt 0.7725 0.9334 -0.3296
vt 0.7735 0.9081 -0.3296
vt 0.7727 0.9076 -0.3296
vt 0.7723 0.9336 -0.3296
vt 0.8298 0.4192 -0.2694
vt 0.8315 0.4369 -0.2694
vt 0.8130 0.4742 -0.2694
vt 0.8083 0.4211 -0.2694
vt 0.9044 0.8957 -0.2679
vt 0.9259 0.8963 -0.2679
vt 0.9243 0.9488 0.2679
vt 0.9038 0.9134 -0.2679
vt 0.8078 0.4160 -0.2694
vt 0.8297 0.4173 -0.2694
vt 0.8330 0.4378 -0.2694
vt 0.8176 0.4765 0.2694
vt 0.8327 0.4190 -0.2694
vt 0.8342 0.4339 -0.2694
vt 0.9009 0.9108 -0.2679
vt 0.9014 0.8956 -0.2679
vt 0.8327 0.4176 -0.2694
vt 0.8348 0.4349 -0.2694
vt 0.8353 0.4190 -0.2694
vt 0.8368 0.4334 -0.2694
vt 0.8982 0.9107 0.2188
vt 0.8986 0.8955 -0.2679
vt 0.8355 0.4180 -0.2694
vt 0.8366 0.4341 0.2201
vt 0.8368 0.4190 -0.2694
vt 0.8388 0.4358 -0.2694
vt 0.8962 0.9141 -0.2679
vt 0.8968 0.8954 -0.2679
vt 0.8373 0.4186 -0.2694
vt 0.8389 0.4360 -0.2694
vt 0.4830 0.4435 0.0000
vt 0.5061 0.4412 0.0000
vt 0.5670 0.7894 0.0000
vt 0.5408 0.7954 0.0000
vt 0.5280 0.4351 0.0000
vt 0.5935 0.7853 0.0000
vt 0.5493 0.4258 0.0000
vt 0.6193 0.7847 0.0000
vt 0.5764 0.8373 0.0000
vt 0.5574 0.8429 0.0000
vt 0.5961 0.8351 0.0000
vt 0.6147 0.8376 0.0000
vt 0.5849 0.8798 0.0000
vt 0.5752 0.8834 0.0000
vt 0.5951 0.8787 0.0000
vt 0.6047 0.8805 0.0000
vt 0.5910 0.9054 0.0000
vt 0.5882 0.9067 0.0000
vt 0.5940 0.9053 0.0000
vt 0.5971 0.9068 0.0000
vt 0.5921 0.9100 0.0000
vt 0.5914 0.9072 0.0000
vt 0.4569 0.4433 0.0000
vt 0.4608 0.4339 0.0000
vt 0.4840 0.4397 0.0000
vt 0.5056 0.4385 0.0000
vt 0.5267 0.4321 0.0000
vt 0.4825 0.4043 0.0000
vt 0.4945 0.4155 0.0000
vt 0.5004 0.4162 0.0000
vt 0.5057 0.4137 0.0000
vt 0.5089 0.3979 0.0000
vt 0.4952 0.3985 0.0000
vt 0.9453 0.8453 -0.4812
vt 0.9477 0.8629 -0.4812
vt 0.9314 0.9003 0.4812
vt 0.9242 0.8483 -0.4812
vt 0.9506 0.7449 -0.2020
vt 0.9725 0.7458 0.2020
vt 0.9703 0.7989 -0.2020
vt 0.9499 0.7627 -0.2020
vt 0.9504 0.7431 -0.2020
vt 0.9719 0.7407 -0.2020
vt 0.9657 0.8010 -0.2020
vt 0.9484 0.7636 -0.2020
vt 0.9482 0.8449 -0.4812
vt 0.9503 0.8600 -0.4812
vt 0.9470 0.7600 -0.2020
vt 0.9476 0.7449 -0.2020
vt 0.9473 0.7436 -0.2020
vt 0.9464 0.7609 -0.2020
vt 0.9509 0.8446 0.3572
vt 0.9530 0.8596 -0.4812
vt 0.9444 0.7597 -0.2020
vt 0.9448 0.7450 -0.2020
vt 0.9444 0.7441 0.2020
vt 0.9446 0.7604 -0.2020
vt 0.9527 0.8443 -0.4812
vt 0.9553 0.8628 -0.4812
vt 0.9426 0.7624 -0.2020
vt 0.9432 0.7452 -0.2020
vt 0.9427 0.7449 -0.2020
vt 0.9424 0.7625 -0.2020
vt 0.5137 0.8034 0.0000
vt 0.5390 0.8519 0.0000
vt 0.5664 0.8896 0.0000
vt 0.5861 0.9095 0.0000
vt 0.5438 0.4180 0.0000
vt 0.5343 0.4097 0.0000
vt 0.8872 0.7235 -0.1974
vt 0.9088 0.7245 0.1974
vt 0.9062 0.7776 -0.1974
vt 0.8863 0.7413 -0.1974
vt 0.8700 0.9240 -0.1805
vt 0.8702 0.9417 -0.1805
vt 0.8492 0.9768 -0.1805
vt 0.8484 0.9243 0.1805
vt 0.8872 0.7216 -0.1974
vt 0.9091 0.7194 -0.1974
vt 0.9017 0.7800 -0.1974
vt 0.8849 0.7423 -0.1974
vt 0.8835 0.7385 -0.1974
vt 0.8842 0.7235 -0.1974
vt 0.8729 0.9239 0.1805
vt 0.8732 0.9391 -0.1805
vt 0.8841 0.7221 0.1974
vt 0.8829 0.7395 -0.1974
vt 0.8809 0.7381 -0.1974
vt 0.8815 0.7236 -0.1974
vt 0.8757 0.9239 -0.1805
vt 0.8759 0.9391 -0.1805
vt 0.8813 0.7227 -0.1974
vt 0.8811 0.7389 -0.1974
vt 0.8790 0.7408 -0.1974
vt 0.8800 0.7238 -0.1974
vt 0.8776 0.9239 -0.1805
vt 0.8778 0.9425 -0.1805
vt 0.8795 0.7234 -0.1974
vt 0.8788 0.7409 -0.1974
vt 0.1608 0.7115 -0.2801
vt 0.0315 0.3756 -0.2801
vt 0.0570 0.3672 -0.2801
vt 0.1816 0.7010 -0.2801
vt 0.0819 0.3569 -0.2801
vt 0.2034 0.6946 -0.2801
vt 0.2265 0.6914 -0.2801
vt 0.1044 0.3439 -0.2801
vt 0.0215 0.3271 -0.2801
vt 0.0400 0.3218 -0.2801
vt 0.0576 0.3129 -0.2801
vt 0.0715 0.3002 -0.2801
vt 0.0153 0.2859 -0.2801
vt 0.0246 0.2834 -0.2801
vt 0.0331 0.2785 -0.2801
vt 0.0396 0.2719 -0.2801
vt 0.0124 0.2611 -0.2801
vt 0.0152 0.2606 -0.2801
vt 0.0176 0.2589 -0.2801
vt 0.0191 0.2560 -0.2801
vt 0.0145 0.2589 -0.2801
vt 0.0135 0.2564 -0.2801
vt 0.1385 0.7259 0.2801
vt 0.1637 0.7141 -0.2801
vt 0.1472 0.7317 -0.2801
vt 0.1826 0.7035 -0.2801
vt 0.2038 0.6977 -0.2801
vt 0.1856 0.7288 -0.2801
vt 0.1816 0.7448 -0.2801
vt 0.1902 0.7250 -0.2801
vt 0.1961 0.7242 -0.2801
vt 0.2073 0.7356 -0.2801
vt 0.1955 0.7427 -0.2801
vt 0.8842 0.5115 -0.1928
vt 0.9050 0.5107 -0.1928
vt 0.9071 0.5621 -0.1928
vt 0.8849 0.5289 -0.1928
vt 0.8656 0.4886 -0.1928
vt 0.8662 0.5067 -0.1928
vt 0.8451 0.5430 -0.1928
vt 0.8434 0.4892 0.1735
vt 0.8659 0.4867 -0.1928
vt 0.8441 0.4840 -0.1928
vt 0.8498 0.5453 -0.1928
vt 0.8677 0.5076 -0.1928
vt 0.8819 0.5266 -0.1928
vt 0.8813 0.5117 -0.1928
vt 0.8686 0.4886 -0.1928
vt 0.8692 0.5039 -0.1928
vt 0.8688 0.4872 -0.1928
vt 0.8699 0.5049 -0.1928
vt 0.8792 0.5267 -0.1928
vt 0.8786 0.5118 -0.1928
vt 0.8713 0.4886 -0.1928
vt 0.8720 0.5036 -0.1928
vt 0.8716 0.4877 -0.1928
vt 0.8718 0.5044 -0.1928
vt 0.8776 0.5301 0.1928
vt 0.8768 0.5118 -0.1928
vt 0.8729 0.4888 -0.1928
vt 0.8740 0.5064 -0.1928
vt 0.8735 0.4884 -0.1928
vt 0.8742 0.5066 0.1928
vt 0.0043 0.3825 -0.2801
vt 0.0020 0.3290 -0.2801
vt 0.0054 0.2861 -0.2801
vt 0.0093 0.2602 -0.2801
vt 0.2256 0.7005 -0.2801
vt 0.2218 0.7119 -0.2801
vt 0.7417 0.8940 -0.7322
vt 0.7231 0.8862 -0.7322
vt 0.7394 0.8500 -0.7322
vt 0.7646 0.8543 0.7322
vt 0.7058 0.8823 -0.7322
vt 0.7147 0.8483 -0.7322
vt 0.6898 0.8817 -0.7322
vt 0.6905 0.8496 -0.7322
vt 0.6756 0.8846 -0.7322
vt 0.6665 0.8543 0.7322
vt 0.6637 0.8875 -0.7322
vt 0.6587 0.8596 -0.7322
vt 0.6516 0.8907 -0.7322
vt 0.6508 0.8625 -0.7322
vt 0.6367 0.8927 -0.7322
vt 0.6436 0.8627 -0.7322
vt 0.7632 0.9054 -0.7322
vt 0.7733 0.8580 -0.7322
vt 0.7402 0.8963 -0.7322
vt 0.7225 0.8884 -0.7322
vt 0.7056 0.8846 -0.7322
vt 0.6901 0.8840 -0.7322
vt 0.6763 0.8861 -0.7322
vt 0.6642 0.8889 -0.7322
vt 0.6522 0.8923 -0.7322
vt 0.6393 0.8982 -0.7322
vt 0.7570 0.9100 -0.7322
vt 0.7146 0.9254 -0.7322
vt 0.7068 0.9202 -0.7322
vt 0.6979 0.9165 -0.7322
vt 0.6888 0.9144 -0.7322
vt 0.6799 0.9138 -0.7322
vt 0.6720 0.9146 -0.7322
vt 0.6656 0.9166 -0.7322
vt 0.6614 0.9196 -0.7322
vt 0.7204 0.9317 -0.7322
vt 0.9051 0.1104 -0.2643
vt 0.9050 0.0943 -0.2643
vt 0.9364 0.0953 -0.2643
vt 0.9375 0.1041 -0.2643
vt 0.9051 0.0781 -0.2643
vt 0.9371 0.0860 -0.2643
vt 0.9077 0.0588 0.2621
vt 0.9399 0.0777 -0.2643
vt 0.9077 0.1298 0.2621
vt 0.9009 0.1275 -0.2643
vt 0.9037 0.1102 -0.2643
vt 0.9041 0.0943 -0.2643
vt 0.9037 0.0783 -0.2643
vt 0.8701 0.1085 -0.2643
vt 0.8724 0.1015 -0.2643
vt 0.8730 0.0933 -0.2643
vt 0.8722 0.0856 -0.2643
vt 0.7315 0.7005 0.0000
vt 0.7463 0.7392 0.0000
vt 0.7829 0.8187 0.0000
vt 0.7985 0.8307 0.0000
vt 0.3808 0.4475 0.0000
vt 0.3914 0.4352 0.0000
vt 0.5598 0.9574 0.3434
vt 0.5834 0.9275 -0.3808
vt 0.6089 0.9577 0.3557
vt 0.5918 0.9789 -0.3808
vt 0.6097 0.9588 0.3786
vt 0.2441 0.7874 0.0000
vt 0.2443 0.7913 0.0000
vt 0.2441 0.7980 0.0000
vt 0.2517 0.8259 0.0000
vt 0.2620 0.8567 0.0000
vt 0.3856 0.9562 0.0000
vt 0.3104 0.8758 0.0000
vt 0.2440 0.9075 0.0000
vt 0.2440 0.3376 0.0000
vt 0.2567 0.3293 0.0000
vt 0.5544 0.2271 0.0000
vt 0.6251 0.2340 0.0000
vt 0.6805 0.2369 0.0000
vt 0.7134 0.2385 0.0000
vt 0.7197 0.2366 0.0000
vt 0.3009 0.3095 0.0000
vt 0.9399 0.1109 -0.2643
vt 0.9008 0.0611 -0.2643
vt 0.8701 0.0801 -0.2643
# 563 texture coords

g Cylinder003
usemtl 02___Default
s off
f 1/1/1 2/2/1 3/3/1 4/4/1 
f 5/5/2 6/6/2 7/7/2 8/8/2 
f 9/9/3 10/10/3 11/11/3 12/12/3 
f 3/3/4 2/2/4 13/13/4 14/14/4 
f 6/6/5 15/15/5 16/16/5 7/7/5 
f 10/10/6 17/17/6 18/18/6 11/11/6 
f 14/14/7 13/13/7 19/19/7 20/20/7 
f 16/16/8 15/15/8 21/21/8 22/22/8 
f 17/17/9 23/23/9 24/24/9 18/18/9 
f 25/25/10 26/26/10 27/27/10 28/28/10 
f 29/29/11 30/30/11 31/31/11 32/32/11 
f 33/33/12 34/34/12 35/35/12 36/36/12 
f 35/35/13 34/34/13 37/37/13 38/38/13 
f 8/39/14 7/40/14 2/2/14 1/1/14 
f 12/12/15 11/11/15 6/6/15 5/5/15 
f 2/2/16 7/40/16 16/41/16 13/13/16 
f 11/11/17 18/18/17 15/15/17 6/6/17 
f 16/41/18 22/42/18 19/19/18 13/13/18 
f 15/15/19 18/18/19 24/24/19 21/21/19 
f 26/26/20 32/43/20 31/44/20 27/27/20 
f 36/36/21 35/35/21 30/30/21 29/29/21 
f 38/45/22 28/28/22 27/27/22 31/44/22 
f 38/38/23 31/31/23 30/30/23 35/35/23 
f 39/46/24 40/47/24 41/48/24 20/20/24 
f 42/49/25 39/46/25 20/20/25 19/19/25 
f 43/50/26 44/51/26 22/22/26 21/21/26 
f 44/52/27 42/49/27 19/19/27 22/42/27 
f 45/53/28 43/50/28 21/21/28 24/24/28 
f 25/25/29 46/54/29 40/47/29 39/46/29 
f 26/26/30 25/25/30 39/46/30 42/49/30 
f 29/29/31 32/32/31 44/51/31 43/50/31 
f 32/43/32 26/26/32 42/49/32 44/52/32 
f 45/53/33 36/36/33 29/29/33 43/50/33 
f 47/55/34 48/56/34 10/10/34 9/9/34 
f 10/10/35 48/56/35 49/57/35 17/17/35 
f 17/17/36 49/57/36 50/58/36 23/23/36 
f 45/53/37 24/24/37 51/59/37 52/60/37 
f 24/24/38 23/23/38 53/61/38 51/59/38 
f 54/62/39 55/63/39 56/64/39 53/61/39 
f 23/23/40 54/62/40 53/61/40 
f 54/62/41 45/53/41 52/60/41 57/63/41 
f 54/62/42 57/63/42 55/63/42 
f 58/65/43 59/66/43 60/67/43 61/68/43 
f 62/69/44 63/70/44 64/71/44 65/72/44 
f 58/65/45 61/68/45 63/73/45 62/74/45 
f 60/67/46 59/66/46 65/75/46 64/76/46 
f 59/66/47 58/65/47 66/77/47 67/78/47 
f 62/69/48 65/72/48 68/79/48 69/80/48 
f 58/65/45 62/74/45 69/81/45 66/77/45 
f 65/75/49 59/66/49 67/78/49 68/82/49 
f 67/78/50 66/77/50 70/83/50 71/84/50 
f 69/80/51 68/79/51 72/85/51 73/86/51 
f 66/77/45 69/81/45 73/87/45 70/83/45 
f 68/82/52 67/78/52 71/84/52 72/88/52 
f 71/84/50 70/83/50 74/89/50 75/90/50 
f 73/86/53 72/85/53 76/91/53 77/92/53 
f 70/83/45 73/87/45 77/93/45 74/89/45 
f 72/88/54 71/84/54 75/90/54 76/94/54 
f 77/93/55 76/94/55 75/90/55 74/89/55 
f 78/95/56 79/96/56 80/97/56 81/98/56 
f 79/96/57 82/99/57 83/100/57 80/97/57 
f 82/99/58 84/101/58 85/102/58 83/100/58 
f 84/101/59 86/103/59 87/104/59 85/102/59 
f 86/103/60 88/105/60 89/106/60 87/104/60 
f 88/105/61 90/107/61 91/108/61 89/106/61 
f 90/107/62 92/109/62 93/110/62 91/108/62 
f 92/109/63 78/111/63 81/112/63 93/110/63 
f 79/96/45 78/95/45 94/113/45 95/114/45 
f 82/99/45 79/96/45 95/114/45 96/115/45 
f 84/101/45 82/99/45 96/115/45 97/116/45 
f 86/103/45 84/101/45 97/116/45 98/117/45 
f 88/105/45 86/103/45 98/117/45 99/118/45 
f 90/107/45 88/105/45 99/118/45 100/119/45 
f 92/109/45 90/107/45 100/119/45 101/120/45 
f 78/111/45 92/109/45 101/120/45 94/121/45 
f 95/114/64 94/113/64 102/122/64 103/123/64 
f 96/115/65 95/114/65 103/123/65 104/124/65 
f 97/116/66 96/115/66 104/124/66 105/125/66 
f 98/117/67 97/116/67 105/125/67 106/126/67 
f 99/118/68 98/117/68 106/126/68 107/127/68 
f 100/119/69 99/118/69 107/127/69 108/128/69 
f 101/120/70 100/119/70 108/128/70 109/129/70 
f 94/121/71 101/120/71 109/129/71 102/130/71 
f 110/131/72 111/132/72 112/133/72 4/4/72 
f 1/1/73 4/4/73 112/133/73 113/134/73 
f 5/5/74 8/8/74 114/135/74 115/136/74 
f 9/9/75 12/12/75 116/137/75 117/138/75 
f 8/39/76 1/1/76 113/134/76 114/139/76 
f 12/12/77 5/5/77 115/136/77 116/137/77 
f 111/132/78 118/140/78 119/141/78 112/133/78 
f 113/134/79 112/133/79 119/141/79 120/142/79 
f 115/136/80 114/135/80 121/143/80 122/144/80 
f 117/138/81 116/137/81 123/145/81 124/146/81 
f 114/139/82 113/134/82 120/142/82 121/147/82 
f 116/137/83 115/136/83 122/144/83 123/145/83 
f 118/140/84 125/148/84 126/149/84 119/141/84 
f 120/142/85 119/141/85 126/149/85 127/150/85 
f 122/144/86 121/143/86 128/151/86 129/152/86 
f 124/146/87 123/145/87 130/153/87 131/154/87 
f 121/147/88 120/142/88 127/150/88 128/155/88 
f 123/145/89 122/144/89 129/152/89 130/153/89 
f 125/148/78 132/156/78 133/157/78 126/149/78 
f 127/150/90 126/149/90 133/157/90 134/158/90 
f 129/152/91 128/151/91 135/159/91 136/160/91 
f 131/154/92 130/153/92 137/161/92 138/162/92 
f 128/155/93 127/150/93 134/158/93 135/163/93 
f 130/153/94 129/152/94 136/160/94 137/161/94 
f 135/159/95 134/164/95 137/161/95 136/160/95 
f 137/161/96 134/164/96 133/165/96 138/162/96 
f 139/166/97 140/167/97 141/168/97 142/169/97 
f 140/167/98 143/170/98 144/171/98 141/168/98 
f 145/172/99 146/173/99 144/171/99 143/170/99 
f 147/174/100 148/175/100 149/176/100 139/166/100 
f 140/167/101 139/166/101 149/176/101 150/177/101 
f 143/170/45 140/167/45 150/177/45 151/178/45 
f 148/175/102 152/179/102 153/180/102 149/176/102 
f 150/177/103 149/176/103 153/180/103 154/181/103 
f 151/178/104 150/177/104 154/181/104 155/182/104 
f 156/183/105 157/184/105 158/185/105 159/186/105 
f 160/187/106 161/188/106 162/189/106 163/190/106 
f 156/183/45 159/186/45 161/191/45 160/192/45 
f 158/185/107 157/184/107 163/193/107 162/194/107 
f 157/184/108 156/183/108 164/195/108 165/196/108 
f 160/187/109 163/190/109 166/197/109 167/198/109 
f 156/183/45 160/192/45 167/199/45 164/195/45 
f 163/193/110 157/184/110 165/196/110 166/200/110 
f 165/196/111 164/195/111 168/201/111 169/202/111 
f 167/198/112 166/197/112 170/203/112 171/204/112 
f 164/195/45 167/199/45 171/205/45 168/201/45 
f 166/200/52 165/196/52 169/202/52 170/206/52 
f 169/202/111 168/201/111 172/207/111 173/208/111 
f 171/204/113 170/203/113 174/209/113 175/210/113 
f 168/201/45 171/205/45 175/211/45 172/207/45 
f 170/206/114 169/202/114 173/208/114 174/212/114 
f 175/211/115 174/212/115 173/208/115 172/207/115 
f 176/213/116 177/214/116 178/215/116 179/216/116 
f 177/217/117 180/218/117 181/219/117 178/220/117 
f 182/221/118 183/222/118 181/219/118 180/218/118 
f 179/216/119 178/215/119 184/223/119 185/224/119 
f 178/220/120 181/219/120 186/225/120 184/226/120 
f 183/222/121 187/227/121 186/225/121 181/219/121 
f 185/224/122 184/223/122 188/228/122 189/229/122 
f 184/226/123 186/225/123 190/230/123 188/231/123 
f 187/227/124 191/232/124 190/230/124 186/225/124 
f 189/229/125 188/228/125 192/233/125 193/234/125 
f 188/231/126 190/230/126 194/235/126 192/236/126 
f 191/232/127 195/237/127 194/235/127 190/230/127 
f 194/235/128 195/237/128 196/238/128 197/239/128 
f 194/235/129 197/239/129 192/236/129 
f 197/240/130 193/234/130 192/233/130 
f 198/241/101 199/242/101 200/243/101 176/213/101 
f 177/214/45 176/213/45 200/243/45 201/244/45 
f 180/218/45 177/217/45 201/245/45 202/246/45 
f 200/243/131 199/242/131 203/247/131 204/248/131 
f 201/244/132 200/243/132 204/248/132 205/249/132 
f 202/246/133 201/245/133 205/250/133 206/251/133 
f 204/248/100 203/247/100 207/252/100 205/249/100 
f 208/253/134 209/254/134 210/255/134 211/256/134 
f 212/257/135 213/258/135 214/259/135 215/260/135 
f 208/261/100 211/262/100 213/258/100 212/257/100 
f 210/263/136 209/264/136 215/260/136 214/259/136 
f 209/254/137 208/253/137 216/265/137 217/266/137 
f 212/257/138 215/260/138 218/267/138 219/268/138 
f 208/261/100 212/257/100 219/268/100 216/269/100 
f 215/260/139 209/264/139 217/270/139 218/267/139 
f 217/266/140 216/265/140 220/271/140 221/272/140 
f 219/268/141 218/267/141 222/273/141 223/274/141 
f 216/269/100 219/268/100 223/274/100 220/275/100 
f 218/267/52 217/270/52 221/276/52 222/273/52 
f 221/272/140 220/271/140 224/277/140 225/278/140 
f 223/274/142 222/273/142 226/279/142 227/280/142 
f 220/275/100 223/274/100 227/280/100 224/281/100 
f 222/273/143 221/276/143 225/282/143 226/279/143 
f 227/280/144 226/279/144 225/282/144 224/281/144 
f 228/283/145 229/284/145 230/285/145 231/286/145 
f 232/287/146 233/288/146 234/289/146 235/290/146 
f 228/283/100 231/286/100 233/291/100 232/292/100 
f 230/285/147 229/284/147 235/293/147 234/294/147 
f 229/284/148 228/283/148 236/295/148 237/296/148 
f 232/287/149 235/290/149 238/297/149 239/298/149 
f 228/283/100 232/292/100 239/299/100 236/295/100 
f 235/293/150 229/284/150 237/296/150 238/300/150 
f 237/296/151 236/295/151 240/301/151 241/302/151 
f 239/298/152 238/297/152 242/303/152 243/304/152 
f 236/295/100 239/299/100 243/305/100 240/301/100 
f 238/300/52 237/296/52 241/302/52 242/306/52 
f 241/302/151 240/301/151 244/307/151 245/308/151 
f 243/304/153 242/303/153 246/309/153 247/310/153 
f 240/301/100 243/305/100 247/311/100 244/307/100 
f 242/306/154 241/302/154 245/308/154 246/312/154 
f 247/311/155 246/312/155 245/308/155 244/307/155 
f 248/313/156 249/314/156 250/315/156 251/316/156 
f 249/314/157 252/317/157 253/318/157 250/315/157 
f 254/319/158 255/320/158 253/318/158 252/317/158 
f 251/316/159 250/315/159 256/321/159 257/322/159 
f 250/315/160 253/318/160 258/323/160 256/321/160 
f 255/320/161 259/324/161 258/323/161 253/318/161 
f 257/322/162 256/321/162 260/325/162 261/326/162 
f 256/321/163 258/323/163 262/327/163 260/325/163 
f 259/324/164 263/328/164 262/327/164 258/323/164 
f 261/326/165 260/325/165 264/329/165 265/330/165 
f 260/325/166 262/327/166 266/331/166 264/329/166 
f 263/328/167 267/332/167 266/331/167 262/327/167 
f 266/331/168 267/332/168 268/333/168 269/334/168 
f 266/331/169 269/334/169 264/329/169 
f 269/334/170 265/330/170 264/329/170 
f 270/335/45 271/336/45 272/337/45 248/313/45 
f 249/314/45 248/313/45 272/337/45 273/338/45 
f 252/317/45 249/314/45 273/338/45 274/339/45 
f 271/336/171 275/340/171 276/340/171 272/337/171 
f 272/337/172 276/340/172 277/341/172 
f 273/338/173 272/337/173 277/341/173 278/342/173 
f 274/339/174 273/338/174 278/342/174 279/343/174 
f 280/344/45 279/343/45 278/342/45 281/345/45 
f 277/341/45 276/340/45 281/345/45 278/342/45 
f 282/346/175 283/347/175 284/348/175 285/349/175 
f 286/350/176 287/351/176 288/352/176 289/353/176 
f 282/354/101 285/355/101 287/351/101 286/350/101 
f 284/356/177 283/357/177 289/353/177 288/352/177 
f 283/347/178 282/346/178 290/358/178 291/359/178 
f 286/350/179 289/353/179 292/360/179 293/361/179 
f 282/354/101 286/350/101 293/361/101 290/362/101 
f 289/353/180 283/357/180 291/363/180 292/360/180 
f 291/359/181 290/358/181 294/364/181 295/365/181 
f 293/361/182 292/360/182 296/366/182 297/367/182 
f 290/362/101 293/361/101 297/367/101 294/368/101 
f 292/360/52 291/363/52 295/369/52 296/366/52 
f 295/365/183 294/364/183 298/370/183 299/371/183 
f 297/367/184 296/366/184 300/372/184 301/373/184 
f 294/368/101 297/367/101 301/373/101 298/374/101 
f 296/366/185 295/369/185 299/375/185 300/372/185 
f 301/373/186 300/372/186 299/375/186 298/374/186 
f 248/313/187 251/316/187 302/376/187 270/335/187 
f 251/316/188 257/322/188 303/377/188 302/376/188 
f 257/322/189 261/326/189 304/378/189 303/377/189 
f 261/326/190 265/330/190 305/379/190 304/378/190 
f 265/330/191 269/334/191 268/333/191 305/379/191 
f 254/319/100 252/317/100 274/339/100 306/380/100 
f 279/343/192 280/344/192 307/381/192 274/339/192 
f 306/380/193 274/339/193 307/381/193 
f 308/382/194 309/383/194 310/384/194 311/385/194 
f 312/386/195 313/387/195 314/388/195 315/389/195 
f 308/382/101 312/390/101 315/391/101 309/383/101 
f 310/384/196 314/392/196 313/393/196 311/385/196 
f 311/385/197 316/394/197 317/395/197 308/382/197 
f 312/386/198 318/396/198 319/397/198 313/387/198 
f 308/382/101 317/395/101 318/398/101 312/390/101 
f 313/393/199 319/399/199 316/394/199 311/385/199 
f 316/394/200 320/400/200 321/401/200 317/395/200 
f 318/396/201 322/402/201 323/403/201 319/397/201 
f 317/395/101 321/401/101 322/404/101 318/398/101 
f 319/399/52 323/405/52 320/400/52 316/394/52 
f 320/400/200 324/406/200 325/407/200 321/401/200 
f 322/402/202 326/408/202 327/409/202 323/403/202 
f 321/401/101 325/407/101 326/410/101 322/404/101 
f 323/405/203 327/411/203 324/406/203 320/400/203 
f 326/410/204 325/407/204 324/406/204 327/411/204 
f 328/412/205 329/413/205 330/414/205 331/415/205 
f 331/415/206 330/414/206 332/416/206 333/417/206 
f 254/418/207 333/417/207 332/416/207 255/419/207 
f 329/413/208 334/420/208 335/421/208 330/414/208 
f 330/414/209 335/421/209 336/422/209 332/416/209 
f 255/419/210 332/416/210 336/422/210 259/423/210 
f 334/420/211 337/424/211 338/425/211 335/421/211 
f 335/421/212 338/425/212 339/426/212 336/422/212 
f 259/423/213 336/422/213 339/426/213 263/427/213 
f 337/424/214 340/428/214 341/429/214 338/425/214 
f 338/425/215 341/429/215 342/430/215 339/426/215 
f 263/427/216 339/426/216 342/430/216 267/431/216 
f 342/430/217 343/432/217 268/433/217 267/431/217 
f 342/430/218 341/429/218 343/432/218 
f 343/432/219 341/429/219 340/428/219 
f 270/434/45 328/412/45 344/435/45 271/436/45 
f 331/415/45 345/437/45 344/435/45 328/412/45 
f 333/417/101 346/438/101 345/437/101 331/415/101 
f 344/435/220 347/439/220 348/440/220 271/436/220 
f 348/440/221 275/436/221 271/436/221 
f 345/437/222 349/441/222 347/439/222 344/435/222 
f 346/438/223 350/442/223 349/441/223 345/437/223 
f 351/443/45 352/444/45 349/441/45 350/442/45 
f 347/439/45 349/441/45 352/444/45 348/440/45 
f 353/445/224 354/446/224 355/447/224 356/448/224 
f 357/449/225 358/450/225 359/451/225 360/452/225 
f 353/453/100 357/449/100 360/452/100 354/454/100 
f 355/455/226 359/451/226 358/450/226 356/456/226 
f 356/448/227 361/457/227 362/458/227 353/445/227 
f 357/449/228 363/459/228 364/460/228 358/450/228 
f 353/453/100 362/461/100 363/459/100 357/449/100 
f 358/450/229 364/460/229 361/462/229 356/456/229 
f 361/457/230 365/463/230 366/464/230 362/458/230 
f 363/459/231 367/465/231 368/466/231 364/460/231 
f 362/461/100 366/467/100 367/465/100 363/459/100 
f 364/460/52 368/466/52 365/468/52 361/462/52 
f 365/463/230 369/469/230 370/470/230 366/464/230 
f 367/465/232 371/471/232 372/472/232 368/466/232 
f 366/467/100 370/473/100 371/471/100 367/465/100 
f 368/466/233 372/472/233 369/474/233 365/468/233 
f 371/471/234 370/473/234 369/474/234 372/472/234 
f 328/412/235 270/434/235 302/475/235 329/413/235 
f 329/413/236 302/475/236 303/476/236 334/420/236 
f 334/420/237 303/476/237 304/477/237 337/424/237 
f 337/424/238 304/477/238 305/478/238 340/428/238 
f 340/428/239 305/478/239 268/433/239 343/432/239 
f 254/418/100 306/479/100 346/438/100 333/417/100 
f 307/480/240 351/443/240 350/442/240 346/438/240 
f 306/479/241 307/480/241 346/438/241 
f 373/481/56 374/482/56 375/483/56 376/484/56 
f 374/482/57 377/485/57 378/486/57 375/483/57 
f 377/485/58 379/487/58 380/488/58 378/486/58 
f 379/487/59 381/489/59 382/490/59 380/488/59 
f 381/489/60 383/491/60 384/492/60 382/490/60 
f 383/491/61 385/493/61 386/494/61 384/492/61 
f 385/493/62 387/495/62 388/496/62 386/494/62 
f 387/497/63 373/481/63 376/484/63 388/498/63 
f 374/482/45 373/481/45 389/499/45 390/500/45 
f 377/485/45 374/482/45 390/500/45 391/501/45 
f 379/487/45 377/485/45 391/501/45 392/502/45 
f 381/489/45 379/487/45 392/502/45 393/503/45 
f 383/491/45 381/489/45 393/503/45 394/504/45 
f 385/493/45 383/491/45 394/504/45 395/505/45 
f 387/495/45 385/493/45 395/505/45 396/506/45 
f 373/481/45 387/497/45 396/507/45 389/499/45 
f 390/500/64 389/499/64 397/508/64 398/509/64 
f 391/501/65 390/500/65 398/509/65 399/510/65 
f 392/502/66 391/501/66 399/510/66 400/511/66 
f 393/503/67 392/502/67 400/511/67 401/512/67 
f 394/504/68 393/503/68 401/512/68 402/513/68 
f 395/505/69 394/504/69 402/513/69 403/514/69 
f 396/506/70 395/505/70 403/514/70 404/515/70 
f 389/499/71 396/507/71 404/516/71 397/508/71 
f 405/517/59 406/518/59 407/519/59 408/520/59 
f 406/518/60 409/521/60 410/522/60 407/519/60 
f 411/523/242 412/524/242 410/522/242 409/521/242 
f 413/525/101 414/526/101 415/527/101 405/517/101 
f 406/518/45 405/517/45 415/527/45 416/528/45 
f 409/521/45 406/518/45 416/528/45 417/529/45 
f 414/526/66 418/530/66 419/531/66 415/527/66 
f 416/528/67 415/527/67 419/531/67 420/532/67 
f 417/529/68 416/528/68 420/532/68 421/533/68 
f 4/4/243 3/3/243 422/534/243 110/131/243 
f 422/534/244 3/3/244 14/14/244 423/535/244 
f 423/535/245 14/14/245 20/20/245 41/48/245 
f 46/54/246 25/25/246 28/28/246 424/536/246 
f 28/28/247 38/45/247 37/537/247 424/536/247 
f 56/538/248 54/62/248 23/23/248 
f 23/23/249 50/58/249 56/538/249 
f 425/539/250 54/62/250 56/538/250 
f 51/540/251 53/541/251 56/542/251 52/543/251 
f 57/544/252 52/543/252 56/542/252 
f 36/36/253 45/53/253 54/62/253 33/33/253 
f 33/33/254 54/62/254 425/539/254 
f 9/9/255 117/138/255 426/545/255 47/55/255 
f 117/138/256 124/146/256 427/546/256 426/545/256 
f 124/146/257 131/154/257 428/547/257 427/546/257 
f 131/154/258 138/162/258 429/548/258 428/547/258 
f 429/548/100 138/162/100 133/165/100 132/549/100 
f 139/166/259 142/169/259 430/550/259 147/174/259 
f 143/170/45 151/178/45 431/551/45 145/172/45 
f 151/178/260 155/182/260 432/552/260 431/551/260 
f 206/251/101 205/250/101 207/553/101 433/554/101 
f 176/213/261 179/216/261 434/555/261 198/241/261 
f 179/216/262 185/224/262 435/556/262 434/555/262 
f 185/224/263 189/229/263 436/557/263 435/556/263 
f 189/229/264 193/234/264 437/558/264 436/557/264 
f 193/234/265 197/240/265 196/559/265 437/558/265 
f 182/221/45 180/218/45 202/246/45 438/560/45 
f 438/560/266 202/246/266 206/251/266 433/554/266 
f 405/517/267 408/520/267 439/561/267 413/525/267 
f 409/521/100 417/529/100 440/562/100 411/523/100 
f 417/529/69 421/533/69 441/563/69 440/562/69 
f 442/1/268 443/4/268 444/3/268 445/2/268 
f 446/5/269 447/8/269 448/7/269 449/6/269 
f 450/9/270 451/12/270 452/11/270 453/10/270 
f 444/3/271 454/14/271 455/13/271 445/2/271 
f 449/6/272 448/7/272 456/16/272 457/15/272 
f 453/10/273 452/11/273 458/18/273 459/17/273 
f 454/14/274 460/20/274 461/19/274 455/13/274 
f 456/16/275 462/22/275 463/21/275 457/15/275 
f 459/17/276 458/18/276 464/24/276 465/23/276 
f 466/25/277 467/28/277 468/27/277 469/26/277 
f 470/29/278 471/32/278 472/31/278 473/30/278 
f 33/33/279 474/36/279 475/35/279 34/34/279 
f 475/35/280 476/38/280 37/37/280 34/34/280 
f 447/39/281 442/1/281 445/2/281 448/40/281 
f 451/12/282 446/5/282 449/6/282 452/11/282 
f 445/2/283 455/13/283 456/41/283 448/40/283 
f 452/11/284 449/6/284 457/15/284 458/18/284 
f 456/41/285 455/13/285 461/19/285 462/42/285 
f 457/15/286 463/21/286 464/24/286 458/18/286 
f 469/26/287 468/27/287 472/44/287 471/43/287 
f 474/36/288 470/29/288 473/30/288 475/35/288 
f 476/45/289 472/44/289 468/27/289 467/28/289 
f 476/38/290 475/35/290 473/30/290 472/31/290 
f 477/46/291 460/20/291 41/48/291 40/47/291 
f 478/49/292 461/19/292 460/20/292 477/46/292 
f 479/50/293 463/21/293 462/22/293 480/51/293 
f 480/52/294 462/42/294 461/19/294 478/49/294 
f 481/53/295 464/24/295 463/21/295 479/50/295 
f 466/25/296 477/46/296 40/47/296 46/54/296 
f 469/26/297 478/49/297 477/46/297 466/25/297 
f 470/29/298 479/50/298 480/51/298 471/32/298 
f 471/43/299 480/52/299 478/49/299 469/26/299 
f 481/53/300 479/50/300 470/29/300 474/36/300 
f 47/55/301 450/9/301 453/10/301 48/56/301 
f 453/10/302 459/17/302 49/57/302 48/56/302 
f 459/17/303 465/23/303 50/58/303 49/57/303 
f 481/53/304 482/60/304 483/59/304 464/24/304 
f 464/24/305 483/59/305 484/61/305 465/23/305 
f 56/64/306 55/63/306 485/62/306 484/61/306 
f 465/23/307 484/61/307 485/62/307 
f 485/62/308 55/63/308 57/63/308 482/60/308 
f 485/62/309 482/60/309 481/53/309 
f 486/65/310 487/68/310 488/67/310 489/66/310 
f 490/69/311 491/72/311 492/71/311 493/70/311 
f 486/65/100 490/74/100 493/73/100 487/68/100 
f 488/67/312 492/76/312 491/75/312 489/66/312 
f 489/66/313 494/78/313 495/77/313 486/65/313 
f 490/69/314 496/80/314 497/79/314 491/72/314 
f 486/65/100 495/77/100 496/81/100 490/74/100 
f 491/75/315 497/82/315 494/78/315 489/66/315 
f 494/78/316 498/84/316 499/83/316 495/77/316 
f 496/80/317 500/86/317 501/85/317 497/79/317 
f 495/77/100 499/83/100 500/87/100 496/81/100 
f 497/82/52 501/88/52 498/84/52 494/78/52 
f 498/84/316 502/90/316 503/89/316 499/83/316 
f 500/86/318 504/92/318 505/91/318 501/85/318 
f 499/83/100 503/89/100 504/93/100 500/87/100 
f 501/88/319 505/94/319 502/90/319 498/84/319 
f 504/93/320 503/89/320 502/90/320 505/94/320 
f 506/95/59 507/98/59 508/97/59 509/96/59 
f 509/96/58 508/97/58 510/100/58 511/99/58 
f 511/99/57 510/100/57 512/102/57 513/101/57 
f 513/101/56 512/102/56 514/104/56 515/103/56 
f 515/103/63 514/104/63 516/106/63 517/105/63 
f 517/105/62 516/106/62 518/108/62 519/107/62 
f 519/107/61 518/108/61 520/110/61 521/109/61 
f 521/109/60 520/110/60 507/112/60 506/111/60 
f 509/96/45 522/114/45 523/113/45 506/95/45 
f 511/99/45 524/115/45 522/114/45 509/96/45 
f 513/101/45 525/116/45 524/115/45 511/99/45 
f 515/103/45 526/117/45 525/116/45 513/101/45 
f 517/105/45 527/118/45 526/117/45 515/103/45 
f 519/107/45 528/119/45 527/118/45 517/105/45 
f 521/109/45 529/120/45 528/119/45 519/107/45 
f 506/111/45 523/121/45 529/120/45 521/109/45 
f 522/114/67 530/123/67 531/122/67 523/113/67 
f 524/115/66 532/124/66 530/123/66 522/114/66 
f 525/116/65 533/125/65 532/124/65 524/115/65 
f 526/117/64 534/126/64 533/125/64 525/116/64 
f 527/118/71 535/127/71 534/126/71 526/117/71 
f 528/119/70 536/128/70 535/127/70 527/118/70 
f 529/120/69 537/129/69 536/128/69 528/119/69 
f 523/121/68 531/130/68 537/129/68 529/120/68 
f 110/131/321 443/4/321 538/133/321 111/132/321 
f 442/1/322 539/134/322 538/133/322 443/4/322 
f 446/5/323 540/136/323 541/135/323 447/8/323 
f 450/9/324 542/138/324 543/137/324 451/12/324 
f 447/39/325 541/139/325 539/134/325 442/1/325 
f 451/12/326 543/137/326 540/136/326 446/5/326 
f 111/132/327 538/133/327 544/141/327 118/140/327 
f 539/134/328 545/142/328 544/141/328 538/133/328 
f 540/136/329 546/144/329 547/143/329 541/135/329 
f 542/138/330 548/146/330 549/145/330 543/137/330 
f 541/139/331 547/147/331 545/142/331 539/134/331 
f 543/137/332 549/145/332 546/144/332 540/136/332 
f 118/140/333 544/141/333 550/149/333 125/148/333 
f 545/142/334 551/150/334 550/149/334 544/141/334 
f 546/144/335 552/152/335 553/151/335 547/143/335 
f 548/146/336 554/154/336 555/153/336 549/145/336 
f 547/147/337 553/155/337 551/150/337 545/142/337 
f 549/145/338 555/153/338 552/152/338 546/144/338 
f 125/148/327 550/149/327 556/157/327 132/156/327 
f 551/150/339 557/158/339 556/157/339 550/149/339 
f 552/152/340 558/160/340 559/159/340 553/151/340 
f 554/154/341 560/162/341 561/161/341 555/153/341 
f 553/155/342 559/163/342 557/158/342 551/150/342 
f 555/153/343 561/161/343 558/160/343 552/152/343 
f 559/159/101 558/160/101 561/161/101 557/164/101 
f 561/161/344 560/162/344 556/165/344 557/164/344 
f 562/166/345 563/169/345 564/168/345 565/167/345 
f 565/167/346 564/168/346 566/171/346 567/170/346 
f 145/172/347 567/170/347 566/171/347 146/173/347 
f 147/174/45 562/166/45 568/176/45 148/175/45 
f 565/167/95 569/177/95 568/176/95 562/166/95 
f 567/170/45 570/178/45 569/177/45 565/167/45 
f 148/175/348 568/176/348 571/180/348 152/179/348 
f 569/177/349 572/181/349 571/180/349 568/176/349 
f 570/178/350 573/182/350 572/181/350 569/177/350 
f 574/183/351 575/186/351 576/185/351 577/184/351 
f 578/187/352 579/190/352 580/189/352 581/188/352 
f 574/183/100 578/192/100 581/191/100 575/186/100 
f 576/185/353 580/194/353 579/193/353 577/184/353 
f 577/184/354 582/196/354 583/195/354 574/183/354 
f 578/187/355 584/198/355 585/197/355 579/190/355 
f 574/183/100 583/195/100 584/199/100 578/192/100 
f 579/193/356 585/200/356 582/196/356 577/184/356 
f 582/196/357 586/202/357 587/201/357 583/195/357 
f 584/198/358 588/204/358 589/203/358 585/197/358 
f 583/195/100 587/201/100 588/205/100 584/199/100 
f 585/200/52 589/206/52 586/202/52 582/196/52 
f 586/202/357 590/208/357 591/207/357 587/201/357 
f 588/204/359 592/210/359 593/209/359 589/203/359 
f 587/201/100 591/207/100 592/211/100 588/205/100 
f 589/206/360 593/212/360 590/208/360 586/202/360 
f 592/211/361 591/207/361 590/208/361 593/212/361 
f 594/213/362 595/216/362 596/215/362 597/214/362 
f 597/217/363 596/220/363 598/219/363 599/218/363 
f 182/221/364 599/218/364 598/219/364 183/222/364 
f 595/216/365 600/224/365 601/223/365 596/215/365 
f 596/220/366 601/226/366 602/225/366 598/219/366 
f 183/222/367 598/219/367 602/225/367 187/227/367 
f 600/224/368 603/229/368 604/228/368 601/223/368 
f 601/226/369 604/231/369 605/230/369 602/225/369 
f 187/227/370 602/225/370 605/230/370 191/232/370 
f 603/229/371 606/234/371 607/233/371 604/228/371 
f 604/231/372 607/236/372 608/235/372 605/230/372 
f 191/232/373 605/230/373 608/235/373 195/237/373 
f 608/235/374 609/239/374 196/238/374 195/237/374 
f 608/235/375 607/236/375 609/239/375 
f 609/240/376 607/233/376 606/234/376 
f 198/241/95 594/213/95 610/243/95 199/242/95 
f 597/214/45 611/244/45 610/243/45 594/213/45 
f 599/218/100 612/246/100 611/245/100 597/217/100 
f 610/243/377 613/248/377 203/247/377 199/242/377 
f 611/244/378 614/249/378 613/248/378 610/243/378 
f 612/246/379 615/251/379 614/250/379 611/245/379 
f 613/248/45 614/249/45 207/252/45 203/247/45 
f 616/253/380 617/256/380 618/255/380 619/254/380 
f 620/257/381 621/260/381 622/259/381 623/258/381 
f 616/261/45 620/257/45 623/258/45 617/262/45 
f 618/263/382 622/259/382 621/260/382 619/264/382 
f 619/254/383 624/266/383 625/265/383 616/253/383 
f 620/257/384 626/268/384 627/267/384 621/260/384 
f 616/261/45 625/269/45 626/268/45 620/257/45 
f 621/260/385 627/267/385 624/270/385 619/264/385 
f 624/266/386 628/272/386 629/271/386 625/265/386 
f 626/268/387 630/274/387 631/273/387 627/267/387 
f 625/269/45 629/275/45 630/274/45 626/268/45 
f 627/267/52 631/273/52 628/276/52 624/270/52 
f 628/272/386 632/278/386 633/277/386 629/271/386 
f 630/274/388 634/280/388 635/279/388 631/273/388 
f 629/275/45 633/281/45 634/280/45 630/274/45 
f 631/273/389 635/279/389 632/282/389 628/276/389 
f 634/280/390 633/281/390 632/282/390 635/279/390 
f 636/283/391 637/286/391 638/285/391 639/284/391 
f 640/287/392 641/290/392 642/289/392 643/288/392 
f 636/283/45 640/292/45 643/291/45 637/286/45 
f 638/285/393 642/294/393 641/293/393 639/284/393 
f 639/284/394 644/296/394 645/295/394 636/283/394 
f 640/287/395 646/298/395 647/297/395 641/290/395 
f 636/283/45 645/295/45 646/299/45 640/292/45 
f 641/293/396 647/300/396 644/296/396 639/284/396 
f 644/296/397 648/302/397 649/301/397 645/295/397 
f 646/298/398 650/304/398 651/303/398 647/297/398 
f 645/295/45 649/301/45 650/305/45 646/299/45 
f 647/300/52 651/306/52 648/302/52 644/296/52 
f 648/302/397 652/308/397 653/307/397 649/301/397 
f 650/304/399 654/310/399 655/309/399 651/303/399 
f 649/301/45 653/307/45 654/311/45 650/305/45 
f 651/306/400 655/312/400 652/308/400 648/302/400 
f 654/311/401 653/307/401 652/308/401 655/312/401 
f 656/313/402 657/316/402 658/315/402 659/314/402 
f 659/314/403 658/315/403 660/318/403 661/317/403 
f 662/319/404 661/317/404 660/318/404 663/320/404 
f 657/316/405 664/322/405 665/321/405 658/315/405 
f 658/315/406 665/321/406 666/323/406 660/318/406 
f 663/320/407 660/318/407 666/323/407 667/324/407 
f 664/322/408 668/326/408 669/325/408 665/321/408 
f 665/321/409 669/325/409 670/327/409 666/323/409 
f 667/324/410 666/323/410 670/327/410 671/328/410 
f 668/326/411 672/330/411 673/329/411 669/325/411 
f 669/325/412 673/329/412 674/331/412 670/327/412 
f 671/328/413 670/327/413 674/331/413 675/332/413 
f 674/331/414 676/334/414 677/333/414 675/332/414 
f 674/331/415 673/329/415 676/334/415 
f 676/334/416 673/329/416 672/330/416 
f 678/335/45 656/313/45 679/337/45 680/336/45 
f 659/314/45 681/338/45 679/337/45 656/313/45 
f 661/317/100 682/339/100 681/338/100 659/314/100 
f 679/337/417 683/341/417 684/340/417 680/336/417 
f 684/340/418 685/340/418 680/336/418 
f 681/338/419 686/342/419 683/341/419 679/337/419 
f 682/339/420 687/343/420 686/342/420 681/338/420 
f 688/344/45 689/345/45 686/342/45 687/343/45 
f 683/341/45 686/342/45 689/345/45 684/340/45 
f 690/346/421 691/349/421 692/348/421 693/347/421 
f 694/350/422 695/353/422 696/352/422 697/351/422 
f 690/354/95 694/350/95 697/351/95 691/355/95 
f 692/356/423 696/352/423 695/353/423 693/357/423 
f 693/347/424 698/359/424 699/358/424 690/346/424 
f 694/350/425 700/361/425 701/360/425 695/353/425 
f 690/354/95 699/362/95 700/361/95 694/350/95 
f 695/353/426 701/360/426 698/363/426 693/357/426 
f 698/359/427 702/365/427 703/364/427 699/358/427 
f 700/361/428 704/367/428 705/366/428 701/360/428 
f 699/362/95 703/368/95 704/367/95 700/361/95 
f 701/360/52 705/366/52 702/369/52 698/363/52 
f 702/365/429 706/371/429 707/370/429 703/364/429 
f 704/367/430 708/373/430 709/372/430 705/366/430 
f 703/368/95 707/374/95 708/373/95 704/367/95 
f 705/366/431 709/372/431 706/375/431 702/369/431 
f 708/373/432 707/374/432 706/375/432 709/372/432 
f 656/313/433 678/335/433 710/376/433 657/316/433 
f 657/316/434 710/376/434 711/377/434 664/322/434 
f 664/322/435 711/377/435 712/378/435 668/326/435 
f 668/326/436 712/378/436 713/379/436 672/330/436 
f 672/330/437 713/379/437 677/333/437 676/334/437 
f 662/319/45 714/380/45 682/339/45 661/317/45 
f 715/381/438 688/344/438 687/343/438 682/339/438 
f 714/380/439 715/381/439 682/339/439 
f 716/382/440 717/385/440 718/384/440 719/383/440 
f 720/386/441 721/389/441 722/388/441 723/387/441 
f 716/382/95 719/383/95 721/391/95 720/390/95 
f 718/384/442 717/385/442 723/393/442 722/392/442 
f 717/385/443 716/382/443 724/395/443 725/394/443 
f 720/386/444 723/387/444 726/397/444 727/396/444 
f 716/382/95 720/390/95 727/398/95 724/395/95 
f 723/393/445 717/385/445 725/394/445 726/399/445 
f 725/394/446 724/395/446 728/401/446 729/400/446 
f 727/396/447 726/397/447 730/403/447 731/402/447 
f 724/395/95 727/398/95 731/404/95 728/401/95 
f 726/399/52 725/394/52 729/400/52 730/405/52 
f 729/400/446 728/401/446 732/407/446 733/406/446 
f 731/402/448 730/403/448 734/409/448 735/408/448 
f 728/401/95 731/404/95 735/410/95 732/407/95 
f 730/405/449 729/400/449 733/406/449 734/411/449 
f 735/410/450 734/411/450 733/406/450 732/407/450 
f 736/412/451 737/415/451 738/414/451 739/413/451 
f 737/415/452 740/417/452 741/416/452 738/414/452 
f 662/418/453 663/419/453 741/416/453 740/417/453 
f 739/413/454 738/414/454 742/421/454 743/420/454 
f 738/414/455 741/416/455 744/422/455 742/421/455 
f 663/419/456 667/423/456 744/422/456 741/416/456 
f 743/420/457 742/421/457 745/425/457 746/424/457 
f 742/421/458 744/422/458 747/426/458 745/425/458 
f 667/423/459 671/427/459 747/426/459 744/422/459 
f 746/424/460 745/425/460 748/429/460 749/428/460 
f 745/425/461 747/426/461 750/430/461 748/429/461 
f 671/427/462 675/431/462 750/430/462 747/426/462 
f 750/430/463 675/431/463 677/433/463 751/432/463 
f 750/430/464 751/432/464 748/429/464 
f 751/432/465 749/428/465 748/429/465 
f 678/434/45 680/436/45 752/435/45 736/412/45 
f 737/415/45 736/412/45 752/435/45 753/437/45 
f 740/417/95 737/415/95 753/437/95 754/438/95 
f 680/436/466 685/436/466 755/440/466 752/435/466 
f 752/435/467 755/440/467 756/439/467 
f 753/437/468 752/435/468 756/439/468 757/441/468 
f 754/438/469 753/437/469 757/441/469 758/442/469 
f 759/443/45 758/442/45 757/441/45 760/444/45 
f 756/439/45 755/440/45 760/444/45 757/441/45 
f 761/445/470 762/448/470 763/447/470 764/446/470 
f 765/449/471 766/452/471 767/451/471 768/450/471 
f 761/453/45 764/454/45 766/452/45 765/449/45 
f 763/455/472 762/456/472 768/450/472 767/451/472 
f 762/448/473 761/445/473 769/458/473 770/457/473 
f 765/449/474 768/450/474 771/460/474 772/459/474 
f 761/453/45 765/449/45 772/459/45 769/461/45 
f 768/450/475 762/456/475 770/462/475 771/460/475 
f 770/457/476 769/458/476 773/464/476 774/463/476 
f 772/459/477 771/460/477 775/466/477 776/465/477 
f 769/461/45 772/459/45 776/465/45 773/467/45 
f 771/460/52 770/462/52 774/468/52 775/466/52 
f 774/463/476 773/464/476 777/470/476 778/469/476 
f 776/465/478 775/466/478 779/472/478 780/471/478 
f 773/467/45 776/465/45 780/471/45 777/473/45 
f 775/466/479 774/468/479 778/474/479 779/472/479 
f 780/471/480 779/472/480 778/474/480 777/473/480 
f 736/412/481 739/413/481 710/475/481 678/434/481 
f 739/413/482 743/420/482 711/476/482 710/475/482 
f 743/420/483 746/424/483 712/477/483 711/476/483 
f 746/424/484 749/428/484 713/478/484 712/477/484 
f 749/428/485 751/432/485 677/433/485 713/478/485 
f 662/418/45 740/417/45 754/438/45 714/479/45 
f 758/442/486 759/443/486 715/480/486 754/438/486 
f 714/479/487 754/438/487 715/480/487 
f 781/481/59 782/484/59 783/483/59 784/482/59 
f 784/482/58 783/483/58 785/486/58 786/485/58 
f 786/485/57 785/486/57 787/488/57 788/487/57 
f 788/487/56 787/488/56 789/490/56 790/489/56 
f 790/489/63 789/490/63 791/492/63 792/491/63 
f 792/491/62 791/492/62 793/494/62 794/493/62 
f 794/493/61 793/494/61 795/496/61 796/495/61 
f 796/497/60 795/498/60 782/484/60 781/481/60 
f 784/482/45 797/500/45 798/499/45 781/481/45 
f 786/485/45 799/501/45 797/500/45 784/482/45 
f 788/487/45 800/502/45 799/501/45 786/485/45 
f 790/489/45 801/503/45 800/502/45 788/487/45 
f 792/491/45 802/504/45 801/503/45 790/489/45 
f 794/493/45 803/505/45 802/504/45 792/491/45 
f 796/495/45 804/506/45 803/505/45 794/493/45 
f 781/481/45 798/499/45 804/507/45 796/497/45 
f 797/500/67 805/509/67 806/508/67 798/499/67 
f 799/501/66 807/510/66 805/509/66 797/500/66 
f 800/502/65 808/511/65 807/510/65 799/501/65 
f 801/503/64 809/512/64 808/511/64 800/502/64 
f 802/504/71 810/513/71 809/512/71 801/503/71 
f 803/505/70 811/514/70 810/513/70 802/504/70 
f 804/506/69 812/515/69 811/514/69 803/505/69 
f 798/499/68 806/508/68 812/516/68 804/507/68 
f 813/517/56 814/520/56 815/519/56 816/518/56 
f 816/518/63 815/519/63 817/522/63 818/521/63 
f 411/523/488 818/521/488 817/522/488 412/524/488 
f 413/525/95 813/517/95 819/527/95 414/526/95 
f 816/518/45 820/528/45 819/527/45 813/517/45 
f 818/521/45 821/529/45 820/528/45 816/518/45 
f 414/526/65 819/527/65 822/531/65 418/530/65 
f 820/528/64 823/532/64 822/531/64 819/527/64 
f 821/529/71 824/533/71 823/532/71 820/528/71 
f 443/4/489 110/131/489 422/534/489 444/3/489 
f 422/534/490 423/535/490 454/14/490 444/3/490 
f 423/535/491 41/48/491 460/20/491 454/14/491 
f 46/54/492 424/536/492 467/28/492 466/25/492 
f 467/28/493 424/536/493 37/537/493 476/45/493 
f 56/538/494 50/58/494 465/23/494 
f 465/23/495 485/62/495 56/538/495 
f 425/539/496 56/538/496 485/62/496 
f 56/542/497 484/541/497 483/540/497 482/543/497 
f 57/544/498 56/542/498 482/543/498 
f 33/33/499 425/539/499 485/62/499 474/36/499 
f 485/62/500 481/53/500 474/36/500 
f 450/9/501 47/55/501 426/545/501 542/138/501 
f 542/138/502 426/545/502 427/546/502 548/146/502 
f 548/146/503 427/546/503 428/547/503 554/154/503 
f 554/154/504 428/547/504 429/548/504 560/162/504 
f 429/548/45 132/549/45 556/165/45 560/162/45 
f 562/166/505 147/174/505 430/550/505 563/169/505 
f 567/170/45 145/172/45 431/551/45 570/178/45 
f 570/178/506 431/551/506 432/552/506 573/182/506 
f 615/251/95 433/554/95 207/553/95 614/250/95 
f 594/213/507 198/241/507 434/555/507 595/216/507 
f 595/216/508 434/555/508 435/556/508 600/224/508 
f 600/224/509 435/556/509 436/557/509 603/229/509 
f 603/229/510 436/557/510 437/558/510 606/234/510 
f 606/234/511 437/558/511 196/559/511 609/240/511 
f 182/221/100 438/560/100 612/246/100 599/218/100 
f 438/560/512 433/554/512 615/251/512 612/246/512 
f 813/517/513 413/525/513 439/561/513 814/520/513 
f 818/521/45 411/523/45 440/562/45 821/529/45 
f 821/529/70 440/562/70 441/563/70 824/533/70 
# 706 polygons - 34 triangles

